I 4 v4
Cray X-MP section 
S 20 arb8 1 1.000000000e+00 -1.000000000e+00 -1.000000000e+00 0.000000000e+00 2.000000000e+00 0.000000000e+00 0.000000000e+00 2.000000000e+00 2.000000000e+00 0.000000000e+00 0.000000000e+00 2.000000000e+00 -2.000000000e+00 0.000000000e+00 0.000000000e+00 -2.000000000e+00 2.000000000e+00 0.000000000e+00 -2.000000000e+00 2.000000000e+00 2.000000000e+00 -2.000000000e+00 0.000000000e+00 2.000000000e+00 
S 20 arb7 2 0.000000000e+00 0.000000000e+00 0.000000000e+00 0.000000000e+00 1.000000000e+00 0.000000000e+00 0.000000000e+00 1.000000000e+00 1.000000000e+00 0.000000000e+00 0.000000000e+00 5.000000000e-01 -1.000000000e+00 0.000000000e+00 0.000000000e+00 -1.000000000e+00 1.000000000e+00 0.000000000e+00 -1.000000000e+00 1.000000000e+00 5.000000000e-01 -1.000000000e+00 0.000000000e+00 0.000000000e+00 
S 20 arb5 3 0.000000000e+00 0.000000000e+00 0.000000000e+00 0.000000000e+00 1.000000000e+00 0.000000000e+00 0.000000000e+00 1.000000000e+00 1.000000000e+00 0.000000000e+00 0.000000000e+00 1.000000000e+00 -1.000000000e+00 5.000000000e-01 5.000000000e-01 -1.000000000e+00 5.000000000e-01 5.000000000e-01 -1.000000000e+00 5.000000000e-01 5.000000000e-01 -1.000000000e+00 5.000000000e-01 5.000000000e-01 
S 19 ellg 4 0.000000000e+00 0.000000000e+00 0.000000000e+00 1.000000000e+00 0.000000000e+00 0.000000000e+00 0.000000000e+00 3.535533845e-01 -3.535533845e-01 0.000000000e+00 3.535533845e-01 3.535533845e-01 0.000000000e+00 0.000000000e+00 0.000000000e+00 0.000000000e+00 0.000000000e+00 0.000000000e+00 0.000000000e+00 0.000000000e+00 0.000000000e+00 0.000000000e+00 0.000000000e+00 0.000000000e+00 
S 18 tgc 5 0.000000000e+00 0.000000000e+00 0.000000000e+00 0.000000000e+00 0.000000000e+00 1.000000000e+00 3.535533845e-01 -3.535533845e-01 0.000000000e+00 3.535533845e-01 3.535533845e-01 0.000000000e+00 3.535533845e-01 -3.535533845e-01 0.000000000e+00 3.535533845e-01 3.535533845e-01 0.000000000e+00 0.000000000e+00 0.000000000e+00 0.000000000e+00 0.000000000e+00 0.000000000e+00 0.000000000e+00 
S 16 tor 6 0.000000000e+00 0.000000000e+00 0.000000000e+00 0.000000000e+00 2.000000030e-01 0.000000000e+00 -7.071067691e-01 0.000000000e+00 7.071067691e-01 -7.071068287e-01 0.000000000e+00 -7.071068287e-01 -5.656854510e-01 0.000000000e+00 5.656854510e-01 -5.656853914e-01 0.000000000e+00 -5.656853914e-01 -8.485281467e-01 0.000000000e+00 8.485281467e-01 -8.485281467e-01 0.000000000e+00 -8.485281467e-01 
S 20 secwed 6 2.973176575e+02 1.494716797e+03 -2.539999962e+01 -5.946353149e+02 0.000000000e+00 0.000000000e+00 -5.946353149e+02 0.000000000e+00 2.057399658e+03 0.000000000e+00 0.000000000e+00 2.057399658e+03 -2.973176575e+02 -1.494716797e+03 0.000000000e+00 -2.973176575e+02 -1.494716797e+03 0.000000000e+00 -2.973176575e+02 -1.494716797e+03 2.057399658e+03 -2.973176575e+02 -1.494716797e+03 2.057399658e+03 
S 16 psouttor 6 0.000000000e+00 0.000000000e+00 4.572000122e+02 0.000000000e+00 0.000000000e+00 2.539999962e+01 0.000000000e+00 1.314449951e+03 0.000000000e+00 1.314449951e+03 0.000000000e+00 0.000000000e+00 0.000000000e+00 1.289049927e+03 0.000000000e+00 1.289049927e+03 0.000000000e+00 0.000000000e+00 0.000000000e+00 1.339849976e+03 0.000000000e+00 1.339849976e+03 0.000000000e+00 0.000000000e+00 
S 20 cpubox.a.a 8 6.379941177e+01 3.207413025e+02 0.000000000e+00 7.618765259e+01 3.830211487e+02 0.000000000e+00 7.618765259e+01 3.830211487e+02 1.955800049e+03 0.000000000e+00 0.000000000e+00 1.955800049e+03 -1.275988235e+02 0.000000000e+00 0.000000000e+00 -2.037864685e+02 3.830211487e+02 0.000000000e+00 -2.037864685e+02 3.830211487e+02 1.955800049e+03 -1.275988235e+02 0.000000000e+00 1.955800049e+03 
S 20 psminbox 8 1.523999939e+02 -1.270000000e+02 0.000000000e+00 0.000000000e+00 8.307624512e+02 0.000000000e+00 0.000000000e+00 8.307624512e+02 5.080000000e+02 0.000000000e+00 0.000000000e+00 5.080000000e+02 -3.047999878e+02 0.000000000e+00 0.000000000e+00 -3.047999878e+02 8.307624512e+02 0.000000000e+00 -3.047999878e+02 8.307624512e+02 5.080000000e+02 -3.047999878e+02 0.000000000e+00 5.080000000e+02 
S 20 psfootbox 8 1.145870590e+02 7.037624512e+02 0.000000000e+00 1.164494247e+02 5.854307861e+02 0.000000000e+00 1.164494247e+02 5.854307861e+02 2.539999962e+01 0.000000000e+00 0.000000000e+00 2.539999962e+01 -2.291741180e+02 0.000000000e+00 0.000000000e+00 -3.456235352e+02 5.854307861e+02 0.000000000e+00 -3.456235352e+02 5.854307861e+02 2.539999962e+01 -2.291741180e+02 0.000000000e+00 2.539999962e+01 
C Y cpubox.b 1000 0 1 16512 1 100 0 0 0 0 
M u cpubox.b.a 1.000000000e+00 0.000000000e+00 0.000000000e+00 0.000000000e+00 0.000000000e+00 1.000000000e+00 0.000000000e+00 0.000000000e+00 0.000000000e+00 0.000000000e+00 1.000000000e+00 0.000000000e+00 0.000000000e+00 0.000000000e+00 0.000000000e+00 1.000000000e+00 0 
m 0 1000 1099 241 187 24
m 0 1100 1199 9 7 20
S 20 cpubox.b.a 8 1.270000000e+02 6.921500244e+02 4.952999878e+02 0.000000000e+00 1.295397949e+01 0.000000000e+00 0.000000000e+00 1.295397949e+01 1.447800293e+03 0.000000000e+00 0.000000000e+00 1.447800293e+03 -2.540000000e+02 0.000000000e+00 0.000000000e+00 -2.540000000e+02 1.295397949e+01 0.000000000e+00 -2.540000000e+02 1.295397949e+01 1.447800293e+03 -2.540000000e+02 0.000000000e+00 1.447800293e+03 
S 20 psmaxbox 8 3.810000000e+02 -1.270000000e+02 2.539999962e+01 0.000000000e+00 1.441105103e+03 0.000000000e+00 0.000000000e+00 1.441105103e+03 4.572000122e+02 0.000000000e+00 0.000000000e+00 4.572000122e+02 -7.620000000e+02 0.000000000e+00 0.000000000e+00 -7.620000000e+02 1.441105103e+03 0.000000000e+00 -7.620000000e+02 1.441105103e+03 4.572000122e+02 -7.620000000e+02 0.000000000e+00 4.572000122e+02 
C N cpubox -1 0 2 0 0 0 0 0 0 0 
M u cpubox.a 1.000000000e+00 0.000000000e+00 0.000000000e+00 0.000000000e+00 0.000000000e+00 1.000000000e+00 0.000000000e+00 0.000000000e+00 0.000000000e+00 0.000000000e+00 1.000000000e+00 0.000000000e+00 0.000000000e+00 0.000000000e+00 0.000000000e+00 1.000000000e+00 0 
M u cpubox.b 1.000000000e+00 0.000000000e+00 0.000000000e+00 0.000000000e+00 0.000000000e+00 1.000000000e+00 0.000000000e+00 0.000000000e+00 0.000000000e+00 0.000000000e+00 1.000000000e+00 0.000000000e+00 0.000000000e+00 0.000000000e+00 0.000000000e+00 1.000000000e+00 0 
S 18 psoutzcyl 5 0.000000000e+00 0.000000000e+00 0.000000000e+00 0.000000000e+00 0.000000000e+00 4.572000122e+02 -1.524000000e+03 0.000000000e+00 0.000000000e+00 0.000000000e+00 -1.524000000e+03 0.000000000e+00 -1.524000000e+03 0.000000000e+00 0.000000000e+00 0.000000000e+00 -1.524000000e+03 0.000000000e+00 0.000000000e+00 0.000000000e+00 0.000000000e+00 0.000000000e+00 0.000000000e+00 0.000000000e+00 
C Y cpubox.a 1100 0 2 16512 1 100 0 0 0 0 
M u cpubox.a.a 1.000000000e+00 0.000000000e+00 0.000000000e+00 0.000000000e+00 0.000000000e+00 1.000000000e+00 0.000000000e+00 0.000000000e+00 0.000000000e+00 0.000000000e+00 1.000000000e+00 0.000000000e+00 0.000000000e+00 0.000000000e+00 0.000000000e+00 1.000000000e+00 0 
M - cpubox.b.a 1.000000000e+00 0.000000000e+00 0.000000000e+00 0.000000000e+00 0.000000000e+00 1.000000000e+00 0.000000000e+00 0.000000000e+00 0.000000000e+00 0.000000000e+00 1.000000000e+00 0.000000000e+00 0.000000000e+00 0.000000000e+00 0.000000000e+00 1.000000000e+00 0 
C N cw -1 0 2 0 0 0 0 0 0 0 
M u cpubox 1.000000000e+00 0.000000000e+00 0.000000000e+00 0.000000000e+00 0.000000000e+00 1.000000000e+00 0.000000000e+00 0.000000000e+00 0.000000000e+00 0.000000000e+00 1.000000000e+00 0.000000000e+00 0.000000000e+00 0.000000000e+00 0.000000000e+00 1.000000000e+00 0 
M u psbox 1.000000000e+00 0.000000000e+00 0.000000000e+00 0.000000000e+00 0.000000000e+00 1.000000000e+00 0.000000000e+00 0.000000000e+00 0.000000000e+00 0.000000000e+00 1.000000000e+00 0.000000000e+00 0.000000000e+00 0.000000000e+00 0.000000000e+00 1.000000000e+00 0 
C Y psfoot 1100 0 1 -6484 1 100 0 127 224 127 
M u psfootbox 1.000000000e+00 0.000000000e+00 0.000000000e+00 0.000000000e+00 0.000000000e+00 1.000000000e+00 0.000000000e+00 0.000000000e+00 0.000000000e+00 0.000000000e+00 1.000000000e+00 0.000000000e+00 0.000000000e+00 0.000000000e+00 0.000000000e+00 1.000000000e+00 0 
S 20 psoutnotch 8 3.810000000e+02 1.288705200e+03 4.572000122e+02 0.000000000e+00 1.082947998e+02 0.000000000e+00 0.000000000e+00 1.082947998e+02 5.079998779e+01 0.000000000e+00 0.000000000e+00 5.079998779e+01 -7.620000000e+02 0.000000000e+00 0.000000000e+00 -7.620000000e+02 1.082947998e+02 0.000000000e+00 -7.620000000e+02 1.082947998e+02 5.079998779e+01 -7.620000000e+02 0.000000000e+00 5.079998779e+01 
S 18 psoutcyl 5 0.000000000e+00 0.000000000e+00 4.572000122e+02 0.000000000e+00 0.000000000e+00 2.539999390e+01 -1.314449951e+03 0.000000000e+00 0.000000000e+00 0.000000000e+00 -1.314449951e+03 0.000000000e+00 -1.314449951e+03 0.000000000e+00 0.000000000e+00 0.000000000e+00 -1.314449951e+03 0.000000000e+00 0.000000000e+00 0.000000000e+00 0.000000000e+00 0.000000000e+00 0.000000000e+00 0.000000000e+00 
C N pslfttop -1 0 2 3 0 0 0 0 0 0 
M u pslfttopbox 1.000000000e+00 0.000000000e+00 0.000000000e+00 0.000000000e+00 0.000000000e+00 1.000000000e+00 0.000000000e+00 0.000000000e+00 0.000000000e+00 0.000000000e+00 1.000000000e+00 0.000000000e+00 0.000000000e+00 0.000000000e+00 0.000000000e+00 1.000000000e+00 0 
M - pslfttopcyl 1.000000000e+00 0.000000000e+00 0.000000000e+00 0.000000000e+00 0.000000000e+00 1.000000000e+00 0.000000000e+00 0.000000000e+00 0.000000000e+00 0.000000000e+00 1.000000000e+00 0.000000000e+00 0.000000000e+00 0.000000000e+00 0.000000000e+00 1.000000000e+00 0 
C N psrttop -1 0 2 28783 0 0 0 0 0 0 
M u psrttopbox 1.000000000e+00 0.000000000e+00 0.000000000e+00 0.000000000e+00 0.000000000e+00 1.000000000e+00 0.000000000e+00 0.000000000e+00 0.000000000e+00 0.000000000e+00 1.000000000e+00 0.000000000e+00 0.000000000e+00 0.000000000e+00 0.000000000e+00 1.000000000e+00 0 
M - psrttopcyl 1.000000000e+00 0.000000000e+00 0.000000000e+00 0.000000000e+00 0.000000000e+00 1.000000000e+00 0.000000000e+00 0.000000000e+00 0.000000000e+00 0.000000000e+00 1.000000000e+00 0.000000000e+00 0.000000000e+00 0.000000000e+00 0.000000000e+00 1.000000000e+00 0 
S 18 psintopcyl 5 -2.540000000e+02 7.620000000e+02 4.698999939e+02 5.080000000e+02 0.000000000e+00 0.000000000e+00 0.000000000e+00 -1.269999981e+01 0.000000000e+00 0.000000000e+00 0.000000000e+00 -1.269999981e+01 0.000000000e+00 -1.269999981e+01 0.000000000e+00 0.000000000e+00 0.000000000e+00 -1.269999981e+01 0.000000000e+00 0.000000000e+00 0.000000000e+00 0.000000000e+00 0.000000000e+00 0.000000000e+00 
S 20 psintopbox 8 3.810000000e+02 6.350000000e+02 4.698999939e+02 0.000000000e+00 1.270000000e+02 0.000000000e+00 0.000000000e+00 1.270000000e+02 1.651000061e+02 0.000000000e+00 0.000000000e+00 1.651000061e+02 -7.620000000e+02 0.000000000e+00 0.000000000e+00 -7.620000000e+02 1.270000000e+02 0.000000000e+00 -7.620000000e+02 1.270000000e+02 1.651000061e+02 -7.620000000e+02 0.000000000e+00 1.651000061e+02 
S 18 pslfttopcyl 5 3.012972832e+01 2.491194611e+02 4.635499878e+02 2.477647095e+02 1.245597290e+03 0.000000000e+00 0.000000000e+00 0.000000000e+00 -1.904999924e+01 -1.868395805e+01 3.716470718e+00 0.000000000e+00 0.000000000e+00 0.000000000e+00 -1.904999924e+01 -1.868395805e+01 3.716470718e+00 0.000000000e+00 0.000000000e+00 0.000000000e+00 0.000000000e+00 0.000000000e+00 0.000000000e+00 0.000000000e+00 
S 18 psrttopcyl 5 -3.012972832e+01 2.491194611e+02 4.635499878e+02 -2.477647095e+02 1.245597290e+03 0.000000000e+00 0.000000000e+00 0.000000000e+00 -1.904999924e+01 1.868395805e+01 3.716470718e+00 0.000000000e+00 0.000000000e+00 0.000000000e+00 -1.904999924e+01 1.868395805e+01 3.716470718e+00 0.000000000e+00 0.000000000e+00 0.000000000e+00 0.000000000e+00 0.000000000e+00 0.000000000e+00 0.000000000e+00 
S 20 pslrxybox 8 1.230900421e+02 7.164624634e+02 -1.270000000e+02 1.548043976e+02 7.782543335e+02 0.000000000e+00 1.548043976e+02 7.782543335e+02 7.620000000e+02 0.000000000e+00 0.000000000e+00 7.620000000e+02 -2.461800842e+02 0.000000000e+00 0.000000000e+00 -4.009844971e+02 7.782543335e+02 0.000000000e+00 -4.009844971e+02 7.782543335e+02 7.620000000e+02 -2.461800842e+02 0.000000000e+00 7.620000000e+02 
S 20 psrttopbox 8 -3.012972832e+01 2.491194611e+02 4.635499878e+02 -2.477647095e+02 1.245597290e+03 0.000000000e+00 -2.477647095e+02 1.245597290e+03 1.714500122e+02 0.000000000e+00 0.000000000e+00 1.714500122e+02 -1.270000000e+02 0.000000000e+00 0.000000000e+00 -4.001647034e+02 1.245597290e+03 0.000000000e+00 -4.001647034e+02 1.245597290e+03 1.714500122e+02 -1.270000000e+02 0.000000000e+00 1.714500122e+02 
S 20 pslfttopbox 8 1.571297302e+02 2.491194611e+02 4.635499878e+02 2.731647034e+02 1.245597290e+03 0.000000000e+00 2.731647034e+02 1.245597290e+03 1.714500122e+02 0.000000000e+00 0.000000000e+00 1.714500122e+02 -1.270000000e+02 0.000000000e+00 0.000000000e+00 1.207647095e+02 1.245597290e+03 0.000000000e+00 1.207647095e+02 1.245597290e+03 1.714500122e+02 -1.270000000e+02 0.000000000e+00 1.714500122e+02 
C N psintop -1 0 2 3 0 0 0 0 0 0 
M u psintopbox 1.000000000e+00 0.000000000e+00 0.000000000e+00 0.000000000e+00 0.000000000e+00 1.000000000e+00 0.000000000e+00 0.000000000e+00 0.000000000e+00 0.000000000e+00 1.000000000e+00 0.000000000e+00 0.000000000e+00 0.000000000e+00 0.000000000e+00 1.000000000e+00 0 
M - psintopcyl 1.000000000e+00 0.000000000e+00 0.000000000e+00 0.000000000e+00 0.000000000e+00 1.000000000e+00 0.000000000e+00 0.000000000e+00 0.000000000e+00 0.000000000e+00 1.000000000e+00 0.000000000e+00 0.000000000e+00 0.000000000e+00 0.000000000e+00 1.000000000e+00 0 
C N cpw0 -1 0 1 6 0 0 0 0 0 0 
M u cw 1.000000000e+00 0.000000000e+00 0.000000000e+00 0.000000000e+00 0.000000000e+00 1.000000000e+00 0.000000000e+00 0.000000000e+00 0.000000000e+00 0.000000000e+00 1.000000000e+00 0.000000000e+00 0.000000000e+00 0.000000000e+00 0.000000000e+00 1.000000000e+00 0 
C N psbasenotch -1 0 3 0 0 0 0 0 0 0 
M u psmaxbox 1.000000000e+00 0.000000000e+00 0.000000000e+00 0.000000000e+00 0.000000000e+00 1.000000000e+00 0.000000000e+00 0.000000000e+00 0.000000000e+00 0.000000000e+00 1.000000000e+00 0.000000000e+00 0.000000000e+00 0.000000000e+00 0.000000000e+00 1.000000000e+00 0 
M - psminbox 1.000000000e+00 0.000000000e+00 0.000000000e+00 0.000000000e+00 0.000000000e+00 1.000000000e+00 0.000000000e+00 0.000000000e+00 0.000000000e+00 0.000000000e+00 1.000000000e+00 0.000000000e+00 0.000000000e+00 0.000000000e+00 0.000000000e+00 1.000000000e+00 0 
M - psoutnotch 1.000000000e+00 0.000000000e+00 0.000000000e+00 0.000000000e+00 0.000000000e+00 1.000000000e+00 0.000000000e+00 0.000000000e+00 0.000000000e+00 0.000000000e+00 1.000000000e+00 0.000000000e+00 0.000000000e+00 0.000000000e+00 0.000000000e+00 1.000000000e+00 0 
C N psbox -1 0 2 3 0 0 0 0 0 0 
M u psbase 1.000000000e+00 0.000000000e+00 0.000000000e+00 0.000000000e+00 0.000000000e+00 1.000000000e+00 0.000000000e+00 0.000000000e+00 0.000000000e+00 0.000000000e+00 1.000000000e+00 0.000000000e+00 0.000000000e+00 0.000000000e+00 0.000000000e+00 1.000000000e+00 0 
M u psfoot 1.000000000e+00 0.000000000e+00 0.000000000e+00 0.000000000e+00 0.000000000e+00 1.000000000e+00 0.000000000e+00 0.000000000e+00 0.000000000e+00 0.000000000e+00 1.000000000e+00 0.000000000e+00 0.000000000e+00 0.000000000e+00 0.000000000e+00 1.000000000e+00 0 
C N cpw1 -1 0 1 0 0 0 0 0 0 0 
M u cw 9.238795042e-01 -3.826834261e-01 0.000000000e+00 0.000000000e+00 3.826834261e-01 9.238795042e-01 0.000000000e+00 0.000000000e+00 0.000000000e+00 0.000000000e+00 1.000000000e+00 0.000000000e+00 0.000000000e+00 0.000000000e+00 0.000000000e+00 1.000000000e+00 0 
C Y foodisk 1000 0 2 -6512 1 100 0 0 0 0 
M u psouttor 1.000000000e+00 0.000000000e+00 0.000000000e+00 0.000000000e+00 0.000000000e+00 1.000000000e+00 0.000000000e+00 0.000000000e+00 0.000000000e+00 0.000000000e+00 1.000000000e+00 0.000000000e+00 0.000000000e+00 0.000000000e+00 0.000000000e+00 1.000000000e+00 0 
M u psoutcyl 1.000000000e+00 0.000000000e+00 0.000000000e+00 0.000000000e+00 0.000000000e+00 1.000000000e+00 0.000000000e+00 0.000000000e+00 0.000000000e+00 0.000000000e+00 1.000000000e+00 0.000000000e+00 0.000000000e+00 0.000000000e+00 0.000000000e+00 1.000000000e+00 0 
C Y psbase 1000 0 5 16512 1 100 0 0 0 0 
M u psoutbox 1.000000000e+00 0.000000000e+00 0.000000000e+00 0.000000000e+00 0.000000000e+00 1.000000000e+00 0.000000000e+00 0.000000000e+00 0.000000000e+00 0.000000000e+00 1.000000000e+00 0.000000000e+00 0.000000000e+00 0.000000000e+00 0.000000000e+00 1.000000000e+00 0 
M - pslfttop 1.000000000e+00 0.000000000e+00 0.000000000e+00 0.000000000e+00 0.000000000e+00 1.000000000e+00 0.000000000e+00 0.000000000e+00 0.000000000e+00 0.000000000e+00 1.000000000e+00 0.000000000e+00 0.000000000e+00 0.000000000e+00 0.000000000e+00 1.000000000e+00 0 
M - psrttop 1.000000000e+00 0.000000000e+00 0.000000000e+00 0.000000000e+00 0.000000000e+00 1.000000000e+00 0.000000000e+00 0.000000000e+00 0.000000000e+00 0.000000000e+00 1.000000000e+00 0.000000000e+00 0.000000000e+00 0.000000000e+00 0.000000000e+00 1.000000000e+00 0 
M - psintop 1.000000000e+00 0.000000000e+00 0.000000000e+00 0.000000000e+00 0.000000000e+00 1.000000000e+00 0.000000000e+00 0.000000000e+00 0.000000000e+00 0.000000000e+00 1.000000000e+00 0.000000000e+00 0.000000000e+00 0.000000000e+00 0.000000000e+00 1.000000000e+00 0 
M + secwed 1.000000000e+00 0.000000000e+00 0.000000000e+00 0.000000000e+00 0.000000000e+00 1.000000000e+00 0.000000000e+00 0.000000000e+00 0.000000000e+00 0.000000000e+00 1.000000000e+00 0.000000000e+00 0.000000000e+00 0.000000000e+00 0.000000000e+00 1.000000000e+00 0 
C N cpw2 -1 0 1 0 0 0 0 0 0 0 
M u cw 7.071067691e-01 -7.071067691e-01 0.000000000e+00 0.000000000e+00 7.071067691e-01 7.071067691e-01 0.000000000e+00 0.000000000e+00 0.000000000e+00 0.000000000e+00 1.000000000e+00 0.000000000e+00 0.000000000e+00 0.000000000e+00 0.000000000e+00 1.000000000e+00 0 
C N cpw3 -1 0 1 0 0 0 0 0 0 0 
M u cw 3.826834261e-01 -9.238795042e-01 0.000000000e+00 0.000000000e+00 9.238795042e-01 3.826834261e-01 0.000000000e+00 0.000000000e+00 0.000000000e+00 0.000000000e+00 1.000000000e+00 0.000000000e+00 0.000000000e+00 0.000000000e+00 0.000000000e+00 1.000000000e+00 0 
C N psoutdisc -1 0 2 6 0 0 0 0 0 0 
M u psouttor 1.000000000e+00 0.000000000e+00 0.000000000e+00 0.000000000e+00 0.000000000e+00 1.000000000e+00 0.000000000e+00 0.000000000e+00 0.000000000e+00 0.000000000e+00 1.000000000e+00 0.000000000e+00 0.000000000e+00 0.000000000e+00 0.000000000e+00 1.000000000e+00 0 
M u psoutcyl 1.000000000e+00 0.000000000e+00 0.000000000e+00 0.000000000e+00 0.000000000e+00 1.000000000e+00 0.000000000e+00 0.000000000e+00 0.000000000e+00 0.000000000e+00 1.000000000e+00 0.000000000e+00 0.000000000e+00 0.000000000e+00 0.000000000e+00 1.000000000e+00 0 
C N psouthdisc -1 0 2 0 0 0 0 0 0 0 
M u psoutnotch 1.000000000e+00 0.000000000e+00 0.000000000e+00 0.000000000e+00 0.000000000e+00 1.000000000e+00 0.000000000e+00 0.000000000e+00 0.000000000e+00 0.000000000e+00 1.000000000e+00 0.000000000e+00 0.000000000e+00 0.000000000e+00 0.000000000e+00 1.000000000e+00 0 
M + psoutdisc 1.000000000e+00 0.000000000e+00 0.000000000e+00 0.000000000e+00 0.000000000e+00 1.000000000e+00 0.000000000e+00 0.000000000e+00 0.000000000e+00 0.000000000e+00 1.000000000e+00 0.000000000e+00 0.000000000e+00 0.000000000e+00 0.000000000e+00 1.000000000e+00 0 
C N psoutbox -1 0 2 3 0 0 0 0 0 0 
M u psbasenotch 1.000000000e+00 0.000000000e+00 0.000000000e+00 0.000000000e+00 0.000000000e+00 1.000000000e+00 0.000000000e+00 0.000000000e+00 0.000000000e+00 0.000000000e+00 1.000000000e+00 0.000000000e+00 0.000000000e+00 0.000000000e+00 0.000000000e+00 1.000000000e+00 0 
M u psouthdisc 1.000000000e+00 0.000000000e+00 0.000000000e+00 0.000000000e+00 0.000000000e+00 1.000000000e+00 0.000000000e+00 0.000000000e+00 0.000000000e+00 0.000000000e+00 1.000000000e+00 0.000000000e+00 0.000000000e+00 0.000000000e+00 0.000000000e+00 1.000000000e+00 0 
C N cpw4 -1 0 1 0 0 0 0 0 0 0 
M u cw 0.000000000e+00 -1.000000000e+00 0.000000000e+00 0.000000000e+00 1.000000000e+00 0.000000000e+00 0.000000000e+00 0.000000000e+00 0.000000000e+00 0.000000000e+00 1.000000000e+00 0.000000000e+00 0.000000000e+00 0.000000000e+00 0.000000000e+00 1.000000000e+00 0 
C N cpw5 -1 0 1 0 0 0 0 0 0 0 
M u cw -3.826834261e-01 -9.238795042e-01 0.000000000e+00 0.000000000e+00 9.238795042e-01 -3.826834261e-01 0.000000000e+00 0.000000000e+00 0.000000000e+00 0.000000000e+00 1.000000000e+00 0.000000000e+00 0.000000000e+00 0.000000000e+00 0.000000000e+00 1.000000000e+00 0 
C N cpw6 -1 0 1 0 0 0 0 0 0 0 
M u cw -7.071067691e-01 -7.071067691e-01 0.000000000e+00 0.000000000e+00 7.071067691e-01 -7.071067691e-01 0.000000000e+00 0.000000000e+00 0.000000000e+00 0.000000000e+00 1.000000000e+00 0.000000000e+00 0.000000000e+00 0.000000000e+00 0.000000000e+00 1.000000000e+00 0 
C N cpw7 -1 0 1 0 0 0 0 0 0 0 
M u cw -9.238795042e-01 -3.826834261e-01 0.000000000e+00 0.000000000e+00 3.826834261e-01 -9.238795042e-01 0.000000000e+00 0.000000000e+00 0.000000000e+00 0.000000000e+00 1.000000000e+00 0.000000000e+00 0.000000000e+00 0.000000000e+00 0.000000000e+00 1.000000000e+00 0 
C N cpw8 -1 0 1 0 0 0 0 0 0 0 
M u cw -1.000000000e+00 0.000000000e+00 0.000000000e+00 0.000000000e+00 0.000000000e+00 -1.000000000e+00 0.000000000e+00 0.000000000e+00 0.000000000e+00 0.000000000e+00 1.000000000e+00 0.000000000e+00 0.000000000e+00 0.000000000e+00 0.000000000e+00 1.000000000e+00 0 
C N cpw9 -1 0 1 0 0 0 0 0 0 0 
M u cw -9.238795042e-01 3.826834261e-01 0.000000000e+00 0.000000000e+00 -3.826834261e-01 -9.238795042e-01 0.000000000e+00 0.000000000e+00 0.000000000e+00 0.000000000e+00 1.000000000e+00 0.000000000e+00 0.000000000e+00 0.000000000e+00 0.000000000e+00 1.000000000e+00 0 
C N cpw10 -1 0 1 0 0 0 0 0 0 0 
M u cw -7.071067691e-01 7.071067691e-01 0.000000000e+00 0.000000000e+00 -7.071067691e-01 -7.071067691e-01 0.000000000e+00 0.000000000e+00 0.000000000e+00 0.000000000e+00 1.000000000e+00 0.000000000e+00 0.000000000e+00 0.000000000e+00 0.000000000e+00 1.000000000e+00 0 
C N cpw11 -1 0 1 0 0 0 0 0 0 0 
M u cw -3.826834261e-01 9.238795042e-01 0.000000000e+00 0.000000000e+00 -9.238795042e-01 -3.826834261e-01 0.000000000e+00 0.000000000e+00 0.000000000e+00 0.000000000e+00 1.000000000e+00 0.000000000e+00 0.000000000e+00 0.000000000e+00 0.000000000e+00 1.000000000e+00 0 
C N cpu -1 0 12 34 0 0 0 0 0 0 
M u cpw6 1.000000000e+00 0.000000000e+00 0.000000000e+00 0.000000000e+00 0.000000000e+00 1.000000000e+00 0.000000000e+00 0.000000000e+00 0.000000000e+00 0.000000000e+00 1.000000000e+00 0.000000000e+00 0.000000000e+00 0.000000000e+00 0.000000000e+00 1.000000000e+00 0 
M u cpw7 1.000000000e+00 0.000000000e+00 0.000000000e+00 0.000000000e+00 0.000000000e+00 1.000000000e+00 0.000000000e+00 0.000000000e+00 0.000000000e+00 0.000000000e+00 1.000000000e+00 0.000000000e+00 0.000000000e+00 0.000000000e+00 0.000000000e+00 1.000000000e+00 0 
M u cpw8 1.000000000e+00 0.000000000e+00 0.000000000e+00 0.000000000e+00 0.000000000e+00 1.000000000e+00 0.000000000e+00 0.000000000e+00 0.000000000e+00 0.000000000e+00 1.000000000e+00 0.000000000e+00 0.000000000e+00 0.000000000e+00 0.000000000e+00 1.000000000e+00 0 
M u cpw9 1.000000000e+00 0.000000000e+00 0.000000000e+00 0.000000000e+00 0.000000000e+00 1.000000000e+00 0.000000000e+00 0.000000000e+00 0.000000000e+00 0.000000000e+00 1.000000000e+00 0.000000000e+00 0.000000000e+00 0.000000000e+00 0.000000000e+00 1.000000000e+00 0 
M u cpw10 1.000000000e+00 0.000000000e+00 0.000000000e+00 0.000000000e+00 0.000000000e+00 1.000000000e+00 0.000000000e+00 0.000000000e+00 0.000000000e+00 0.000000000e+00 1.000000000e+00 0.000000000e+00 0.000000000e+00 0.000000000e+00 0.000000000e+00 1.000000000e+00 0 
M u cpw11 1.000000000e+00 0.000000000e+00 0.000000000e+00 0.000000000e+00 0.000000000e+00 1.000000000e+00 0.000000000e+00 0.000000000e+00 0.000000000e+00 0.000000000e+00 1.000000000e+00 0.000000000e+00 0.000000000e+00 0.000000000e+00 0.000000000e+00 1.000000000e+00 0 
M u cpw0 1.000000000e+00 0.000000000e+00 0.000000000e+00 0.000000000e+00 0.000000000e+00 1.000000000e+00 0.000000000e+00 0.000000000e+00 0.000000000e+00 0.000000000e+00 1.000000000e+00 0.000000000e+00 0.000000000e+00 0.000000000e+00 0.000000000e+00 1.000000000e+00 0 
M u cpw1 1.000000000e+00 0.000000000e+00 0.000000000e+00 0.000000000e+00 0.000000000e+00 1.000000000e+00 0.000000000e+00 0.000000000e+00 0.000000000e+00 0.000000000e+00 1.000000000e+00 0.000000000e+00 0.000000000e+00 0.000000000e+00 0.000000000e+00 1.000000000e+00 0 
M u cpw2 1.000000000e+00 0.000000000e+00 0.000000000e+00 0.000000000e+00 0.000000000e+00 1.000000000e+00 0.000000000e+00 0.000000000e+00 0.000000000e+00 0.000000000e+00 1.000000000e+00 0.000000000e+00 0.000000000e+00 0.000000000e+00 0.000000000e+00 1.000000000e+00 0 
M u cpw3 1.000000000e+00 0.000000000e+00 0.000000000e+00 0.000000000e+00 0.000000000e+00 1.000000000e+00 0.000000000e+00 0.000000000e+00 0.000000000e+00 0.000000000e+00 1.000000000e+00 0.000000000e+00 0.000000000e+00 0.000000000e+00 0.000000000e+00 1.000000000e+00 0 
M u cpw4 1.000000000e+00 0.000000000e+00 0.000000000e+00 0.000000000e+00 0.000000000e+00 1.000000000e+00 0.000000000e+00 0.000000000e+00 0.000000000e+00 0.000000000e+00 1.000000000e+00 0.000000000e+00 0.000000000e+00 0.000000000e+00 0.000000000e+00 1.000000000e+00 0 
M u cpw5 1.000000000e+00 0.000000000e+00 0.000000000e+00 0.000000000e+00 0.000000000e+00 1.000000000e+00 0.000000000e+00 0.000000000e+00 0.000000000e+00 0.000000000e+00 1.000000000e+00 0.000000000e+00 0.000000000e+00 0.000000000e+00 0.000000000e+00 1.000000000e+00 0 
