I 1 v4
Untitled v4 BRL-CAD Database
C Y floor.r 1000 0 1 0 1 100 1 255 255 255 0 0 0 
M u floor.s 1.000000000000e+00 0.000000000000e+00 0.000000000000e+00 0.000000000000e+00 0.000000000000e+00 1.000000000000e+00 0.000000000000e+00 0.000000000000e+00 0.000000000000e+00 0.000000000000e+00 1.000000000000e+00 0.000000000000e+00 0.000000000000e+00 0.000000000000e+00 0.000000000000e+00 1.000000000000e+00 0 
C Y ceiling.r 1001 0 2 0 1 100 1 255 255 255 0 0 0 
M u ceiling.s 1.000000000000e+00 0.000000000000e+00 0.000000000000e+00 0.000000000000e+00 0.000000000000e+00 1.000000000000e+00 0.000000000000e+00 0.000000000000e+00 0.000000000000e+00 0.000000000000e+00 1.000000000000e+00 0.000000000000e+00 0.000000000000e+00 0.000000000000e+00 0.000000000000e+00 1.000000000000e+00 0 
M - ceiling2.s 1.000000000000e+00 0.000000000000e+00 0.000000000000e+00 0.000000000000e+00 0.000000000000e+00 1.000000000000e+00 0.000000000000e+00 0.000000000000e+00 0.000000000000e+00 0.000000000000e+00 1.000000000000e+00 0.000000000000e+00 0.000000000000e+00 0.000000000000e+00 0.000000000000e+00 1.000000000000e+00 0 
C Y back_wall.r 1002 0 1 0 1 100 1 255 255 255 0 0 0 
M u back_wall.s 1.000000000000e+00 0.000000000000e+00 0.000000000000e+00 0.000000000000e+00 0.000000000000e+00 1.000000000000e+00 0.000000000000e+00 0.000000000000e+00 0.000000000000e+00 0.000000000000e+00 1.000000000000e+00 0.000000000000e+00 0.000000000000e+00 0.000000000000e+00 0.000000000000e+00 1.000000000000e+00 0 
C Y right_wall.r 1003 0 1 0 1 100 1 0 0 255 0 0 0 
M u right_wall.s 1.000000000000e+00 0.000000000000e+00 0.000000000000e+00 0.000000000000e+00 0.000000000000e+00 1.000000000000e+00 0.000000000000e+00 0.000000000000e+00 0.000000000000e+00 0.000000000000e+00 1.000000000000e+00 0.000000000000e+00 0.000000000000e+00 0.000000000000e+00 0.000000000000e+00 1.000000000000e+00 0 
C Y left_wall.r 1004 0 1 0 1 100 1 255 0 0 0 0 0 
M u left_wall.s 1.000000000000e+00 0.000000000000e+00 0.000000000000e+00 0.000000000000e+00 0.000000000000e+00 1.000000000000e+00 0.000000000000e+00 0.000000000000e+00 0.000000000000e+00 0.000000000000e+00 1.000000000000e+00 0.000000000000e+00 0.000000000000e+00 0.000000000000e+00 0.000000000000e+00 1.000000000000e+00 0 
C Y light.r 1005 0 1 0 1 100 1 255 255 255 1 1 0 
light
shadows=12
M u light.s 1.000000000000e+00 0.000000000000e+00 0.000000000000e+00 0.000000000000e+00 0.000000000000e+00 1.000000000000e+00 0.000000000000e+00 0.000000000000e+00 0.000000000000e+00 0.000000000000e+00 1.000000000000e+00 0.000000000000e+00 0.000000000000e+00 0.000000000000e+00 0.000000000000e+00 1.000000000000e+00 0 
C Y short_box.r 1006 0 1 0 1 100 0 0 0 0 0 0 0 
M u short_box.s 1.000000000000e+00 0.000000000000e+00 0.000000000000e+00 0.000000000000e+00 0.000000000000e+00 1.000000000000e+00 0.000000000000e+00 0.000000000000e+00 0.000000000000e+00 0.000000000000e+00 1.000000000000e+00 0.000000000000e+00 0.000000000000e+00 0.000000000000e+00 0.000000000000e+00 1.000000000000e+00 0 
C Y tall_box.r 1007 0 1 0 1 100 1 255 255 255 1 1 0 
plastic
re=0.05
M u tall_box.s 1.000000000000e+00 0.000000000000e+00 0.000000000000e+00 0.000000000000e+00 0.000000000000e+00 1.000000000000e+00 0.000000000000e+00 0.000000000000e+00 0.000000000000e+00 0.000000000000e+00 1.000000000000e+00 0.000000000000e+00 0.000000000000e+00 0.000000000000e+00 0.000000000000e+00 1.000000000000e+00 0 
C N all.g 0 0 8 0 0 0 0 0 0 0 0 0 0 
M u light.r 1.000000000000e+00 0.000000000000e+00 0.000000000000e+00 0.000000000000e+00 0.000000000000e+00 1.000000000000e+00 0.000000000000e+00 0.000000000000e+00 0.000000000000e+00 0.000000000000e+00 1.000000000000e+00 0.000000000000e+00 0.000000000000e+00 0.000000000000e+00 0.000000000000e+00 1.000000000000e+00 0 
M u back_wall.r 1.000000000000e+00 0.000000000000e+00 0.000000000000e+00 0.000000000000e+00 0.000000000000e+00 1.000000000000e+00 0.000000000000e+00 0.000000000000e+00 0.000000000000e+00 0.000000000000e+00 1.000000000000e+00 0.000000000000e+00 0.000000000000e+00 0.000000000000e+00 0.000000000000e+00 1.000000000000e+00 0 
M u tall_box.r 1.000000000000e+00 0.000000000000e+00 0.000000000000e+00 0.000000000000e+00 0.000000000000e+00 1.000000000000e+00 0.000000000000e+00 0.000000000000e+00 0.000000000000e+00 0.000000000000e+00 1.000000000000e+00 0.000000000000e+00 0.000000000000e+00 0.000000000000e+00 0.000000000000e+00 1.000000000000e+00 0 
M u floor.r 1.000000000000e+00 0.000000000000e+00 0.000000000000e+00 0.000000000000e+00 0.000000000000e+00 1.000000000000e+00 0.000000000000e+00 0.000000000000e+00 0.000000000000e+00 0.000000000000e+00 1.000000000000e+00 0.000000000000e+00 0.000000000000e+00 0.000000000000e+00 0.000000000000e+00 1.000000000000e+00 0 
M u right_wall.r 1.000000000000e+00 0.000000000000e+00 0.000000000000e+00 0.000000000000e+00 0.000000000000e+00 1.000000000000e+00 0.000000000000e+00 0.000000000000e+00 0.000000000000e+00 0.000000000000e+00 1.000000000000e+00 0.000000000000e+00 0.000000000000e+00 0.000000000000e+00 0.000000000000e+00 1.000000000000e+00 0 
M u left_wall.r 1.000000000000e+00 0.000000000000e+00 0.000000000000e+00 0.000000000000e+00 0.000000000000e+00 1.000000000000e+00 0.000000000000e+00 0.000000000000e+00 0.000000000000e+00 0.000000000000e+00 1.000000000000e+00 0.000000000000e+00 0.000000000000e+00 0.000000000000e+00 0.000000000000e+00 1.000000000000e+00 0 
M u short_box.r 1.000000000000e+00 0.000000000000e+00 0.000000000000e+00 0.000000000000e+00 0.000000000000e+00 1.000000000000e+00 0.000000000000e+00 0.000000000000e+00 0.000000000000e+00 0.000000000000e+00 1.000000000000e+00 0.000000000000e+00 0.000000000000e+00 0.000000000000e+00 0.000000000000e+00 1.000000000000e+00 0 
M u ceiling.r 1.000000000000e+00 0.000000000000e+00 0.000000000000e+00 0.000000000000e+00 0.000000000000e+00 1.000000000000e+00 0.000000000000e+00 0.000000000000e+00 0.000000000000e+00 0.000000000000e+00 1.000000000000e+00 0.000000000000e+00 0.000000000000e+00 0.000000000000e+00 0.000000000000e+00 1.000000000000e+00 0 
S 20 floor.s 0 0.000000000000e+00 -1.000000000000e+01 0.000000000000e+00 5.560000000000e+02 0.000000000000e+00 0.000000000000e+00 5.560000000000e+02 1.000000000000e+01 0.000000000000e+00 0.000000000000e+00 1.000000000000e+01 0.000000000000e+00 0.000000000000e+00 0.000000000000e+00 5.592000122070e+02 5.560000000000e+02 0.000000000000e+00 5.592000122070e+02 5.560000000000e+02 1.000000000000e+01 5.592000122070e+02 0.000000000000e+00 1.000000000000e+01 5.592000122070e+02 
S 20 ceiling.s 0 0.000000000000e+00 5.487999877930e+02 0.000000000000e+00 5.560000000000e+02 0.000000000000e+00 0.000000000000e+00 5.560000000000e+02 1.000000000000e+01 0.000000000000e+00 0.000000000000e+00 1.000000000000e+01 0.000000000000e+00 0.000000000000e+00 0.000000000000e+00 5.592000122070e+02 5.560000000000e+02 0.000000000000e+00 5.592000122070e+02 5.560000000000e+02 1.000000000000e+01 5.592000122070e+02 0.000000000000e+00 1.000000000000e+01 5.592000122070e+02 
S 20 ceiling2.s 0 2.130000000000e+02 5.487000122070e+02 2.270000000000e+02 1.300000000000e+02 0.000000000000e+00 0.000000000000e+00 1.300000000000e+02 2.013192325830e-01 0.000000000000e+00 0.000000000000e+00 2.013192325830e-01 0.000000000000e+00 0.000000000000e+00 0.000000000000e+00 1.050000000000e+02 1.300000000000e+02 0.000000000000e+00 1.050000000000e+02 1.300000000000e+02 2.013192325830e-01 1.050000000000e+02 0.000000000000e+00 2.013192325830e-01 1.050000000000e+02 
S 20 light.s 0 2.130000000000e+02 5.487999877930e+02 2.270000000000e+02 1.300000000000e+02 0.000000000000e+00 0.000000000000e+00 1.300000000000e+02 1.000000014901e-01 0.000000000000e+00 0.000000000000e+00 1.000000014901e-01 0.000000000000e+00 0.000000000000e+00 0.000000000000e+00 1.050000000000e+02 1.300000000000e+02 0.000000000000e+00 1.050000000000e+02 1.300000000000e+02 1.000000014901e-01 1.050000000000e+02 0.000000000000e+00 1.000000014901e-01 1.050000000000e+02 
S 20 short_box.s 0 1.300000000000e+02 0.000000000000e+00 6.500000000000e+01 -4.800000000000e+01 0.000000000000e+00 1.600000000000e+02 1.100000000000e+02 0.000000000000e+00 2.070000000000e+02 1.600000000000e+02 0.000000000000e+00 4.900000000000e+01 0.000000000000e+00 1.650000000000e+02 0.000000000000e+00 -4.800000000000e+01 1.650000000000e+02 1.600000000000e+02 1.100000000000e+02 1.650000000000e+02 2.070000000000e+02 1.600000000000e+02 1.650000000000e+02 4.900000000000e+01 
S 20 tall_box.s 0 4.230000000000e+02 3.300000000000e+02 2.470000000000e+02 -1.580000000000e+02 0.000000000000e+00 4.900000000000e+01 -1.090000000000e+02 0.000000000000e+00 2.090000000000e+02 4.900000000000e+01 0.000000000000e+00 1.590000000000e+02 0.000000000000e+00 -3.300000000000e+02 0.000000000000e+00 -1.580000000000e+02 -3.300000000000e+02 4.900000000000e+01 -1.090000000000e+02 -3.300000000000e+02 2.090000000000e+02 4.900000000000e+01 -3.300000000000e+02 1.590000000000e+02 
S 20 back_wall.s 0 0.000000000000e+00 -1.000000000000e+01 5.592000122070e+02 5.560000000000e+02 0.000000000000e+00 0.000000000000e+00 5.560000000000e+02 5.687999877930e+02 0.000000000000e+00 0.000000000000e+00 5.687999877930e+02 0.000000000000e+00 0.000000000000e+00 0.000000000000e+00 1.000000000000e+01 5.560000000000e+02 0.000000000000e+00 1.000000000000e+01 5.560000000000e+02 5.687999877930e+02 1.000000000000e+01 0.000000000000e+00 5.687999877930e+02 1.000000000000e+01 
S 20 right_wall.s 0 -1.000000000000e+01 -1.000000000000e+01 0.000000000000e+00 1.000000000000e+01 0.000000000000e+00 0.000000000000e+00 1.000000000000e+01 5.687999877930e+02 0.000000000000e+00 0.000000000000e+00 5.687999877930e+02 0.000000000000e+00 0.000000000000e+00 0.000000000000e+00 5.692000122070e+02 1.000000000000e+01 0.000000000000e+00 5.692000122070e+02 1.000000000000e+01 5.687999877930e+02 5.692000122070e+02 0.000000000000e+00 5.687999877930e+02 5.692000122070e+02 
S 20 left_wall.s 0 5.560000000000e+02 -1.000000000000e+01 0.000000000000e+00 1.000000000000e+01 0.000000000000e+00 0.000000000000e+00 1.000000000000e+01 5.687999877930e+02 0.000000000000e+00 0.000000000000e+00 5.687999877930e+02 0.000000000000e+00 0.000000000000e+00 0.000000000000e+00 5.692000122070e+02 1.000000000000e+01 0.000000000000e+00 5.692000122070e+02 1.000000000000e+01 5.687999877930e+02 5.692000122070e+02 0.000000000000e+00 5.687999877930e+02 5.692000122070e+02 
S 19 t 0 2.691979980469e+02 5.257210083008e+02 3.247829895020e+02 1.000000000000e+01 0.000000000000e+00 0.000000000000e+00 0.000000000000e+00 1.000000000000e+01 0.000000000000e+00 0.000000000000e+00 0.000000000000e+00 1.000000000000e+01 0.000000000000e+00 0.000000000000e+00 0.000000000000e+00 0.000000000000e+00 0.000000000000e+00 0.000000000000e+00 0.000000000000e+00 0.000000000000e+00 0.000000000000e+00 0.000000000000e+00 0.000000000000e+00 0.000000000000e+00 
