I 1 v4
Wavefront demo 
S 20 base1 1 6.000000000000e+02 -6.000000000000e+02 -1.500000000000e+02 0.000000000000e+00 1.200000000000e+03 0.000000000000e+00 0.000000000000e+00 1.200000000000e+03 5.000000000000e+01 0.000000000000e+00 0.000000000000e+00 5.000000000000e+01 -1.200000000000e+03 0.000000000000e+00 0.000000000000e+00 -1.200000000000e+03 1.200000000000e+03 0.000000000000e+00 -1.200000000000e+03 1.200000000000e+03 5.000000000000e+01 -1.200000000000e+03 0.000000000000e+00 5.000000000000e+01 
S 20 base2 1 2.500000000000e+02 -2.500000000000e+02 -1.000000000000e+02 0.000000000000e+00 5.000000000000e+02 0.000000000000e+00 0.000000000000e+00 5.000000000000e+02 5.000000000000e+01 0.000000000000e+00 0.000000000000e+00 5.000000000000e+01 -5.000000000000e+02 0.000000000000e+00 0.000000000000e+00 -5.000000000000e+02 5.000000000000e+02 0.000000000000e+00 -5.000000000000e+02 5.000000000000e+02 5.000000000000e+01 -5.000000000000e+02 0.000000000000e+00 5.000000000000e+01 
S 20 base3 1 2.000000000000e+02 -2.000000000000e+02 -5.000000000000e+01 0.000000000000e+00 4.000000000000e+02 0.000000000000e+00 0.000000000000e+00 4.000000000000e+02 5.000000000000e+01 0.000000000000e+00 0.000000000000e+00 5.000000000000e+01 -4.000000000000e+02 0.000000000000e+00 0.000000000000e+00 -4.000000000000e+02 4.000000000000e+02 0.000000000000e+00 -4.000000000000e+02 4.000000000000e+02 5.000000000000e+01 -4.000000000000e+02 0.000000000000e+00 5.000000000000e+01 
S 18 spike 14 0.000000000000e+00 0.000000000000e+00 0.000000000000e+00 0.000000000000e+00 0.000000000000e+00 1.600000000000e+03 1.060660320000e+02 -1.060660320000e+02 0.000000000000e+00 1.060660240000e+02 1.060660240000e+02 0.000000000000e+00 7.071068760000e-01 -7.071068760000e-01 0.000000000000e+00 7.071068280000e-01 7.071068280000e-01 0.000000000000e+00 0.000000000000e+00 0.000000000000e+00 0.000000000000e+00 0.000000000000e+00 0.000000000000e+00 0.000000000000e+00 
S 18 ring1o 12 0.000000000000e+00 0.000000000000e+00 5.000000000000e+02 0.000000000000e+00 0.000000000000e+00 3.000000000000e+01 4.176661070000e+02 -4.176661070000e+02 0.000000000000e+00 4.176661070000e+02 4.176661070000e+02 0.000000000000e+00 4.176661070000e+02 -4.176661070000e+02 0.000000000000e+00 4.176661070000e+02 4.176661070000e+02 0.000000000000e+00 0.000000000000e+00 0.000000000000e+00 0.000000000000e+00 0.000000000000e+00 0.000000000000e+00 0.000000000000e+00 
S 18 ring2o 12 0.000000000000e+00 0.000000000000e+00 1.000000000000e+03 0.000000000000e+00 0.000000000000e+00 3.000000000000e+01 1.918652340000e+02 -1.918652340000e+02 0.000000000000e+00 1.918652340000e+02 1.918652340000e+02 0.000000000000e+00 1.918652340000e+02 -1.918652340000e+02 0.000000000000e+00 1.918652340000e+02 1.918652340000e+02 0.000000000000e+00 0.000000000000e+00 0.000000000000e+00 0.000000000000e+00 0.000000000000e+00 0.000000000000e+00 0.000000000000e+00 
S 18 ring1i 12 0.000000000000e+00 0.000000000000e+00 4.990000000000e+02 0.000000000000e+00 0.000000000000e+00 3.200000000000e+01 2.121320490000e+02 -2.121320490000e+02 0.000000000000e+00 2.121320190000e+02 2.121320190000e+02 0.000000000000e+00 2.121320490000e+02 -2.121320490000e+02 0.000000000000e+00 2.121320190000e+02 2.121320190000e+02 0.000000000000e+00 0.000000000000e+00 0.000000000000e+00 0.000000000000e+00 0.000000000000e+00 0.000000000000e+00 0.000000000000e+00 
S 18 ring2i 12 0.000000000000e+00 0.000000000000e+00 9.990000000000e+02 0.000000000000e+00 0.000000000000e+00 3.200000000000e+01 1.060660240000e+02 -1.060660240000e+02 0.000000000000e+00 1.060660090000e+02 1.060660090000e+02 0.000000000000e+00 1.060660240000e+02 -1.060660240000e+02 0.000000000000e+00 1.060660090000e+02 1.060660090000e+02 0.000000000000e+00 0.000000000000e+00 0.000000000000e+00 0.000000000000e+00 0.000000000000e+00 0.000000000000e+00 0.000000000000e+00 
C Y ring1.r 1000 0 2 -1736 1 100 1 100 100 255 1 
mirror
M u ring1o 1.000000000000e+00 0.000000000000e+00 0.000000000000e+00 0.000000000000e+00 0.000000000000e+00 1.000000000000e+00 0.000000000000e+00 0.000000000000e+00 0.000000000000e+00 0.000000000000e+00 1.000000000000e+00 0.000000000000e+00 0.000000000000e+00 0.000000000000e+00 0.000000000000e+00 1.000000000000e+00 0 
M - ring1i 1.000000000000e+00 0.000000000000e+00 0.000000000000e+00 0.000000000000e+00 0.000000000000e+00 1.000000000000e+00 0.000000000000e+00 0.000000000000e+00 0.000000000000e+00 0.000000000000e+00 1.000000000000e+00 0.000000000000e+00 0.000000000000e+00 0.000000000000e+00 0.000000000000e+00 1.000000000000e+00 0 
C Y ring2.r 1001 0 2 0 1 100 1 100 100 255 1 
mirror
M u ring2o 1.000000000000e+00 0.000000000000e+00 0.000000000000e+00 0.000000000000e+00 0.000000000000e+00 1.000000000000e+00 0.000000000000e+00 0.000000000000e+00 0.000000000000e+00 0.000000000000e+00 1.000000000000e+00 0.000000000000e+00 0.000000000000e+00 0.000000000000e+00 0.000000000000e+00 1.000000000000e+00 0 
M - ring2i 1.000000000000e+00 0.000000000000e+00 0.000000000000e+00 0.000000000000e+00 0.000000000000e+00 1.000000000000e+00 0.000000000000e+00 0.000000000000e+00 0.000000000000e+00 0.000000000000e+00 1.000000000000e+00 0.000000000000e+00 0.000000000000e+00 0.000000000000e+00 0.000000000000e+00 1.000000000000e+00 0 
C Y base.r 1002 0 3 0 1 100 1 255 50 50 1 
mirror
M u base1 1.000000000000e+00 0.000000000000e+00 0.000000000000e+00 0.000000000000e+00 0.000000000000e+00 1.000000000000e+00 0.000000000000e+00 0.000000000000e+00 0.000000000000e+00 0.000000000000e+00 1.000000000000e+00 0.000000000000e+00 0.000000000000e+00 0.000000000000e+00 0.000000000000e+00 1.000000000000e+00 0 
M u base2 1.000000000000e+00 0.000000000000e+00 0.000000000000e+00 0.000000000000e+00 0.000000000000e+00 1.000000000000e+00 0.000000000000e+00 0.000000000000e+00 0.000000000000e+00 0.000000000000e+00 1.000000000000e+00 0.000000000000e+00 0.000000000000e+00 0.000000000000e+00 0.000000000000e+00 1.000000000000e+00 0 
M u base3 1.000000000000e+00 0.000000000000e+00 0.000000000000e+00 0.000000000000e+00 0.000000000000e+00 1.000000000000e+00 0.000000000000e+00 0.000000000000e+00 0.000000000000e+00 0.000000000000e+00 1.000000000000e+00 0.000000000000e+00 0.000000000000e+00 0.000000000000e+00 0.000000000000e+00 1.000000000000e+00 0 
S 19 ball1 11 -3.141181940000e+02 2.818759150000e+02 6.799956050000e+02 1.500000000000e+02 0.000000000000e+00 0.000000000000e+00 0.000000000000e+00 1.500000000000e+02 0.000000000000e+00 0.000000000000e+00 0.000000000000e+00 1.500000000000e+02 0.000000000000e+00 0.000000000000e+00 0.000000000000e+00 0.000000000000e+00 0.000000000000e+00 0.000000000000e+00 0.000000000000e+00 0.000000000000e+00 0.000000000000e+00 0.000000000000e+00 0.000000000000e+00 0.000000000000e+00 
S 19 ball2 11 1.240840220000e+02 -1.500001830000e+02 1.083048090000e+03 5.000000000000e+01 0.000000000000e+00 0.000000000000e+00 0.000000000000e+00 5.000000000000e+01 0.000000000000e+00 0.000000000000e+00 0.000000000000e+00 5.000000000000e+01 0.000000000000e+00 0.000000000000e+00 0.000000000000e+00 0.000000000000e+00 0.000000000000e+00 0.000000000000e+00 0.000000000000e+00 0.000000000000e+00 0.000000000000e+00 0.000000000000e+00 0.000000000000e+00 0.000000000000e+00 
S 19 light1 11 2.000000000000e+02 7.000000000000e+02 1.100000000000e+03 1.000000000000e+01 0.000000000000e+00 0.000000000000e+00 0.000000000000e+00 1.000000000000e+01 0.000000000000e+00 0.000000000000e+00 0.000000000000e+00 1.000000000000e+01 0.000000000000e+00 0.000000000000e+00 0.000000000000e+00 0.000000000000e+00 0.000000000000e+00 0.000000000000e+00 0.000000000000e+00 0.000000000000e+00 0.000000000000e+00 0.000000000000e+00 0.000000000000e+00 0.000000000000e+00 
C Y light1.r 1006 0 1 0 1 100 0 0 0 0 1 
light
M u light1 1.000000000000e+00 0.000000000000e+00 0.000000000000e+00 0.000000000000e+00 0.000000000000e+00 1.000000000000e+00 0.000000000000e+00 0.000000000000e+00 0.000000000000e+00 0.000000000000e+00 1.000000000000e+00 0.000000000000e+00 0.000000000000e+00 0.000000000000e+00 0.000000000000e+00 1.000000000000e+00 0 
C Y spike.r 1003 0 1 -20382 1 100 0 9 171 216 1 
mirror
M u spike 1.000000000000e+00 0.000000000000e+00 0.000000000000e+00 0.000000000000e+00 0.000000000000e+00 1.000000000000e+00 0.000000000000e+00 0.000000000000e+00 0.000000000000e+00 0.000000000000e+00 1.000000000000e+00 0.000000000000e+00 0.000000000000e+00 0.000000000000e+00 0.000000000000e+00 1.000000000000e+00 0 
S 19 ocloud 11 0.000000000000e+00 0.000000000000e+00 0.000000000000e+00 5.000000000000e+03 0.000000000000e+00 0.000000000000e+00 0.000000000000e+00 5.000000000000e+03 0.000000000000e+00 0.000000000000e+00 0.000000000000e+00 5.000000000000e+03 0.000000000000e+00 0.000000000000e+00 0.000000000000e+00 0.000000000000e+00 0.000000000000e+00 0.000000000000e+00 0.000000000000e+00 0.000000000000e+00 0.000000000000e+00 0.000000000000e+00 0.000000000000e+00 0.000000000000e+00 
S 19 icloud 11 0.000000000000e+00 0.000000000000e+00 0.000000000000e+00 4.990000000000e+03 0.000000000000e+00 0.000000000000e+00 0.000000000000e+00 4.990000000000e+03 0.000000000000e+00 0.000000000000e+00 0.000000000000e+00 4.990000000000e+03 0.000000000000e+00 0.000000000000e+00 0.000000000000e+00 0.000000000000e+00 0.000000000000e+00 0.000000000000e+00 0.000000000000e+00 0.000000000000e+00 0.000000000000e+00 0.000000000000e+00 0.000000000000e+00 0.000000000000e+00 
S 19 light2 11 2.920000000000e+02 -1.800000000000e+01 4.750000000000e+02 1.000000000000e+01 0.000000000000e+00 0.000000000000e+00 0.000000000000e+00 1.000000000000e+01 0.000000000000e+00 0.000000000000e+00 0.000000000000e+00 1.000000000000e+01 0.000000000000e+00 0.000000000000e+00 0.000000000000e+00 0.000000000000e+00 0.000000000000e+00 0.000000000000e+00 0.000000000000e+00 0.000000000000e+00 0.000000000000e+00 0.000000000000e+00 0.000000000000e+00 0.000000000000e+00 
C Y light2.r 1000 0 1 24636 1 100 1 255 0 0 1 
light
M u light2 1.000000000000e+00 0.000000000000e+00 0.000000000000e+00 0.000000000000e+00 0.000000000000e+00 1.000000000000e+00 0.000000000000e+00 0.000000000000e+00 0.000000000000e+00 0.000000000000e+00 1.000000000000e+00 0.000000000000e+00 0.000000000000e+00 0.000000000000e+00 0.000000000000e+00 1.000000000000e+00 0 
C Y balls.r 1004 0 2 -1736 1 100 1 70 200 70 1 
mirror
M u ball1 1.000000000000e+00 0.000000000000e+00 0.000000000000e+00 0.000000000000e+00 0.000000000000e+00 1.000000000000e+00 0.000000000000e+00 0.000000000000e+00 0.000000000000e+00 0.000000000000e+00 1.000000000000e+00 0.000000000000e+00 0.000000000000e+00 0.000000000000e+00 0.000000000000e+00 1.000000000000e+00 0 
M u ball2 1.000000000000e+00 0.000000000000e+00 0.000000000000e+00 0.000000000000e+00 0.000000000000e+00 1.000000000000e+00 0.000000000000e+00 0.000000000000e+00 0.000000000000e+00 0.000000000000e+00 1.000000000000e+00 0.000000000000e+00 0.000000000000e+00 0.000000000000e+00 0.000000000000e+00 1.000000000000e+00 0 
C Y clouds.r 1007 0 2 -1736 1 100 0 0 0 0 1 
cloud
M u ocloud 1.000000000000e+00 0.000000000000e+00 0.000000000000e+00 0.000000000000e+00 0.000000000000e+00 1.000000000000e+00 0.000000000000e+00 0.000000000000e+00 0.000000000000e+00 0.000000000000e+00 1.000000000000e+00 0.000000000000e+00 0.000000000000e+00 0.000000000000e+00 0.000000000000e+00 1.000000000000e+00 0 
M - icloud 1.000000000000e+00 0.000000000000e+00 0.000000000000e+00 0.000000000000e+00 0.000000000000e+00 1.000000000000e+00 0.000000000000e+00 0.000000000000e+00 0.000000000000e+00 0.000000000000e+00 1.000000000000e+00 0.000000000000e+00 0.000000000000e+00 0.000000000000e+00 0.000000000000e+00 1.000000000000e+00 0 
C N all.g -1 0 8 0 0 0 0 0 0 1 
M u base.r 1.000000000000e+00 0.000000000000e+00 0.000000000000e+00 0.000000000000e+00 0.000000000000e+00 1.000000000000e+00 0.000000000000e+00 0.000000000000e+00 0.000000000000e+00 0.000000000000e+00 1.000000000000e+00 0.000000000000e+00 0.000000000000e+00 0.000000000000e+00 0.000000000000e+00 1.000000000000e+00 0 
M u ring1.r 1.000000000000e+00 0.000000000000e+00 0.000000000000e+00 0.000000000000e+00 0.000000000000e+00 1.000000000000e+00 0.000000000000e+00 0.000000000000e+00 0.000000000000e+00 0.000000000000e+00 1.000000000000e+00 0.000000000000e+00 0.000000000000e+00 0.000000000000e+00 0.000000000000e+00 1.000000000000e+00 0 
M u ring2.r 1.000000000000e+00 0.000000000000e+00 0.000000000000e+00 0.000000000000e+00 0.000000000000e+00 1.000000000000e+00 0.000000000000e+00 0.000000000000e+00 0.000000000000e+00 0.000000000000e+00 1.000000000000e+00 0.000000000000e+00 0.000000000000e+00 0.000000000000e+00 0.000000000000e+00 1.000000000000e+00 0 
M u spike.r 1.000000000000e+00 0.000000000000e+00 0.000000000000e+00 0.000000000000e+00 0.000000000000e+00 1.000000000000e+00 0.000000000000e+00 0.000000000000e+00 0.000000000000e+00 0.000000000000e+00 1.000000000000e+00 0.000000000000e+00 0.000000000000e+00 0.000000000000e+00 0.000000000000e+00 1.000000000000e+00 0 
M u balls.r 1.000000000000e+00 0.000000000000e+00 0.000000000000e+00 0.000000000000e+00 0.000000000000e+00 1.000000000000e+00 0.000000000000e+00 0.000000000000e+00 0.000000000000e+00 0.000000000000e+00 1.000000000000e+00 0.000000000000e+00 0.000000000000e+00 0.000000000000e+00 0.000000000000e+00 1.000000000000e+00 0 
M u light1.r 1.000000000000e+00 0.000000000000e+00 0.000000000000e+00 0.000000000000e+00 0.000000000000e+00 1.000000000000e+00 0.000000000000e+00 0.000000000000e+00 0.000000000000e+00 0.000000000000e+00 1.000000000000e+00 0.000000000000e+00 0.000000000000e+00 0.000000000000e+00 0.000000000000e+00 1.000000000000e+00 0 
M u clouds.r 1.000000000000e+00 0.000000000000e+00 0.000000000000e+00 0.000000000000e+00 0.000000000000e+00 1.000000000000e+00 0.000000000000e+00 0.000000000000e+00 0.000000000000e+00 0.000000000000e+00 1.000000000000e+00 0.000000000000e+00 0.000000000000e+00 0.000000000000e+00 0.000000000000e+00 1.000000000000e+00 0 
M u light2.r 1.000000000000e+00 0.000000000000e+00 0.000000000000e+00 0.000000000000e+00 0.000000000000e+00 1.000000000000e+00 0.000000000000e+00 0.000000000000e+00 0.000000000000e+00 0.000000000000e+00 1.000000000000e+00 0.000000000000e+00 0.000000000000e+00 0.000000000000e+00 0.000000000000e+00 1.000000000000e+00 0 
