I 3 v4
enterprise shuttlecraft 
S 20 mainrect 8 1.000098828125e+04 8.202371093750e+03 1.000000000000e+04 -9.892578125000e-01 6.337628906250e+03 0.000000000000e+00 -9.882812500000e-01 6.337628906250e+03 1.739999023438e+03 9.765625000000e-04 0.000000000000e+00 1.739999023438e+03 -2.381765136719e+03 -9.072265625000e-01 0.000000000000e+00 -2.380989257813e+03 6.337628906250e+03 0.000000000000e+00 -2.380989257813e+03 6.337632812500e+03 1.740000976563e+03 -2.381765136719e+03 -9.072265625000e-01 1.740000976563e+03 
m 0 1000 1003 200 200 225
S 20 subtrfrnt 8 1.050000000000e+04 7.620000000000e+03 1.000000000000e+04 0.000000000000e+00 1.675976562500e+03 1.947512695313e+03 0.000000000000e+00 4.680527343750e+02 2.539914062500e+03 0.000000000000e+00 6.860449218750e+01 1.899951171875e+03 -3.500000000000e+03 -4.882812500000e-04 -9.765625000000e-04 -3.500000000000e+03 1.675976562500e+03 1.947512695313e+03 -3.500000000000e+03 4.680527343750e+02 2.539914062500e+03 -3.500000488281e+03 6.860449218750e+01 1.899951171875e+03 
m 0 1004 1004 50 50 50
S 20 bktchop 8 1.020000000000e+04 1.490000000000e+04 1.064000000000e+04 0.000000000000e+00 -1.800000000000e+02 1.100000000000e+03 0.000000000000e+00 1.000000000000e+02 1.100000000000e+03 0.000000000000e+00 1.000000000000e+02 0.000000000000e+00 -2.780000000000e+03 0.000000000000e+00 0.000000000000e+00 -2.780000000000e+03 -1.800000000000e+02 1.100000000000e+03 -2.780000000000e+03 1.000000000000e+02 1.100000000000e+03 -2.780000000000e+03 1.000000000000e+02 0.000000000000e+00 
S 20 bkbchop 8 1.020000000000e+04 1.490000000000e+04 1.064000000000e+04 0.000000000000e+00 -3.600000000000e+02 -6.400000000000e+02 0.000000000000e+00 1.000000000000e+02 -6.400000000000e+02 0.000000000000e+00 1.000000000000e+02 0.000000000000e+00 -2.780000000000e+03 0.000000000000e+00 0.000000000000e+00 -2.780000000000e+03 -3.600000000000e+02 -6.400000000000e+02 -2.780000000000e+03 1.000000000000e+02 -6.400000000000e+02 -2.780000000000e+03 1.000000000000e+02 0.000000000000e+00 
S 20 tailend 8 1.000000000000e+04 1.454000000000e+04 1.000000000000e+04 0.000000000000e+00 3.600000000000e+02 6.400000000000e+02 0.000000000000e+00 1.800000000000e+02 1.740000000000e+03 0.000000000000e+00 0.000000000000e+00 1.740000000000e+03 -2.380000000000e+03 0.000000000000e+00 0.000000000000e+00 -2.380000000000e+03 3.600000000000e+02 6.400000000000e+02 -2.380000000000e+03 1.800000000000e+02 1.740000000000e+03 -2.380000000000e+03 0.000000000000e+00 1.740000000000e+03 
S 20 leftside 6 1.000000000000e+04 8.200000000000e+03 1.174000000000e+04 0.000000000000e+00 0.000000000000e+00 -1.740000000000e+03 0.000000000000e+00 6.700000000000e+03 -1.740000000000e+03 0.000000000000e+00 6.700000000000e+03 0.000000000000e+00 2.000000000000e+02 0.000000000000e+00 -1.100000000000e+03 2.000000000000e+02 0.000000000000e+00 -1.100000000000e+03 2.000000000000e+02 6.700000000000e+03 -1.100000000000e+03 2.000000000000e+02 6.700000000000e+03 -1.100000000000e+03 
S 20 rightside 6 7.620000000000e+03 8.200000000000e+03 1.174000000000e+04 0.000000000000e+00 0.000000000000e+00 -1.740000000000e+03 0.000000000000e+00 6.700000000000e+03 -1.740000000000e+03 0.000000000000e+00 6.700000000000e+03 0.000000000000e+00 -2.000000000000e+02 0.000000000000e+00 -1.100000000000e+03 -2.000000000000e+02 0.000000000000e+00 -1.100000000000e+03 -2.000000000000e+02 6.700000000000e+03 -1.100000000000e+03 -2.000000000000e+02 6.700000000000e+03 -1.100000000000e+03 
S 20 leftwing 6 1.020000000000e+04 1.100000000000e+04 1.064000000000e+04 0.000000000000e+00 0.000000000000e+00 -6.000000000000e+01 0.000000000000e+00 3.840000000000e+03 -6.000000000000e+01 0.000000000000e+00 3.840000000000e+03 0.000000000000e+00 4.400000000000e+02 3.600000000000e+02 -3.000000000000e+01 4.400000000000e+02 3.600000000000e+02 -3.000000000000e+01 4.400000000000e+02 3.400000000000e+03 -3.000000000000e+01 4.400000000000e+02 3.400000000000e+03 -3.000000000000e+01 
S 20 rightwing 6 7.420000000000e+03 1.100000000000e+04 1.064000000000e+04 0.000000000000e+00 0.000000000000e+00 -6.000000000000e+01 0.000000000000e+00 3.840000000000e+03 -6.000000000000e+01 0.000000000000e+00 3.840000000000e+03 0.000000000000e+00 -4.400000000000e+02 3.600000000000e+02 -3.000000000000e+01 -4.400000000000e+02 3.600000000000e+02 -3.000000000000e+01 -4.400000000000e+02 3.400000000000e+03 -3.000000000000e+01 -4.400000000000e+02 3.400000000000e+03 -3.000000000000e+01 
m 0 1005 1007 200 200 225
S 20 leftleg 8 1.024000000000e+04 1.120000000000e+04 1.058000000000e+04 0.000000000000e+00 3.600000000000e+03 0.000000000000e+00 6.000000000000e+02 3.160000000000e+03 -5.800000000000e+02 6.000000000000e+02 4.400000000000e+02 -5.800000000000e+02 8.000000000000e+01 0.000000000000e+00 0.000000000000e+00 8.000000000000e+01 3.600000000000e+03 0.000000000000e+00 6.800000000000e+02 3.160000000000e+03 -5.800000000000e+02 6.800000000000e+02 4.400000000000e+02 -5.800000000000e+02 
S 20 rightleg 8 7.380000000000e+03 1.120000000000e+04 1.058000000000e+04 0.000000000000e+00 3.600000000000e+03 0.000000000000e+00 -6.000000000000e+02 3.160000000000e+03 -5.800000000000e+02 -6.000000000000e+02 4.400000000000e+02 -5.800000000000e+02 -8.000000000000e+01 0.000000000000e+00 0.000000000000e+00 -8.000000000000e+01 3.600000000000e+03 0.000000000000e+00 -6.800000000000e+02 3.160000000000e+03 -5.800000000000e+02 -6.800000000000e+02 4.400000000000e+02 -5.800000000000e+02 
S 18 sidecut 12 1.020000000000e+04 1.000000000000e+04 1.288000000000e+04 -2.780000000000e+03 0.000000000000e+00 0.000000000000e+00 0.000000000000e+00 -2.880000000000e+03 0.000000000000e+00 0.000000000000e+00 0.000000000000e+00 2.880000000000e+03 0.000000000000e+00 -2.880000000000e+03 0.000000000000e+00 0.000000000000e+00 0.000000000000e+00 2.880000000000e+03 0.000000000000e+00 0.000000000000e+00 0.000000000000e+00 0.000000000000e+00 0.000000000000e+00 0.000000000000e+00 
S 18 rightcyl 12 6.741257812500e+03 1.001226562500e+04 9.774093750000e+03 0.000000000000e+00 4.600000000000e+03 0.000000000000e+00 0.000000000000e+00 0.000000000000e+00 -2.400000000000e+02 -2.400000000000e+02 0.000000000000e+00 0.000000000000e+00 0.000000000000e+00 0.000000000000e+00 -2.400000000000e+02 -2.400000000000e+02 0.000000000000e+00 0.000000000000e+00 0.000000000000e+00 0.000000000000e+00 0.000000000000e+00 0.000000000000e+00 0.000000000000e+00 0.000000000000e+00 
S 18 leftcyl 12 1.087560546875e+04 1.001225390625e+04 9.773996093750e+03 0.000000000000e+00 4.600000000000e+03 0.000000000000e+00 0.000000000000e+00 0.000000000000e+00 -2.400000000000e+02 -2.400000000000e+02 0.000000000000e+00 0.000000000000e+00 0.000000000000e+00 0.000000000000e+00 -2.400000000000e+02 -2.400000000000e+02 0.000000000000e+00 0.000000000000e+00 0.000000000000e+00 0.000000000000e+00 0.000000000000e+00 0.000000000000e+00 0.000000000000e+00 0.000000000000e+00 
S 19 lfrontsph 11 1.087560546875e+04 1.001225390625e+04 9.773996093750e+03 2.400000000000e+02 0.000000000000e+00 0.000000000000e+00 0.000000000000e+00 2.400000000000e+02 0.000000000000e+00 0.000000000000e+00 0.000000000000e+00 2.400000000000e+02 0.000000000000e+00 0.000000000000e+00 0.000000000000e+00 0.000000000000e+00 0.000000000000e+00 0.000000000000e+00 0.000000000000e+00 0.000000000000e+00 0.000000000000e+00 0.000000000000e+00 0.000000000000e+00 0.000000000000e+00 
S 19 rfrontsph 11 6.741257812500e+03 1.001226562500e+04 9.774093750000e+03 2.400000000000e+02 0.000000000000e+00 0.000000000000e+00 0.000000000000e+00 2.400000000000e+02 0.000000000000e+00 0.000000000000e+00 0.000000000000e+00 2.400000000000e+02 0.000000000000e+00 0.000000000000e+00 0.000000000000e+00 0.000000000000e+00 0.000000000000e+00 0.000000000000e+00 0.000000000000e+00 0.000000000000e+00 0.000000000000e+00 0.000000000000e+00 0.000000000000e+00 0.000000000000e+00 
S 18 ltailout 12 1.087560546875e+04 1.461225390625e+04 9.773996093750e+03 0.000000000000e+00 4.400000000000e+02 0.000000000000e+00 0.000000000000e+00 0.000000000000e+00 -2.400000000000e+02 -2.400000000000e+02 0.000000000000e+00 0.000000000000e+00 0.000000000000e+00 0.000000000000e+00 -2.400000000000e+02 -2.400000000000e+02 0.000000000000e+00 0.000000000000e+00 0.000000000000e+00 0.000000000000e+00 0.000000000000e+00 0.000000000000e+00 0.000000000000e+00 0.000000000000e+00 
S 18 ltailin 12 1.087560546875e+04 1.461225390625e+04 9.773996093750e+03 0.000000000000e+00 4.400000000000e+02 0.000000000000e+00 0.000000000000e+00 0.000000000000e+00 -2.300000000000e+02 -2.300000000000e+02 0.000000000000e+00 0.000000000000e+00 0.000000000000e+00 0.000000000000e+00 -2.300000000000e+02 -2.300000000000e+02 0.000000000000e+00 0.000000000000e+00 0.000000000000e+00 0.000000000000e+00 0.000000000000e+00 0.000000000000e+00 0.000000000000e+00 0.000000000000e+00 
S 20 frontbox 8 1.020000000000e+04 1.000000000000e+04 1.000000000000e+04 0.000000000000e+00 -1.800000000000e+03 0.000000000000e+00 0.000000000000e+00 -1.800000000000e+03 6.400000000000e+02 0.000000000000e+00 0.000000000000e+00 6.400000000000e+02 -2.780000000000e+03 0.000000000000e+00 0.000000000000e+00 -2.780000000000e+03 -1.800000000000e+03 0.000000000000e+00 -2.780000000000e+03 -1.800000000000e+03 6.400000000000e+02 -2.780000000000e+03 0.000000000000e+00 6.400000000000e+02 
S 19 ltailsph 11 1.087649609375e+04 1.541719531250e+04 9.502328125000e+03 6.400000000000e+02 0.000000000000e+00 0.000000000000e+00 0.000000000000e+00 6.400000000000e+02 0.000000000000e+00 0.000000000000e+00 0.000000000000e+00 6.400000000000e+02 0.000000000000e+00 0.000000000000e+00 0.000000000000e+00 0.000000000000e+00 0.000000000000e+00 0.000000000000e+00 0.000000000000e+00 0.000000000000e+00 0.000000000000e+00 0.000000000000e+00 0.000000000000e+00 0.000000000000e+00 
S 19 lbacksph 11 1.087647265625e+04 1.471225390625e+04 9.751515625000e+03 1.923192291260e+02 0.000000000000e+00 0.000000000000e+00 0.000000000000e+00 1.923192291260e+02 0.000000000000e+00 0.000000000000e+00 0.000000000000e+00 1.923192291260e+02 0.000000000000e+00 0.000000000000e+00 0.000000000000e+00 0.000000000000e+00 0.000000000000e+00 0.000000000000e+00 0.000000000000e+00 0.000000000000e+00 0.000000000000e+00 0.000000000000e+00 0.000000000000e+00 0.000000000000e+00 
m 0 1009 1012 200 200 225
m 0 1013 1015 50 50 50
C Y rcowling 1000 0 2 -23264 1 100 0 0 0 0 
M u rtailout 1.000000000000e+00 0.000000000000e+00 0.000000000000e+00 0.000000000000e+00 0.000000000000e+00 1.000000000000e+00 0.000000000000e+00 0.000000000000e+00 0.000000000000e+00 0.000000000000e+00 1.000000000000e+00 0.000000000000e+00 0.000000000000e+00 0.000000000000e+00 0.000000000000e+00 1.000000000000e+00 0 
M - rtailin 1.000000000000e+00 0.000000000000e+00 0.000000000000e+00 0.000000000000e+00 0.000000000000e+00 1.000000000000e+00 0.000000000000e+00 0.000000000000e+00 0.000000000000e+00 0.000000000000e+00 1.000000000000e+00 0.000000000000e+00 0.000000000000e+00 0.000000000000e+00 0.000000000000e+00 1.000000000000e+00 0 
C Y lcowling 1004 0 2 26350 1 100 0 127 20 190 
M u ltailout 1.000000000000e+00 0.000000000000e+00 0.000000000000e+00 0.000000000000e+00 0.000000000000e+00 1.000000000000e+00 0.000000000000e+00 0.000000000000e+00 0.000000000000e+00 0.000000000000e+00 1.000000000000e+00 0.000000000000e+00 0.000000000000e+00 0.000000000000e+00 0.000000000000e+00 1.000000000000e+00 0 
M - ltailin 1.000000000000e+00 0.000000000000e+00 0.000000000000e+00 0.000000000000e+00 0.000000000000e+00 1.000000000000e+00 0.000000000000e+00 0.000000000000e+00 0.000000000000e+00 0.000000000000e+00 1.000000000000e+00 0.000000000000e+00 0.000000000000e+00 0.000000000000e+00 0.000000000000e+00 1.000000000000e+00 0 
S 18 rtailout 12 6.741257812500e+03 1.461225390625e+04 9.773996093750e+03 0.000000000000e+00 4.400000000000e+02 0.000000000000e+00 0.000000000000e+00 0.000000000000e+00 -2.400000000000e+02 -2.400000000000e+02 0.000000000000e+00 0.000000000000e+00 0.000000000000e+00 0.000000000000e+00 -2.400000000000e+02 -2.400000000000e+02 0.000000000000e+00 0.000000000000e+00 0.000000000000e+00 0.000000000000e+00 0.000000000000e+00 0.000000000000e+00 0.000000000000e+00 0.000000000000e+00 
S 18 rtailin 12 6.741257812500e+03 1.461225390625e+04 9.773996093750e+03 0.000000000000e+00 4.400000000000e+02 0.000000000000e+00 0.000000000000e+00 0.000000000000e+00 -2.300000000000e+02 -2.300000000000e+02 0.000000000000e+00 0.000000000000e+00 0.000000000000e+00 0.000000000000e+00 -2.300000000000e+02 -2.300000000000e+02 0.000000000000e+00 0.000000000000e+00 0.000000000000e+00 0.000000000000e+00 0.000000000000e+00 0.000000000000e+00 0.000000000000e+00 0.000000000000e+00 
S 19 rtailsph 11 6.741257812500e+03 1.541719531250e+04 9.502328125000e+03 6.400000000000e+02 0.000000000000e+00 0.000000000000e+00 0.000000000000e+00 6.400000000000e+02 0.000000000000e+00 0.000000000000e+00 0.000000000000e+00 6.400000000000e+02 0.000000000000e+00 0.000000000000e+00 0.000000000000e+00 0.000000000000e+00 0.000000000000e+00 0.000000000000e+00 0.000000000000e+00 0.000000000000e+00 0.000000000000e+00 0.000000000000e+00 0.000000000000e+00 0.000000000000e+00 
S 19 footop 11 1.064000000000e+04 1.064000000000e+04 8.880000000000e+03 6.400000000000e+02 0.000000000000e+00 0.000000000000e+00 0.000000000000e+00 6.400000000000e+02 0.000000000000e+00 0.000000000000e+00 0.000000000000e+00 6.400000000000e+02 0.000000000000e+00 0.000000000000e+00 0.000000000000e+00 0.000000000000e+00 0.000000000000e+00 0.000000000000e+00 0.000000000000e+00 0.000000000000e+00 0.000000000000e+00 0.000000000000e+00 0.000000000000e+00 0.000000000000e+00 
S 20 footchop 8 1.150200000000e+04 9.818718750000e+03 7.859429687500e+03 0.000000000000e+00 1.544887695313e+03 0.000000000000e+00 0.000000000000e+00 1.544887695313e+03 1.544887695313e+03 0.000000000000e+00 0.000000000000e+00 1.544887695313e+03 -1.544887695313e+03 0.000000000000e+00 0.000000000000e+00 -1.544887695313e+03 1.544887695313e+03 0.000000000000e+00 -1.544887695313e+03 1.544887695313e+03 1.544887695313e+03 -1.544887695313e+03 0.000000000000e+00 1.544887695313e+03 
S 19 rbacksph 11 6.741332031250e+03 1.471225390625e+04 9.751738281250e+03 1.923192291260e+02 0.000000000000e+00 0.000000000000e+00 0.000000000000e+00 1.923192291260e+02 0.000000000000e+00 0.000000000000e+00 0.000000000000e+00 1.923192291260e+02 0.000000000000e+00 0.000000000000e+00 0.000000000000e+00 0.000000000000e+00 0.000000000000e+00 0.000000000000e+00 0.000000000000e+00 0.000000000000e+00 0.000000000000e+00 0.000000000000e+00 0.000000000000e+00 0.000000000000e+00 
S 18 footmid 12 1.063883203125e+04 1.063971484375e+04 9.393375000000e+03 0.000000000000e+00 0.000000000000e+00 2.157066345215e+01 3.656162109375e+02 0.000000000000e+00 0.000000000000e+00 0.000000000000e+00 3.656162109375e+02 0.000000000000e+00 3.656162109375e+02 0.000000000000e+00 0.000000000000e+00 0.000000000000e+00 3.656162109375e+02 0.000000000000e+00 0.000000000000e+00 0.000000000000e+00 0.000000000000e+00 0.000000000000e+00 0.000000000000e+00 0.000000000000e+00 
S 18 footcone 12 1.063887890625e+04 1.063943359375e+04 9.365742187500e+03 0.000000000000e+00 0.000000000000e+00 3.151150512695e+01 3.216013183594e+02 0.000000000000e+00 0.000000000000e+00 0.000000000000e+00 3.216013183594e+02 0.000000000000e+00 3.448417968750e+02 0.000000000000e+00 0.000000000000e+00 0.000000000000e+00 3.448417968750e+02 0.000000000000e+00 0.000000000000e+00 0.000000000000e+00 0.000000000000e+00 0.000000000000e+00 0.000000000000e+00 0.000000000000e+00 
S 18 footriser 12 1.064007421875e+04 1.064021484375e+04 9.460628906250e+03 0.000000000000e+00 0.000000000000e+00 2.389766235352e+02 7.356362915039e+01 0.000000000000e+00 0.000000000000e+00 0.000000000000e+00 7.356362915039e+01 0.000000000000e+00 7.356362915039e+01 0.000000000000e+00 0.000000000000e+00 0.000000000000e+00 7.356362915039e+01 0.000000000000e+00 0.000000000000e+00 0.000000000000e+00 0.000000000000e+00 0.000000000000e+00 0.000000000000e+00 0.000000000000e+00 
m 0 1016 2000 200 200 225
m 0 1008 1008 250 30 20
C Y backsphs 1008 0 2 16512 1 100 0 0 0 0 
M u lbacksph 1.000000000000e+00 0.000000000000e+00 0.000000000000e+00 0.000000000000e+00 0.000000000000e+00 1.000000000000e+00 0.000000000000e+00 0.000000000000e+00 0.000000000000e+00 0.000000000000e+00 1.000000000000e+00 0.000000000000e+00 0.000000000000e+00 0.000000000000e+00 0.000000000000e+00 1.000000000000e+00 0 
M u rbacksph 1.000000000000e+00 0.000000000000e+00 0.000000000000e+00 0.000000000000e+00 0.000000000000e+00 1.000000000000e+00 0.000000000000e+00 0.000000000000e+00 0.000000000000e+00 0.000000000000e+00 1.000000000000e+00 0.000000000000e+00 0.000000000000e+00 0.000000000000e+00 0.000000000000e+00 1.000000000000e+00 0 
S 19 outcloud 11 0.000000000000e+00 0.000000000000e+00 0.000000000000e+00 5.000000000000e+04 0.000000000000e+00 0.000000000000e+00 0.000000000000e+00 5.000000000000e+04 0.000000000000e+00 0.000000000000e+00 0.000000000000e+00 5.000000000000e+04 0.000000000000e+00 0.000000000000e+00 0.000000000000e+00 0.000000000000e+00 0.000000000000e+00 0.000000000000e+00 0.000000000000e+00 0.000000000000e+00 0.000000000000e+00 0.000000000000e+00 0.000000000000e+00 0.000000000000e+00 
C Y rback 1003 0 2 3 1 100 0 0 0 88 
M u rcowling 1.000000000000e+00 0.000000000000e+00 0.000000000000e+00 0.000000000000e+00 0.000000000000e+00 1.000000000000e+00 0.000000000000e+00 0.000000000000e+00 0.000000000000e+00 0.000000000000e+00 1.000000000000e+00 0.000000000000e+00 0.000000000000e+00 0.000000000000e+00 0.000000000000e+00 1.000000000000e+00 0 
M - rtailsph 1.000000000000e+00 0.000000000000e+00 0.000000000000e+00 0.000000000000e+00 0.000000000000e+00 1.000000000000e+00 0.000000000000e+00 0.000000000000e+00 0.000000000000e+00 0.000000000000e+00 1.000000000000e+00 0.000000000000e+00 0.000000000000e+00 0.000000000000e+00 0.000000000000e+00 1.000000000000e+00 0 
S 19 incloud 11 0.000000000000e+00 0.000000000000e+00 0.000000000000e+00 4.999900000000e+04 0.000000000000e+00 0.000000000000e+00 0.000000000000e+00 4.999900000000e+04 0.000000000000e+00 0.000000000000e+00 0.000000000000e+00 4.999900000000e+04 0.000000000000e+00 0.000000000000e+00 0.000000000000e+00 0.000000000000e+00 0.000000000000e+00 0.000000000000e+00 0.000000000000e+00 0.000000000000e+00 0.000000000000e+00 0.000000000000e+00 0.000000000000e+00 0.000000000000e+00 
S 18 bfoottgc 12 1.064042968750e+04 1.063982812500e+04 9.417363281250e+03 0.000000000000e+00 0.000000000000e+00 1.475418548584e+02 3.325876464844e+02 0.000000000000e+00 0.000000000000e+00 0.000000000000e+00 3.325876464844e+02 0.000000000000e+00 1.128267517090e+02 0.000000000000e+00 0.000000000000e+00 0.000000000000e+00 1.128267517090e+02 0.000000000000e+00 0.000000000000e+00 0.000000000000e+00 0.000000000000e+00 0.000000000000e+00 0.000000000000e+00 0.000000000000e+00 
C Y frontcut 1006 0 2 16512 1 100 0 0 0 0 
M u frontbox 1.000000000000e+00 0.000000000000e+00 0.000000000000e+00 0.000000000000e+00 0.000000000000e+00 1.000000000000e+00 0.000000000000e+00 0.000000000000e+00 0.000000000000e+00 0.000000000000e+00 1.000000000000e+00 0.000000000000e+00 0.000000000000e+00 0.000000000000e+00 0.000000000000e+00 1.000000000000e+00 0 
M - sidecut 1.000000000000e+00 0.000000000000e+00 0.000000000000e+00 0.000000000000e+00 0.000000000000e+00 1.000000000000e+00 0.000000000000e+00 0.000000000000e+00 0.000000000000e+00 0.000000000000e+00 1.000000000000e+00 0.000000000000e+00 0.000000000000e+00 0.000000000000e+00 0.000000000000e+00 1.000000000000e+00 0 
C Y clouds 9999 0 2 -26619 1 100 0 127 0 245 1 
cloud
M u outcloud 1.000000000000e+00 0.000000000000e+00 0.000000000000e+00 0.000000000000e+00 0.000000000000e+00 1.000000000000e+00 0.000000000000e+00 0.000000000000e+00 0.000000000000e+00 0.000000000000e+00 1.000000000000e+00 0.000000000000e+00 0.000000000000e+00 0.000000000000e+00 0.000000000000e+00 1.000000000000e+00 0 
M - incloud 1.000000000000e+00 0.000000000000e+00 0.000000000000e+00 0.000000000000e+00 0.000000000000e+00 1.000000000000e+00 0.000000000000e+00 0.000000000000e+00 0.000000000000e+00 0.000000000000e+00 1.000000000000e+00 0.000000000000e+00 0.000000000000e+00 0.000000000000e+00 0.000000000000e+00 1.000000000000e+00 0 
C N all -1 0 2 0 0 0 0 0 0 0 
M u Shuttle 1.000000000000e+00 0.000000000000e+00 0.000000000000e+00 0.000000000000e+00 0.000000000000e+00 1.000000000000e+00 0.000000000000e+00 0.000000000000e+00 0.000000000000e+00 0.000000000000e+00 1.000000000000e+00 0.000000000000e+00 0.000000000000e+00 0.000000000000e+00 0.000000000000e+00 1.000000000000e+00 0 
M u clouds 1.000000000000e+00 0.000000000000e+00 0.000000000000e+00 0.000000000000e+00 0.000000000000e+00 1.000000000000e+00 0.000000000000e+00 0.000000000000e+00 0.000000000000e+00 0.000000000000e+00 1.000000000000e+00 0.000000000000e+00 0.000000000000e+00 0.000000000000e+00 0.000000000000e+00 1.000000000000e+00 0 
S 18 backstrut 12 1.064986328125e+04 1.062256250000e+04 9.537468750000e+03 0.000000000000e+00 -6.999287109375e+02 3.348789062500e+02 -4.792042541504e+01 0.000000000000e+00 0.000000000000e+00 0.000000000000e+00 -2.068208312988e+01 -4.322752380371e+01 -4.792042541504e+01 0.000000000000e+00 0.000000000000e+00 0.000000000000e+00 -2.068208312988e+01 -4.322752380371e+01 0.000000000000e+00 0.000000000000e+00 0.000000000000e+00 0.000000000000e+00 0.000000000000e+00 0.000000000000e+00 
S 18 backstrut2 12 1.064986328125e+04 1.000190234375e+04 9.835726562500e+03 -2.720614196733e-03 -9.499079589844e+02 4.529345703125e+02 -7.724787902832e+01 1.802607584978e-04 -8.595184772275e-05 0.000000000000e+00 -3.324720764160e+01 -6.972703552246e+01 -7.724787902832e+01 1.802607584978e-04 -8.595184772275e-05 0.000000000000e+00 -3.324720764160e+01 -6.972703552246e+01 0.000000000000e+00 0.000000000000e+00 0.000000000000e+00 0.000000000000e+00 0.000000000000e+00 0.000000000000e+00 
C Y frame 1000 0 8 3 1 100 0 0 0 88 
M u mainrect 1.000000000000e+00 0.000000000000e+00 0.000000000000e+00 0.000000000000e+00 0.000000000000e+00 1.000000000000e+00 0.000000000000e+00 0.000000000000e+00 0.000000000000e+00 0.000000000000e+00 1.000000000000e+00 0.000000000000e+00 0.000000000000e+00 0.000000000000e+00 0.000000000000e+00 1.000000000000e+00 0 
M u rightleg 1.000000000000e+00 0.000000000000e+00 0.000000000000e+00 0.000000000000e+00 0.000000000000e+00 1.000000000000e+00 0.000000000000e+00 0.000000000000e+00 0.000000000000e+00 0.000000000000e+00 1.000000000000e+00 0.000000000000e+00 0.000000000000e+00 0.000000000000e+00 0.000000000000e+00 1.000000000000e+00 0 
M u tailend 1.000000000000e+00 0.000000000000e+00 0.000000000000e+00 0.000000000000e+00 0.000000000000e+00 1.000000000000e+00 0.000000000000e+00 0.000000000000e+00 0.000000000000e+00 0.000000000000e+00 1.000000000000e+00 0.000000000000e+00 0.000000000000e+00 0.000000000000e+00 0.000000000000e+00 1.000000000000e+00 0 
M u leftside 1.000000000000e+00 0.000000000000e+00 0.000000000000e+00 0.000000000000e+00 0.000000000000e+00 1.000000000000e+00 0.000000000000e+00 0.000000000000e+00 0.000000000000e+00 0.000000000000e+00 1.000000000000e+00 0.000000000000e+00 0.000000000000e+00 0.000000000000e+00 0.000000000000e+00 1.000000000000e+00 0 
M u rightside 1.000000000000e+00 0.000000000000e+00 0.000000000000e+00 0.000000000000e+00 0.000000000000e+00 1.000000000000e+00 0.000000000000e+00 0.000000000000e+00 0.000000000000e+00 0.000000000000e+00 1.000000000000e+00 0.000000000000e+00 0.000000000000e+00 0.000000000000e+00 0.000000000000e+00 1.000000000000e+00 0 
M u rightwing 1.000000000000e+00 0.000000000000e+00 0.000000000000e+00 0.000000000000e+00 0.000000000000e+00 1.000000000000e+00 0.000000000000e+00 0.000000000000e+00 0.000000000000e+00 0.000000000000e+00 1.000000000000e+00 0.000000000000e+00 0.000000000000e+00 0.000000000000e+00 0.000000000000e+00 1.000000000000e+00 0 
M u leftwing 1.000000000000e+00 0.000000000000e+00 0.000000000000e+00 0.000000000000e+00 0.000000000000e+00 1.000000000000e+00 0.000000000000e+00 0.000000000000e+00 0.000000000000e+00 0.000000000000e+00 1.000000000000e+00 0.000000000000e+00 0.000000000000e+00 0.000000000000e+00 0.000000000000e+00 1.000000000000e+00 0 
M u leftleg 1.000000000000e+00 0.000000000000e+00 0.000000000000e+00 0.000000000000e+00 0.000000000000e+00 1.000000000000e+00 0.000000000000e+00 0.000000000000e+00 0.000000000000e+00 0.000000000000e+00 1.000000000000e+00 0.000000000000e+00 0.000000000000e+00 0.000000000000e+00 0.000000000000e+00 1.000000000000e+00 0 
C Y body 1007 0 2 3 1 100 0 0 0 88 
M u frame 1.000000000000e+00 0.000000000000e+00 0.000000000000e+00 0.000000000000e+00 0.000000000000e+00 1.000000000000e+00 0.000000000000e+00 0.000000000000e+00 0.000000000000e+00 0.000000000000e+00 1.000000000000e+00 0.000000000000e+00 0.000000000000e+00 0.000000000000e+00 0.000000000000e+00 1.000000000000e+00 0 
M - cutouts 1.000000000000e+00 0.000000000000e+00 0.000000000000e+00 0.000000000000e+00 0.000000000000e+00 1.000000000000e+00 0.000000000000e+00 0.000000000000e+00 0.000000000000e+00 0.000000000000e+00 1.000000000000e+00 0.000000000000e+00 0.000000000000e+00 0.000000000000e+00 0.000000000000e+00 1.000000000000e+00 0 
C Y lback 1006 0 2 3 1 100 0 0 0 88 
M u lcowling 1.000000000000e+00 0.000000000000e+00 0.000000000000e+00 0.000000000000e+00 0.000000000000e+00 1.000000000000e+00 0.000000000000e+00 0.000000000000e+00 0.000000000000e+00 0.000000000000e+00 1.000000000000e+00 0.000000000000e+00 0.000000000000e+00 0.000000000000e+00 0.000000000000e+00 1.000000000000e+00 0 
M - ltailsph 1.000000000000e+00 0.000000000000e+00 0.000000000000e+00 0.000000000000e+00 0.000000000000e+00 1.000000000000e+00 0.000000000000e+00 0.000000000000e+00 0.000000000000e+00 0.000000000000e+00 1.000000000000e+00 0.000000000000e+00 0.000000000000e+00 0.000000000000e+00 0.000000000000e+00 1.000000000000e+00 0 
C Y rbackdel 1009 0 2 26736 1 100 0 0 0 0 
M u rtailin 1.000000000000e+00 0.000000000000e+00 0.000000000000e+00 0.000000000000e+00 0.000000000000e+00 1.000000000000e+00 0.000000000000e+00 0.000000000000e+00 0.000000000000e+00 0.000000000000e+00 1.000000000000e+00 0.000000000000e+00 0.000000000000e+00 0.000000000000e+00 0.000000000000e+00 1.000000000000e+00 0 
M u rtailsph 1.000000000000e+00 0.000000000000e+00 0.000000000000e+00 0.000000000000e+00 0.000000000000e+00 1.000000000000e+00 0.000000000000e+00 0.000000000000e+00 0.000000000000e+00 0.000000000000e+00 1.000000000000e+00 0.000000000000e+00 0.000000000000e+00 0.000000000000e+00 0.000000000000e+00 1.000000000000e+00 0 
C Y lprop 1005 0 3 27749 1 100 0 0 0 0 
M u leftcyl 1.000000000000e+00 0.000000000000e+00 0.000000000000e+00 0.000000000000e+00 0.000000000000e+00 1.000000000000e+00 0.000000000000e+00 0.000000000000e+00 0.000000000000e+00 0.000000000000e+00 1.000000000000e+00 0.000000000000e+00 0.000000000000e+00 0.000000000000e+00 0.000000000000e+00 1.000000000000e+00 0 
M u lfrontsph 1.000000000000e+00 0.000000000000e+00 0.000000000000e+00 0.000000000000e+00 0.000000000000e+00 1.000000000000e+00 0.000000000000e+00 0.000000000000e+00 0.000000000000e+00 0.000000000000e+00 1.000000000000e+00 0.000000000000e+00 0.000000000000e+00 0.000000000000e+00 0.000000000000e+00 1.000000000000e+00 0 
M u lback 1.000000000000e+00 0.000000000000e+00 0.000000000000e+00 0.000000000000e+00 0.000000000000e+00 1.000000000000e+00 0.000000000000e+00 0.000000000000e+00 0.000000000000e+00 0.000000000000e+00 1.000000000000e+00 0.000000000000e+00 0.000000000000e+00 0.000000000000e+00 0.000000000000e+00 1.000000000000e+00 0 
C Y cutouts 1001 0 4 3 1 100 0 0 0 88 
M u subtrfrnt 1.000000000000e+00 0.000000000000e+00 0.000000000000e+00 0.000000000000e+00 0.000000000000e+00 1.000000000000e+00 0.000000000000e+00 0.000000000000e+00 0.000000000000e+00 0.000000000000e+00 1.000000000000e+00 0.000000000000e+00 0.000000000000e+00 0.000000000000e+00 0.000000000000e+00 1.000000000000e+00 0 
M u frontcut 1.000000000000e+00 0.000000000000e+00 0.000000000000e+00 0.000000000000e+00 0.000000000000e+00 1.000000000000e+00 0.000000000000e+00 0.000000000000e+00 0.000000000000e+00 0.000000000000e+00 1.000000000000e+00 0.000000000000e+00 0.000000000000e+00 0.000000000000e+00 0.000000000000e+00 1.000000000000e+00 0 
M u bktchop 1.000000000000e+00 0.000000000000e+00 0.000000000000e+00 0.000000000000e+00 0.000000000000e+00 1.000000000000e+00 0.000000000000e+00 0.000000000000e+00 0.000000000000e+00 0.000000000000e+00 1.000000000000e+00 0.000000000000e+00 0.000000000000e+00 0.000000000000e+00 0.000000000000e+00 1.000000000000e+00 0 
M u bkbchop 1.000000000000e+00 0.000000000000e+00 0.000000000000e+00 0.000000000000e+00 0.000000000000e+00 1.000000000000e+00 0.000000000000e+00 0.000000000000e+00 0.000000000000e+00 0.000000000000e+00 1.000000000000e+00 0.000000000000e+00 0.000000000000e+00 0.000000000000e+00 0.000000000000e+00 1.000000000000e+00 0 
C Y Shuttle 1000 0 7 -14016 1 100 0 0 0 0 
M u bfoot 0.000000000000e+00 1.000000000000e+00 0.000000000000e+00 -4.001013916016e+03 -1.000000000000e+00 0.000000000000e+00 0.000000000000e+00 8.825597656250e+03 0.000000000000e+00 0.000000000000e+00 1.000000000000e+00 -1.068666406250e+04 0.000000000000e+00 0.000000000000e+00 0.000000000000e+00 1.000000000000e+00 0 
M u rfoot 0.000000000000e+00 1.000000000000e+00 0.000000000000e+00 -8.291667968750e+03 -1.000000000000e+00 0.000000000000e+00 0.000000000000e+00 1.090225390625e+04 0.000000000000e+00 0.000000000000e+00 1.000000000000e+00 -1.068920703125e+04 0.000000000000e+00 0.000000000000e+00 0.000000000000e+00 1.000000000000e+00 0 
M u lprop 0.000000000000e+00 1.000000000000e+00 0.000000000000e+00 -8.441382812500e+03 -1.000000000000e+00 0.000000000000e+00 0.000000000000e+00 7.003359375000e+03 0.000000000000e+00 0.000000000000e+00 1.000000000000e+00 -1.058000000000e+04 0.000000000000e+00 0.000000000000e+00 0.000000000000e+00 1.000000000000e+00 0 
M u rprop 0.000000000000e+00 1.000000000000e+00 0.000000000000e+00 -8.441382812500e+03 -1.000000000000e+00 0.000000000000e+00 0.000000000000e+00 7.003359375000e+03 0.000000000000e+00 0.000000000000e+00 1.000000000000e+00 -1.058000000000e+04 0.000000000000e+00 0.000000000000e+00 0.000000000000e+00 1.000000000000e+00 0 
M u lfoot 0.000000000000e+00 1.000000000000e+00 0.000000000000e+00 -8.290726562500e+03 -1.000000000000e+00 0.000000000000e+00 0.000000000000e+00 6.767000000000e+03 0.000000000000e+00 0.000000000000e+00 1.000000000000e+00 -1.069059375000e+04 0.000000000000e+00 0.000000000000e+00 0.000000000000e+00 1.000000000000e+00 0 
M u body 0.000000000000e+00 1.000000000000e+00 0.000000000000e+00 -8.441382812500e+03 -1.000000000000e+00 0.000000000000e+00 0.000000000000e+00 7.003359375000e+03 0.000000000000e+00 0.000000000000e+00 1.000000000000e+00 -1.058000000000e+04 0.000000000000e+00 0.000000000000e+00 0.000000000000e+00 1.000000000000e+00 0 
M u backsphs 0.000000000000e+00 1.000000000000e+00 0.000000000000e+00 -8.441382812500e+03 -1.000000000000e+00 0.000000000000e+00 0.000000000000e+00 7.003359375000e+03 0.000000000000e+00 0.000000000000e+00 1.000000000000e+00 -1.058000000000e+04 0.000000000000e+00 0.000000000000e+00 0.000000000000e+00 1.000000000000e+00 0 
C Y foottop 1012 0 2 0 1 100 0 0 193 69 
M u footop 1.000000000000e+00 0.000000000000e+00 0.000000000000e+00 0.000000000000e+00 0.000000000000e+00 1.000000000000e+00 0.000000000000e+00 0.000000000000e+00 0.000000000000e+00 0.000000000000e+00 1.000000000000e+00 0.000000000000e+00 0.000000000000e+00 0.000000000000e+00 0.000000000000e+00 1.000000000000e+00 0 
M - footchop 1.000000000000e+00 0.000000000000e+00 0.000000000000e+00 0.000000000000e+00 0.000000000000e+00 1.000000000000e+00 0.000000000000e+00 0.000000000000e+00 0.000000000000e+00 0.000000000000e+00 1.000000000000e+00 0.000000000000e+00 0.000000000000e+00 0.000000000000e+00 0.000000000000e+00 1.000000000000e+00 0 
C Y rprop 1011 0 3 27749 1 100 0 0 0 0 
M u rightcyl 1.000000000000e+00 0.000000000000e+00 0.000000000000e+00 0.000000000000e+00 0.000000000000e+00 1.000000000000e+00 0.000000000000e+00 0.000000000000e+00 0.000000000000e+00 0.000000000000e+00 1.000000000000e+00 0.000000000000e+00 0.000000000000e+00 0.000000000000e+00 0.000000000000e+00 1.000000000000e+00 0 
M u rfrontsph 1.000000000000e+00 0.000000000000e+00 0.000000000000e+00 0.000000000000e+00 0.000000000000e+00 1.000000000000e+00 0.000000000000e+00 0.000000000000e+00 0.000000000000e+00 0.000000000000e+00 1.000000000000e+00 0.000000000000e+00 0.000000000000e+00 0.000000000000e+00 0.000000000000e+00 1.000000000000e+00 0 
M u rback 1.000000000000e+00 0.000000000000e+00 0.000000000000e+00 0.000000000000e+00 0.000000000000e+00 1.000000000000e+00 0.000000000000e+00 0.000000000000e+00 0.000000000000e+00 0.000000000000e+00 1.000000000000e+00 0.000000000000e+00 0.000000000000e+00 0.000000000000e+00 0.000000000000e+00 1.000000000000e+00 0 
C N mainbody -1 0 23 0 0 0 0 0 0 0 
M u mainrect 1.000000000000e+00 0.000000000000e+00 0.000000000000e+00 0.000000000000e+00 0.000000000000e+00 1.000000000000e+00 0.000000000000e+00 0.000000000000e+00 0.000000000000e+00 0.000000000000e+00 1.000000000000e+00 0.000000000000e+00 0.000000000000e+00 0.000000000000e+00 0.000000000000e+00 1.000000000000e+00 0 
M u frntcrv 1.000000000000e+00 0.000000000000e+00 0.000000000000e+00 0.000000000000e+00 0.000000000000e+00 1.000000000000e+00 0.000000000000e+00 0.000000000000e+00 0.000000000000e+00 0.000000000000e+00 1.000000000000e+00 0.000000000000e+00 0.000000000000e+00 0.000000000000e+00 0.000000000000e+00 1.000000000000e+00 0 
M - subtrfrnt 1.000000000000e+00 0.000000000000e+00 0.000000000000e+00 0.000000000000e+00 0.000000000000e+00 1.000000000000e+00 0.000000000000e+00 0.000000000000e+00 0.000000000000e+00 0.000000000000e+00 1.000000000000e+00 0.000000000000e+00 0.000000000000e+00 0.000000000000e+00 0.000000000000e+00 1.000000000000e+00 0 
M - topchop 1.000000000000e+00 0.000000000000e+00 0.000000000000e+00 0.000000000000e+00 0.000000000000e+00 1.000000000000e+00 0.000000000000e+00 0.000000000000e+00 0.000000000000e+00 0.000000000000e+00 1.000000000000e+00 0.000000000000e+00 0.000000000000e+00 0.000000000000e+00 0.000000000000e+00 1.000000000000e+00 0 
M u tailend 1.000000000000e+00 0.000000000000e+00 0.000000000000e+00 0.000000000000e+00 0.000000000000e+00 1.000000000000e+00 0.000000000000e+00 0.000000000000e+00 0.000000000000e+00 0.000000000000e+00 1.000000000000e+00 0.000000000000e+00 0.000000000000e+00 0.000000000000e+00 0.000000000000e+00 1.000000000000e+00 0 
M u leftside 1.000000000000e+00 0.000000000000e+00 0.000000000000e+00 0.000000000000e+00 0.000000000000e+00 1.000000000000e+00 0.000000000000e+00 0.000000000000e+00 0.000000000000e+00 0.000000000000e+00 1.000000000000e+00 0.000000000000e+00 0.000000000000e+00 0.000000000000e+00 0.000000000000e+00 1.000000000000e+00 0 
M u rightside 1.000000000000e+00 0.000000000000e+00 0.000000000000e+00 0.000000000000e+00 0.000000000000e+00 1.000000000000e+00 0.000000000000e+00 0.000000000000e+00 0.000000000000e+00 0.000000000000e+00 1.000000000000e+00 0.000000000000e+00 0.000000000000e+00 0.000000000000e+00 0.000000000000e+00 1.000000000000e+00 0 
M - bktchop 1.000000000000e+00 0.000000000000e+00 0.000000000000e+00 0.000000000000e+00 0.000000000000e+00 1.000000000000e+00 0.000000000000e+00 0.000000000000e+00 0.000000000000e+00 0.000000000000e+00 1.000000000000e+00 0.000000000000e+00 0.000000000000e+00 0.000000000000e+00 0.000000000000e+00 1.000000000000e+00 0 
M - bkbchop 1.000000000000e+00 0.000000000000e+00 0.000000000000e+00 0.000000000000e+00 0.000000000000e+00 1.000000000000e+00 0.000000000000e+00 0.000000000000e+00 0.000000000000e+00 0.000000000000e+00 1.000000000000e+00 0.000000000000e+00 0.000000000000e+00 0.000000000000e+00 0.000000000000e+00 1.000000000000e+00 0 
M u rightwing 1.000000000000e+00 0.000000000000e+00 0.000000000000e+00 0.000000000000e+00 0.000000000000e+00 1.000000000000e+00 0.000000000000e+00 0.000000000000e+00 0.000000000000e+00 0.000000000000e+00 1.000000000000e+00 0.000000000000e+00 0.000000000000e+00 0.000000000000e+00 0.000000000000e+00 1.000000000000e+00 0 
M u leftwing 1.000000000000e+00 0.000000000000e+00 0.000000000000e+00 0.000000000000e+00 0.000000000000e+00 1.000000000000e+00 0.000000000000e+00 0.000000000000e+00 0.000000000000e+00 0.000000000000e+00 1.000000000000e+00 0.000000000000e+00 0.000000000000e+00 0.000000000000e+00 0.000000000000e+00 1.000000000000e+00 0 
M u rightleg 1.000000000000e+00 0.000000000000e+00 0.000000000000e+00 0.000000000000e+00 0.000000000000e+00 1.000000000000e+00 0.000000000000e+00 0.000000000000e+00 0.000000000000e+00 0.000000000000e+00 1.000000000000e+00 0.000000000000e+00 0.000000000000e+00 0.000000000000e+00 0.000000000000e+00 1.000000000000e+00 0 
M u leftleg 1.000000000000e+00 0.000000000000e+00 0.000000000000e+00 0.000000000000e+00 0.000000000000e+00 1.000000000000e+00 0.000000000000e+00 0.000000000000e+00 0.000000000000e+00 0.000000000000e+00 1.000000000000e+00 0.000000000000e+00 0.000000000000e+00 0.000000000000e+00 0.000000000000e+00 1.000000000000e+00 0 
M - frontcut 1.000000000000e+00 0.000000000000e+00 0.000000000000e+00 0.000000000000e+00 0.000000000000e+00 1.000000000000e+00 0.000000000000e+00 0.000000000000e+00 0.000000000000e+00 0.000000000000e+00 1.000000000000e+00 0.000000000000e+00 0.000000000000e+00 0.000000000000e+00 0.000000000000e+00 1.000000000000e+00 0 
M u leftcyl 1.000000000000e+00 0.000000000000e+00 0.000000000000e+00 0.000000000000e+00 0.000000000000e+00 1.000000000000e+00 0.000000000000e+00 0.000000000000e+00 0.000000000000e+00 0.000000000000e+00 1.000000000000e+00 0.000000000000e+00 0.000000000000e+00 0.000000000000e+00 0.000000000000e+00 1.000000000000e+00 0 
M u rightcyl 1.000000000000e+00 0.000000000000e+00 0.000000000000e+00 0.000000000000e+00 0.000000000000e+00 1.000000000000e+00 0.000000000000e+00 0.000000000000e+00 0.000000000000e+00 0.000000000000e+00 1.000000000000e+00 0.000000000000e+00 0.000000000000e+00 0.000000000000e+00 0.000000000000e+00 1.000000000000e+00 0 
M u rfrontsph 1.000000000000e+00 0.000000000000e+00 0.000000000000e+00 0.000000000000e+00 0.000000000000e+00 1.000000000000e+00 0.000000000000e+00 0.000000000000e+00 0.000000000000e+00 0.000000000000e+00 1.000000000000e+00 0.000000000000e+00 0.000000000000e+00 0.000000000000e+00 0.000000000000e+00 1.000000000000e+00 0 
M u lfrontsph 1.000000000000e+00 0.000000000000e+00 0.000000000000e+00 0.000000000000e+00 0.000000000000e+00 1.000000000000e+00 0.000000000000e+00 0.000000000000e+00 0.000000000000e+00 0.000000000000e+00 1.000000000000e+00 0.000000000000e+00 0.000000000000e+00 0.000000000000e+00 0.000000000000e+00 1.000000000000e+00 0 
M u lbackpart 1.000000000000e+00 0.000000000000e+00 0.000000000000e+00 0.000000000000e+00 0.000000000000e+00 1.000000000000e+00 0.000000000000e+00 0.000000000000e+00 0.000000000000e+00 0.000000000000e+00 1.000000000000e+00 0.000000000000e+00 0.000000000000e+00 0.000000000000e+00 0.000000000000e+00 1.000000000000e+00 0 
M u rbackpart 1.000000000000e+00 0.000000000000e+00 0.000000000000e+00 0.000000000000e+00 0.000000000000e+00 1.000000000000e+00 0.000000000000e+00 0.000000000000e+00 0.000000000000e+00 0.000000000000e+00 1.000000000000e+00 0.000000000000e+00 0.000000000000e+00 0.000000000000e+00 0.000000000000e+00 1.000000000000e+00 0 
M u lfoot 1.000000000000e+00 0.000000000000e+00 0.000000000000e+00 2.360419921875e+02 0.000000000000e+00 1.000000000000e+00 0.000000000000e+00 0.000000000000e+00 0.000000000000e+00 0.000000000000e+00 1.000000000000e+00 -9.198242187500e+01 0.000000000000e+00 0.000000000000e+00 0.000000000000e+00 1.000000000000e+00 0 
M u rfoot 1.000000000000e+00 0.000000000000e+00 0.000000000000e+00 -3.897036621094e+03 0.000000000000e+00 1.000000000000e+00 0.000000000000e+00 -9.082031250000e-02 0.000000000000e+00 0.000000000000e+00 1.000000000000e+00 -9.233789062500e+01 0.000000000000e+00 0.000000000000e+00 0.000000000000e+00 1.000000000000e+00 0 
M u bfoot 1.000000000000e+00 0.000000000000e+00 0.000000000000e+00 -1.776916015625e+03 0.000000000000e+00 1.000000000000e+00 0.000000000000e+00 4.120824218750e+03 0.000000000000e+00 0.000000000000e+00 1.000000000000e+00 1.106347656250e+01 0.000000000000e+00 0.000000000000e+00 0.000000000000e+00 1.000000000000e+00 0 
C Y lfoot 1013 0 4 0 1 100 0 32 0 0 
M u footcone 1.000000000000e+00 0.000000000000e+00 0.000000000000e+00 0.000000000000e+00 0.000000000000e+00 1.000000000000e+00 0.000000000000e+00 0.000000000000e+00 0.000000000000e+00 0.000000000000e+00 1.000000000000e+00 0.000000000000e+00 0.000000000000e+00 0.000000000000e+00 0.000000000000e+00 1.000000000000e+00 0 
M u footmid 1.000000000000e+00 0.000000000000e+00 0.000000000000e+00 0.000000000000e+00 0.000000000000e+00 1.000000000000e+00 0.000000000000e+00 0.000000000000e+00 0.000000000000e+00 0.000000000000e+00 1.000000000000e+00 0.000000000000e+00 0.000000000000e+00 0.000000000000e+00 0.000000000000e+00 1.000000000000e+00 0 
M u footriser 1.000000000000e+00 0.000000000000e+00 0.000000000000e+00 0.000000000000e+00 0.000000000000e+00 1.000000000000e+00 0.000000000000e+00 0.000000000000e+00 0.000000000000e+00 0.000000000000e+00 1.000000000000e+00 0.000000000000e+00 0.000000000000e+00 0.000000000000e+00 0.000000000000e+00 1.000000000000e+00 0 
M u foottop 1.000000000000e+00 0.000000000000e+00 0.000000000000e+00 0.000000000000e+00 0.000000000000e+00 1.000000000000e+00 0.000000000000e+00 0.000000000000e+00 0.000000000000e+00 0.000000000000e+00 1.000000000000e+00 0.000000000000e+00 0.000000000000e+00 0.000000000000e+00 0.000000000000e+00 1.000000000000e+00 0 
C Y rfoot 1014 0 4 3 1 100 0 0 0 88 
M u footcone 1.000000000000e+00 0.000000000000e+00 0.000000000000e+00 0.000000000000e+00 0.000000000000e+00 1.000000000000e+00 0.000000000000e+00 0.000000000000e+00 0.000000000000e+00 0.000000000000e+00 1.000000000000e+00 0.000000000000e+00 0.000000000000e+00 0.000000000000e+00 0.000000000000e+00 1.000000000000e+00 0 
M u footmid 1.000000000000e+00 0.000000000000e+00 0.000000000000e+00 0.000000000000e+00 0.000000000000e+00 1.000000000000e+00 0.000000000000e+00 0.000000000000e+00 0.000000000000e+00 0.000000000000e+00 1.000000000000e+00 0.000000000000e+00 0.000000000000e+00 0.000000000000e+00 0.000000000000e+00 1.000000000000e+00 0 
M u footriser 1.000000000000e+00 0.000000000000e+00 0.000000000000e+00 0.000000000000e+00 0.000000000000e+00 1.000000000000e+00 0.000000000000e+00 0.000000000000e+00 0.000000000000e+00 0.000000000000e+00 1.000000000000e+00 0.000000000000e+00 0.000000000000e+00 0.000000000000e+00 0.000000000000e+00 1.000000000000e+00 0 
M u foottop 1.000000000000e+00 0.000000000000e+00 0.000000000000e+00 0.000000000000e+00 0.000000000000e+00 1.000000000000e+00 0.000000000000e+00 0.000000000000e+00 0.000000000000e+00 0.000000000000e+00 1.000000000000e+00 0.000000000000e+00 0.000000000000e+00 0.000000000000e+00 0.000000000000e+00 1.000000000000e+00 0 
C Y bfoot 1015 0 5 0 1 100 0 0 0 0 
M u footcone 1.000000000000e+00 0.000000000000e+00 0.000000000000e+00 0.000000000000e+00 0.000000000000e+00 1.000000000000e+00 0.000000000000e+00 0.000000000000e+00 0.000000000000e+00 0.000000000000e+00 1.000000000000e+00 0.000000000000e+00 0.000000000000e+00 0.000000000000e+00 0.000000000000e+00 1.000000000000e+00 0 
M u footmid 1.000000000000e+00 0.000000000000e+00 0.000000000000e+00 0.000000000000e+00 0.000000000000e+00 1.000000000000e+00 0.000000000000e+00 0.000000000000e+00 0.000000000000e+00 0.000000000000e+00 1.000000000000e+00 0.000000000000e+00 0.000000000000e+00 0.000000000000e+00 0.000000000000e+00 1.000000000000e+00 0 
M u backstrut 1.000000000000e+00 0.000000000000e+00 0.000000000000e+00 0.000000000000e+00 0.000000000000e+00 1.000000000000e+00 0.000000000000e+00 0.000000000000e+00 0.000000000000e+00 0.000000000000e+00 1.000000000000e+00 0.000000000000e+00 0.000000000000e+00 0.000000000000e+00 0.000000000000e+00 1.000000000000e+00 0 
M u backstrut2 1.000000000000e+00 0.000000000000e+00 0.000000000000e+00 0.000000000000e+00 0.000000000000e+00 1.000000000000e+00 0.000000000000e+00 0.000000000000e+00 0.000000000000e+00 0.000000000000e+00 1.000000000000e+00 0.000000000000e+00 0.000000000000e+00 0.000000000000e+00 0.000000000000e+00 1.000000000000e+00 0 
M u bfoottgc 1.000000000000e+00 0.000000000000e+00 0.000000000000e+00 0.000000000000e+00 0.000000000000e+00 1.000000000000e+00 0.000000000000e+00 0.000000000000e+00 0.000000000000e+00 0.000000000000e+00 1.000000000000e+00 0.000000000000e+00 0.000000000000e+00 0.000000000000e+00 0.000000000000e+00 1.000000000000e+00 0 
