I 1 v4
Colorful version of the Moss World 
C Y platform.r 1000 0 1 -16081 0 0 0 0 0 0 1 
mirror
M + platform.s 1.000000000000e+00 0.000000000000e+00 0.000000000000e+00 0.000000000000e+00 0.000000000000e+00 1.000000000000e+00 0.000000000000e+00 0.000000000000e+00 0.000000000000e+00 0.000000000000e+00 1.000000000000e+00 0.000000000000e+00 0.000000000000e+00 0.000000000000e+00 0.000000000000e+00 1.000000000000e+00 16268 
S 20 platform.s 1 8.971723937988e+01 -6.957164001465e+01 -2.376846313477e+01 0.000000000000e+00 1.390160369873e+02 0.000000000000e+00 0.000000000000e+00 1.390160369873e+02 6.950804233551e+00 0.000000000000e+00 0.000000000000e+00 6.950804233551e+00 -1.390160369873e+02 0.000000000000e+00 0.000000000000e+00 -1.390160369873e+02 1.390160369873e+02 0.000000000000e+00 -1.390160369873e+02 1.390160369873e+02 6.950804233551e+00 -1.390160369873e+02 0.000000000000e+00 6.950804233551e+00 
C Y box.r 2000 0 1 -16558 0 0 0 0 0 0 1 
testmap
M + box.s 1.000000000000e+00 0.000000000000e+00 0.000000000000e+00 0.000000000000e+00 0.000000000000e+00 1.000000000000e+00 0.000000000000e+00 0.000000000000e+00 0.000000000000e+00 0.000000000000e+00 1.000000000000e+00 0.000000000000e+00 0.000000000000e+00 0.000000000000e+00 0.000000000000e+00 1.000000000000e+00 16519 
S 20 box.s 1 3.002833557129e+01 -5.211529731750e+00 -1.637909126282e+01 0.000000000000e+00 2.679274749756e+01 0.000000000000e+00 0.000000000000e+00 2.679274749756e+01 2.679274749756e+01 0.000000000000e+00 0.000000000000e+00 2.679274749756e+01 -2.679274749756e+01 0.000000000000e+00 0.000000000000e+00 -2.679274749756e+01 2.679274749756e+01 0.000000000000e+00 -2.679274749756e+01 2.679274749756e+01 2.679274749756e+01 -2.679274749756e+01 0.000000000000e+00 2.679274749756e+01 
C Y cone.r 3000 0 1 -16209 0 0 1 255 100 255 1 
plastic
M + cone.s 1.000000000000e+00 0.000000000000e+00 0.000000000000e+00 0.000000000000e+00 0.000000000000e+00 1.000000000000e+00 0.000000000000e+00 0.000000000000e+00 0.000000000000e+00 0.000000000000e+00 1.000000000000e+00 0.000000000000e+00 0.000000000000e+00 0.000000000000e+00 0.000000000000e+00 1.000000000000e+00 0 
S 18 cone.s 5 1.687542724609e+01 -3.474352645874e+01 -1.637909126282e+01 0.000000000000e+00 0.000000000000e+00 2.644672012329e+01 9.350327491760e+00 -9.350327491760e+00 0.000000000000e+00 9.350327491760e+00 9.350327491760e+00 0.000000000000e+00 4.339659690857e+00 -4.339659690857e+00 0.000000000000e+00 1.453863263130e+00 1.453863263130e+00 0.000000000000e+00 0.000000000000e+00 0.000000000000e+00 0.000000000000e+00 0.000000000000e+00 0.000000000000e+00 0.000000000000e+00 
C Y ellipse.r 4000 0 1 16619 0 0 0 0 0 0 1 
glass
M + ellipse.s 1.000000000000e+00 0.000000000000e+00 0.000000000000e+00 0.000000000000e+00 0.000000000000e+00 1.000000000000e+00 0.000000000000e+00 0.000000000000e+00 0.000000000000e+00 0.000000000000e+00 1.000000000000e+00 0.000000000000e+00 0.000000000000e+00 0.000000000000e+00 0.000000000000e+00 1.000000000000e+00 0 
S 19 ellipse.s 4 1.613092613220e+01 4.665559387207e+01 -3.722521066666e+00 1.487607192993e+01 0.000000000000e+00 0.000000000000e+00 0.000000000000e+00 8.980256080627e+00 -8.980256080627e+00 0.000000000000e+00 8.980256080627e+00 8.980256080627e+00 0.000000000000e+00 0.000000000000e+00 0.000000000000e+00 0.000000000000e+00 0.000000000000e+00 0.000000000000e+00 0.000000000000e+00 0.000000000000e+00 0.000000000000e+00 0.000000000000e+00 0.000000000000e+00 0.000000000000e+00 
C Y tor.r 6000 0 1 -16219 0 0 1 240 240 0 1 
plastic
M + tor 1.000000000000e+00 0.000000000000e+00 0.000000000000e+00 0.000000000000e+00 0.000000000000e+00 1.000000000000e+00 0.000000000000e+00 0.000000000000e+00 0.000000000000e+00 0.000000000000e+00 1.000000000000e+00 0.000000000000e+00 0.000000000000e+00 0.000000000000e+00 0.000000000000e+00 1.000000000000e+00 16473 
S 16 tor 6 4.916235446930e+00 -3.280222702026e+01 3.171177291870e+01 0.000000000000e+00 5.079999923706e+00 0.000000000000e+00 -1.796051216125e+01 0.000000000000e+00 1.796051216125e+01 -1.796051406860e+01 0.000000000000e+00 -1.796051406860e+01 -1.436841011047e+01 0.000000000000e+00 1.436841011047e+01 -1.436840915680e+01 0.000000000000e+00 -1.436840915680e+01 -2.155261421204e+01 0.000000000000e+00 2.155261421204e+01 -2.155261421204e+01 0.000000000000e+00 -2.155261421204e+01 
C Y cloud.r 1000 0 2 8191 1 100 0 208 0 8 1 
cloud
M u outcloud 1.000000000000e+00 0.000000000000e+00 0.000000000000e+00 0.000000000000e+00 0.000000000000e+00 1.000000000000e+00 0.000000000000e+00 0.000000000000e+00 0.000000000000e+00 0.000000000000e+00 1.000000000000e+00 0.000000000000e+00 0.000000000000e+00 0.000000000000e+00 0.000000000000e+00 1.000000000000e+00 0 
M - incloud 1.000000000000e+00 0.000000000000e+00 0.000000000000e+00 0.000000000000e+00 0.000000000000e+00 1.000000000000e+00 0.000000000000e+00 0.000000000000e+00 0.000000000000e+00 0.000000000000e+00 1.000000000000e+00 0.000000000000e+00 0.000000000000e+00 0.000000000000e+00 0.000000000000e+00 1.000000000000e+00 0 
S 19 outcloud 11 0.000000000000e+00 0.000000000000e+00 0.000000000000e+00 5.000000000000e+02 0.000000000000e+00 0.000000000000e+00 0.000000000000e+00 5.000000000000e+02 0.000000000000e+00 0.000000000000e+00 0.000000000000e+00 5.000000000000e+02 0.000000000000e+00 0.000000000000e+00 0.000000000000e+00 0.000000000000e+00 0.000000000000e+00 0.000000000000e+00 0.000000000000e+00 0.000000000000e+00 0.000000000000e+00 0.000000000000e+00 0.000000000000e+00 0.000000000000e+00 
S 19 incloud 11 0.000000000000e+00 0.000000000000e+00 0.000000000000e+00 4.900000000000e+02 0.000000000000e+00 0.000000000000e+00 0.000000000000e+00 4.900000000000e+02 0.000000000000e+00 0.000000000000e+00 0.000000000000e+00 4.900000000000e+02 0.000000000000e+00 0.000000000000e+00 0.000000000000e+00 0.000000000000e+00 0.000000000000e+00 0.000000000000e+00 0.000000000000e+00 0.000000000000e+00 0.000000000000e+00 0.000000000000e+00 0.000000000000e+00 0.000000000000e+00 
S 19 LIGHT 11 2.015755844116e+01 -1.352595329285e+01 5.034742355347e+00 2.539999961853e+00 0.000000000000e+00 0.000000000000e+00 0.000000000000e+00 2.539999961853e+00 0.000000000000e+00 0.000000000000e+00 0.000000000000e+00 2.539999961853e+00 6.652934797900e-32 -1.768683181684e-12 -4.437394644066e-21 0.000000000000e+00 -5.077455353676e-19 -2.153920654297e+03 0.000000000000e+00 0.000000000000e+00 -5.077455353676e-19 -5.400175733761e-19 0.000000000000e+00 0.000000000000e+00 
C Y light.r 1000 0 1 0 1 100 1 255 255 255 1 
light
M u LIGHT 1.000000000000e+00 0.000000000000e+00 0.000000000000e+00 0.000000000000e+00 0.000000000000e+00 1.000000000000e+00 0.000000000000e+00 0.000000000000e+00 0.000000000000e+00 0.000000000000e+00 1.000000000000e+00 0.000000000000e+00 0.000000000000e+00 0.000000000000e+00 0.000000000000e+00 1.000000000000e+00 0 
C N all.g -1 0 7 16619 0 0 0 0 0 0 
M u platform.r 1.000000000000e+00 0.000000000000e+00 0.000000000000e+00 0.000000000000e+00 0.000000000000e+00 1.000000000000e+00 0.000000000000e+00 0.000000000000e+00 0.000000000000e+00 0.000000000000e+00 1.000000000000e+00 0.000000000000e+00 0.000000000000e+00 0.000000000000e+00 0.000000000000e+00 1.000000000000e+00 0 
M u box.r 1.000000000000e+00 0.000000000000e+00 0.000000000000e+00 -2.369892692566e+01 0.000000000000e+00 1.000000000000e+00 0.000000000000e+00 1.340998744965e+01 0.000000000000e+00 0.000000000000e+00 1.000000000000e+00 8.023991584778e+00 0.000000000000e+00 0.000000000000e+00 0.000000000000e+00 1.000000000000e+00 0 
M u cone.r 1.000000000000e+00 0.000000000000e+00 0.000000000000e+00 2.204923439026e+01 0.000000000000e+00 1.000000000000e+00 0.000000000000e+00 1.223486709595e+01 0.000000000000e+00 0.000000000000e+00 1.000000000000e+00 2.111249415293e-07 0.000000000000e+00 0.000000000000e+00 0.000000000000e+00 1.000000000000e+00 0 
M u ellipse.r 1.000000000000e+00 0.000000000000e+00 0.000000000000e+00 1.467929267883e+01 0.000000000000e+00 1.000000000000e+00 0.000000000000e+00 -4.160771179199e+01 0.000000000000e+00 0.000000000000e+00 1.000000000000e+00 3.879877471924e+01 0.000000000000e+00 0.000000000000e+00 0.000000000000e+00 1.000000000000e+00 0 
M u tor.r 1.000000000000e+00 0.000000000000e+00 0.000000000000e+00 0.000000000000e+00 0.000000000000e+00 1.000000000000e+00 0.000000000000e+00 0.000000000000e+00 0.000000000000e+00 0.000000000000e+00 1.000000000000e+00 0.000000000000e+00 0.000000000000e+00 0.000000000000e+00 0.000000000000e+00 1.000000000000e+00 0 
M u cloud.r 1.000000000000e+00 0.000000000000e+00 0.000000000000e+00 0.000000000000e+00 0.000000000000e+00 1.000000000000e+00 0.000000000000e+00 0.000000000000e+00 0.000000000000e+00 0.000000000000e+00 1.000000000000e+00 0.000000000000e+00 0.000000000000e+00 0.000000000000e+00 0.000000000000e+00 1.000000000000e+00 0 
M u light.r 1.000000000000e+00 0.000000000000e+00 0.000000000000e+00 0.000000000000e+00 0.000000000000e+00 1.000000000000e+00 0.000000000000e+00 0.000000000000e+00 0.000000000000e+00 0.000000000000e+00 1.000000000000e+00 0.000000000000e+00 0.000000000000e+00 0.000000000000e+00 0.000000000000e+00 1.000000000000e+00 0 
