I 4 v4
connecting rod for demos [group == crod] 
C N crod -1 0 6 0 0 0 0 0 0 0 
M u r1c 1.000000000000e+00 0.000000000000e+00 0.000000000000e+00 1.099564656215e-06 0.000000000000e+00 1.000000000000e+00 0.000000000000e+00 3.666779708862e+01 0.000000000000e+00 0.000000000000e+00 1.000000000000e+00 -5.553985595703e+01 0.000000000000e+00 0.000000000000e+00 0.000000000000e+00 1.000000000000e+00 0 
M u r2c 1.000000000000e+00 0.000000000000e+00 0.000000000000e+00 1.099564656215e-06 0.000000000000e+00 1.000000000000e+00 0.000000000000e+00 3.666779708862e+01 0.000000000000e+00 0.000000000000e+00 1.000000000000e+00 -5.553985595703e+01 0.000000000000e+00 0.000000000000e+00 0.000000000000e+00 1.000000000000e+00 0 
M u r3c 1.000000000000e+00 0.000000000000e+00 0.000000000000e+00 1.099564656215e-06 0.000000000000e+00 1.000000000000e+00 0.000000000000e+00 3.666779708862e+01 0.000000000000e+00 0.000000000000e+00 1.000000000000e+00 -5.553985595703e+01 0.000000000000e+00 0.000000000000e+00 0.000000000000e+00 1.000000000000e+00 0 
M u r4c 1.000000000000e+00 0.000000000000e+00 0.000000000000e+00 1.099564656215e-06 0.000000000000e+00 1.000000000000e+00 0.000000000000e+00 3.666779708862e+01 0.000000000000e+00 0.000000000000e+00 1.000000000000e+00 -5.553985595703e+01 0.000000000000e+00 0.000000000000e+00 0.000000000000e+00 1.000000000000e+00 0 
M u r5c 1.000000000000e+00 0.000000000000e+00 0.000000000000e+00 1.099564656215e-06 0.000000000000e+00 1.000000000000e+00 0.000000000000e+00 3.666779708862e+01 0.000000000000e+00 0.000000000000e+00 1.000000000000e+00 -5.553985595703e+01 0.000000000000e+00 0.000000000000e+00 0.000000000000e+00 1.000000000000e+00 0 
M u r6c 1.000000000000e+00 0.000000000000e+00 0.000000000000e+00 1.099564656215e-06 0.000000000000e+00 1.000000000000e+00 0.000000000000e+00 3.666779708862e+01 0.000000000000e+00 0.000000000000e+00 1.000000000000e+00 -5.553985595703e+01 0.000000000000e+00 0.000000000000e+00 0.000000000000e+00 1.000000000000e+00 0 
C Y r1c 100 0 5 1 1 100 0 0 0 0 
M u s1c 1.000000000000e+00 0.000000000000e+00 0.000000000000e+00 0.000000000000e+00 0.000000000000e+00 1.000000000000e+00 0.000000000000e+00 0.000000000000e+00 0.000000000000e+00 0.000000000000e+00 1.000000000000e+00 0.000000000000e+00 0.000000000000e+00 0.000000000000e+00 0.000000000000e+00 1.000000000000e+00 1 
M + s2c 1.000000000000e+00 0.000000000000e+00 0.000000000000e+00 0.000000000000e+00 0.000000000000e+00 1.000000000000e+00 0.000000000000e+00 0.000000000000e+00 0.000000000000e+00 0.000000000000e+00 1.000000000000e+00 0.000000000000e+00 0.000000000000e+00 0.000000000000e+00 0.000000000000e+00 1.000000000000e+00 2 
M - s3c 1.000000000000e+00 0.000000000000e+00 0.000000000000e+00 0.000000000000e+00 0.000000000000e+00 1.000000000000e+00 0.000000000000e+00 0.000000000000e+00 0.000000000000e+00 0.000000000000e+00 1.000000000000e+00 0.000000000000e+00 0.000000000000e+00 0.000000000000e+00 0.000000000000e+00 1.000000000000e+00 3 
M - s4c 1.000000000000e+00 0.000000000000e+00 0.000000000000e+00 0.000000000000e+00 0.000000000000e+00 1.000000000000e+00 0.000000000000e+00 0.000000000000e+00 0.000000000000e+00 0.000000000000e+00 1.000000000000e+00 0.000000000000e+00 0.000000000000e+00 0.000000000000e+00 0.000000000000e+00 1.000000000000e+00 4 
M - s5c 1.000000000000e+00 0.000000000000e+00 0.000000000000e+00 0.000000000000e+00 0.000000000000e+00 1.000000000000e+00 0.000000000000e+00 0.000000000000e+00 0.000000000000e+00 0.000000000000e+00 1.000000000000e+00 0.000000000000e+00 0.000000000000e+00 0.000000000000e+00 0.000000000000e+00 1.000000000000e+00 5 
S 18 s1c 1 1.206499958038e+01 -1.015263442993e+02 1.409700012207e+02 -2.412999916077e+01 0.000000000000e+00 0.000000000000e+00 0.000000000000e+00 -3.159730911255e+01 -3.110100746155e+00 0.000000000000e+00 -3.110100746155e+00 3.159730911255e+01 0.000000000000e+00 -3.159730911255e+01 -3.110100746155e+00 0.000000000000e+00 -3.110100746155e+00 3.159730911255e+01 0.000000000000e+00 0.000000000000e+00 0.000000000000e+00 0.000000000000e+00 0.000000000000e+00 0.000000000000e+00 
S 20 s2c 2 1.269999980927e+01 -1.523263397217e+02 1.092200012207e+02 0.000000000000e+00 1.015999984741e+02 0.000000000000e+00 0.000000000000e+00 1.015999984741e+02 3.175000000000e+01 0.000000000000e+00 0.000000000000e+00 3.175000000000e+01 -2.539999961853e+01 0.000000000000e+00 0.000000000000e+00 -2.539999961853e+01 1.015999984741e+02 0.000000000000e+00 -2.539999961853e+01 1.015999984741e+02 3.175000000000e+01 -2.539999961853e+01 0.000000000000e+00 3.175000000000e+01 
S 18 s3c 3 1.206499958038e+01 -1.015263442993e+02 1.409700012207e+02 -2.412999916077e+01 0.000000000000e+00 0.000000000000e+00 0.000000000000e+00 -2.654173660278e+01 -2.612484455109e+00 0.000000000000e+00 -2.612484455109e+00 2.654173660278e+01 0.000000000000e+00 -2.654173660278e+01 -2.612484455109e+00 0.000000000000e+00 -2.612484455109e+00 2.654173660278e+01 0.000000000000e+00 0.000000000000e+00 0.000000000000e+00 0.000000000000e+00 0.000000000000e+00 0.000000000000e+00 
S 18 s4c 4 0.000000000000e+00 -6.723633575439e+01 1.206500015259e+02 0.000000000000e+00 0.000000000000e+00 2.031999969482e+01 5.924076437950e-01 -3.763662338257e+00 0.000000000000e+00 3.763662338257e+00 5.924077033997e-01 0.000000000000e+00 5.924076437950e-01 -3.763662338257e+00 0.000000000000e+00 3.763662338257e+00 5.924077033997e-01 0.000000000000e+00 0.000000000000e+00 0.000000000000e+00 0.000000000000e+00 0.000000000000e+00 0.000000000000e+00 0.000000000000e+00 
S 18 s5c 5 0.000000000000e+00 -1.358163299561e+02 1.206500015259e+02 0.000000000000e+00 0.000000000000e+00 2.031999969482e+01 -2.189147949219e+00 -3.118290185928e+00 0.000000000000e+00 3.118289947510e+00 -2.189147949219e+00 0.000000000000e+00 -2.189147949219e+00 -3.118290185928e+00 0.000000000000e+00 3.118289947510e+00 -2.189147949219e+00 0.000000000000e+00 0.000000000000e+00 0.000000000000e+00 0.000000000000e+00 0.000000000000e+00 0.000000000000e+00 0.000000000000e+00 
C Y r2c 101 0 3 2 1 100 0 0 0 0 
M u s6c 1.000000000000e+00 0.000000000000e+00 0.000000000000e+00 0.000000000000e+00 0.000000000000e+00 1.000000000000e+00 0.000000000000e+00 0.000000000000e+00 0.000000000000e+00 0.000000000000e+00 1.000000000000e+00 0.000000000000e+00 0.000000000000e+00 0.000000000000e+00 0.000000000000e+00 1.000000000000e+00 6 
M - s4c 1.000000000000e+00 0.000000000000e+00 0.000000000000e+00 0.000000000000e+00 0.000000000000e+00 1.000000000000e+00 0.000000000000e+00 0.000000000000e+00 0.000000000000e+00 0.000000000000e+00 1.000000000000e+00 0.000000000000e+00 0.000000000000e+00 0.000000000000e+00 0.000000000000e+00 1.000000000000e+00 4 
M - s1c 1.000000000000e+00 0.000000000000e+00 0.000000000000e+00 0.000000000000e+00 0.000000000000e+00 1.000000000000e+00 0.000000000000e+00 0.000000000000e+00 0.000000000000e+00 0.000000000000e+00 1.000000000000e+00 0.000000000000e+00 0.000000000000e+00 0.000000000000e+00 0.000000000000e+00 1.000000000000e+00 1 
S 18 s6c 6 0.000000000000e+00 -6.723633575439e+01 1.206500015259e+02 0.000000000000e+00 0.000000000000e+00 2.031999969482e+01 9.873460531235e-01 -6.272770404816e+00 0.000000000000e+00 6.272770404816e+00 9.873460531235e-01 0.000000000000e+00 9.873460531235e-01 -6.272770404816e+00 0.000000000000e+00 6.272770404816e+00 9.873460531235e-01 0.000000000000e+00 0.000000000000e+00 0.000000000000e+00 0.000000000000e+00 0.000000000000e+00 0.000000000000e+00 0.000000000000e+00 
C Y r3c 102 0 3 3 1 100 0 0 0 0 
M u s7c 1.000000000000e+00 0.000000000000e+00 0.000000000000e+00 0.000000000000e+00 0.000000000000e+00 1.000000000000e+00 0.000000000000e+00 0.000000000000e+00 0.000000000000e+00 0.000000000000e+00 1.000000000000e+00 0.000000000000e+00 0.000000000000e+00 0.000000000000e+00 0.000000000000e+00 1.000000000000e+00 7 
M - s5c 1.000000000000e+00 0.000000000000e+00 0.000000000000e+00 0.000000000000e+00 0.000000000000e+00 1.000000000000e+00 0.000000000000e+00 0.000000000000e+00 0.000000000000e+00 0.000000000000e+00 1.000000000000e+00 0.000000000000e+00 0.000000000000e+00 0.000000000000e+00 0.000000000000e+00 1.000000000000e+00 5 
M - s1c 1.000000000000e+00 0.000000000000e+00 0.000000000000e+00 0.000000000000e+00 0.000000000000e+00 1.000000000000e+00 0.000000000000e+00 0.000000000000e+00 0.000000000000e+00 0.000000000000e+00 1.000000000000e+00 0.000000000000e+00 0.000000000000e+00 0.000000000000e+00 0.000000000000e+00 1.000000000000e+00 1 
S 18 s7c 7 0.000000000000e+00 -1.358163299561e+02 1.206500015259e+02 0.000000000000e+00 0.000000000000e+00 2.031999969482e+01 -3.648579597473e+00 -5.197150230408e+00 0.000000000000e+00 5.197150230408e+00 -3.648579597473e+00 0.000000000000e+00 -3.648579597473e+00 -5.197150230408e+00 0.000000000000e+00 5.197150230408e+00 -3.648579597473e+00 0.000000000000e+00 0.000000000000e+00 0.000000000000e+00 0.000000000000e+00 0.000000000000e+00 0.000000000000e+00 0.000000000000e+00 
C Y r4c 103 0 4 4 1 100 0 0 0 0 
M u s8c 1.000000000000e+00 0.000000000000e+00 0.000000000000e+00 0.000000000000e+00 0.000000000000e+00 1.000000000000e+00 0.000000000000e+00 0.000000000000e+00 0.000000000000e+00 0.000000000000e+00 1.000000000000e+00 0.000000000000e+00 0.000000000000e+00 0.000000000000e+00 0.000000000000e+00 1.000000000000e+00 8 
M - s9c 1.000000000000e+00 0.000000000000e+00 0.000000000000e+00 0.000000000000e+00 0.000000000000e+00 1.000000000000e+00 0.000000000000e+00 0.000000000000e+00 0.000000000000e+00 0.000000000000e+00 1.000000000000e+00 0.000000000000e+00 0.000000000000e+00 0.000000000000e+00 0.000000000000e+00 1.000000000000e+00 9 
M - s10c 1.000000000000e+00 0.000000000000e+00 0.000000000000e+00 0.000000000000e+00 0.000000000000e+00 1.000000000000e+00 0.000000000000e+00 0.000000000000e+00 0.000000000000e+00 0.000000000000e+00 1.000000000000e+00 0.000000000000e+00 0.000000000000e+00 0.000000000000e+00 0.000000000000e+00 1.000000000000e+00 10 
M - s1c 1.000000000000e+00 0.000000000000e+00 0.000000000000e+00 0.000000000000e+00 0.000000000000e+00 1.000000000000e+00 0.000000000000e+00 0.000000000000e+00 0.000000000000e+00 0.000000000000e+00 1.000000000000e+00 0.000000000000e+00 0.000000000000e+00 0.000000000000e+00 0.000000000000e+00 1.000000000000e+00 1 
S 20 s8c 8 -6.985000133514e+00 -8.120633697510e+01 1.165860061646e+02 1.397000026703e+01 0.000000000000e+00 0.000000000000e+00 1.397000026703e+01 -4.064000320435e+01 0.000000000000e+00 0.000000000000e+00 -4.064000320435e+01 0.000000000000e+00 0.000000000000e+00 -8.255001068115e+00 -3.149600601196e+01 1.397000026703e+01 -8.255001068115e+00 -3.149600601196e+01 1.397000026703e+01 -3.238499450684e+01 -3.149600601196e+01 0.000000000000e+00 -3.238499450684e+01 -3.149600601196e+01 
S 20 s9c 9 1.905000090599e+00 -8.645906066895e+01 1.165860061646e+02 5.079999923706e+00 0.000000000000e+00 0.000000000000e+00 5.079999923706e+00 -3.013456535339e+01 0.000000000000e+00 0.000000000000e+00 -3.013456535339e+01 0.000000000000e+00 0.000000000000e+00 -8.255001068115e+00 -3.149600601196e+01 5.079999923706e+00 -8.255001068115e+00 -3.149600601196e+01 5.079999923706e+00 -2.187955665588e+01 -3.149600601196e+01 0.000000000000e+00 -2.187955665588e+01 -3.149600601196e+01 
S 20 s10c 10 -1.905000090599e+00 -8.645906066895e+01 1.165860061646e+02 -5.079999923706e+00 0.000000000000e+00 0.000000000000e+00 -5.079999923706e+00 -3.013456535339e+01 0.000000000000e+00 0.000000000000e+00 -3.013456535339e+01 0.000000000000e+00 0.000000000000e+00 -8.255001068115e+00 -3.149600601196e+01 -5.079999923706e+00 -8.255001068115e+00 -3.149600601196e+01 -5.079999923706e+00 -2.187955665588e+01 -3.149600601196e+01 0.000000000000e+00 -2.187955665588e+01 -3.149600601196e+01 
C Y r5c 104 0 6 5 1 100 0 0 0 0 
M u s11c 1.000000000000e+00 0.000000000000e+00 0.000000000000e+00 0.000000000000e+00 0.000000000000e+00 1.000000000000e+00 0.000000000000e+00 0.000000000000e+00 0.000000000000e+00 0.000000000000e+00 1.000000000000e+00 0.000000000000e+00 0.000000000000e+00 0.000000000000e+00 0.000000000000e+00 1.000000000000e+00 11 
M - s12c 1.000000000000e+00 0.000000000000e+00 0.000000000000e+00 0.000000000000e+00 0.000000000000e+00 1.000000000000e+00 0.000000000000e+00 0.000000000000e+00 0.000000000000e+00 0.000000000000e+00 1.000000000000e+00 0.000000000000e+00 0.000000000000e+00 0.000000000000e+00 0.000000000000e+00 1.000000000000e+00 12 
M - s13c 1.000000000000e+00 0.000000000000e+00 0.000000000000e+00 0.000000000000e+00 0.000000000000e+00 1.000000000000e+00 0.000000000000e+00 0.000000000000e+00 0.000000000000e+00 0.000000000000e+00 1.000000000000e+00 0.000000000000e+00 0.000000000000e+00 0.000000000000e+00 0.000000000000e+00 1.000000000000e+00 13 
M - s14c 1.000000000000e+00 0.000000000000e+00 0.000000000000e+00 0.000000000000e+00 0.000000000000e+00 1.000000000000e+00 0.000000000000e+00 0.000000000000e+00 0.000000000000e+00 0.000000000000e+00 1.000000000000e+00 0.000000000000e+00 0.000000000000e+00 0.000000000000e+00 0.000000000000e+00 1.000000000000e+00 14 
M - s15c 1.000000000000e+00 0.000000000000e+00 0.000000000000e+00 0.000000000000e+00 0.000000000000e+00 1.000000000000e+00 0.000000000000e+00 0.000000000000e+00 0.000000000000e+00 0.000000000000e+00 1.000000000000e+00 0.000000000000e+00 0.000000000000e+00 0.000000000000e+00 0.000000000000e+00 1.000000000000e+00 15 
M - s16c 1.000000000000e+00 0.000000000000e+00 0.000000000000e+00 0.000000000000e+00 0.000000000000e+00 1.000000000000e+00 0.000000000000e+00 0.000000000000e+00 0.000000000000e+00 0.000000000000e+00 1.000000000000e+00 0.000000000000e+00 0.000000000000e+00 0.000000000000e+00 0.000000000000e+00 1.000000000000e+00 16 
S 20 s11c 11 6.985000133514e+00 -1.135913314819e+02 -2.603499984741e+01 0.000000000000e+00 2.412999534607e+01 0.000000000000e+00 0.000000000000e+00 2.412999534607e+01 1.111250000000e+02 0.000000000000e+00 0.000000000000e+00 1.111250000000e+02 -1.397000026703e+01 0.000000000000e+00 0.000000000000e+00 -1.397000026703e+01 2.412999534607e+01 0.000000000000e+00 -1.397000026703e+01 2.412999534607e+01 1.111250000000e+02 -1.397000026703e+01 0.000000000000e+00 1.111250000000e+02 
S 20 s12c 12 6.985000133514e+00 -1.085113372803e+02 2.603499984741e+01 0.000000000000e+00 1.396999835968e+01 0.000000000000e+00 0.000000000000e+00 1.396999835968e+01 5.905500030518e+01 0.000000000000e+00 0.000000000000e+00 5.905500030518e+01 -5.079999923706e+00 0.000000000000e+00 0.000000000000e+00 -5.079999923706e+00 1.396999835968e+01 0.000000000000e+00 -5.079999923706e+00 1.396999835968e+01 5.905500030518e+01 -5.079999923706e+00 0.000000000000e+00 5.905500030518e+01 
S 20 s13c 13 -1.905000090599e+00 -1.085113372803e+02 2.603499984741e+01 0.000000000000e+00 1.396999835968e+01 0.000000000000e+00 0.000000000000e+00 1.396999835968e+01 5.905500030518e+01 0.000000000000e+00 0.000000000000e+00 5.905500030518e+01 -5.079999923706e+00 0.000000000000e+00 0.000000000000e+00 -5.079999923706e+00 1.396999835968e+01 0.000000000000e+00 -5.079999923706e+00 1.396999835968e+01 5.905500030518e+01 -5.079999923706e+00 0.000000000000e+00 5.905500030518e+01 
S 18 s14c 14 6.985000133514e+00 -1.015263442993e+02 2.603499984741e+01 -5.079999923706e+00 0.000000000000e+00 0.000000000000e+00 0.000000000000e+00 -6.842258930206e+00 -1.404889941216e+00 0.000000000000e+00 -1.404889941216e+00 6.842258930206e+00 0.000000000000e+00 -6.842258930206e+00 -1.404889941216e+00 0.000000000000e+00 -1.404889941216e+00 6.842258930206e+00 0.000000000000e+00 0.000000000000e+00 0.000000000000e+00 0.000000000000e+00 0.000000000000e+00 0.000000000000e+00 
S 18 s15c 15 -1.905000090599e+00 -1.015263442993e+02 2.603499984741e+01 -5.079999923706e+00 0.000000000000e+00 0.000000000000e+00 0.000000000000e+00 -6.842258930206e+00 -1.404889941216e+00 0.000000000000e+00 -1.404889941216e+00 6.842258930206e+00 0.000000000000e+00 -6.842258930206e+00 -1.404889941216e+00 0.000000000000e+00 -1.404889941216e+00 6.842258930206e+00 0.000000000000e+00 0.000000000000e+00 0.000000000000e+00 0.000000000000e+00 0.000000000000e+00 0.000000000000e+00 
S 18 s16c 16 1.269999980927e+01 -1.015263442993e+02 0.000000000000e+00 -2.539999961853e+01 0.000000000000e+00 0.000000000000e+00 0.000000000000e+00 -1.409184360504e+01 -3.837440967560e+00 0.000000000000e+00 -3.837440967560e+00 1.409184360504e+01 0.000000000000e+00 -1.409184360504e+01 -3.837440967560e+00 0.000000000000e+00 -3.837440967560e+00 1.409184360504e+01 0.000000000000e+00 0.000000000000e+00 0.000000000000e+00 0.000000000000e+00 0.000000000000e+00 0.000000000000e+00 
C Y r6c 105 0 2 6 1 100 0 0 0 0 
M u s16c 1.000000000000e+00 0.000000000000e+00 0.000000000000e+00 0.000000000000e+00 0.000000000000e+00 1.000000000000e+00 0.000000000000e+00 0.000000000000e+00 0.000000000000e+00 0.000000000000e+00 1.000000000000e+00 0.000000000000e+00 0.000000000000e+00 0.000000000000e+00 0.000000000000e+00 1.000000000000e+00 16 
M - s17c 1.000000000000e+00 0.000000000000e+00 0.000000000000e+00 0.000000000000e+00 0.000000000000e+00 1.000000000000e+00 0.000000000000e+00 0.000000000000e+00 0.000000000000e+00 0.000000000000e+00 1.000000000000e+00 0.000000000000e+00 0.000000000000e+00 0.000000000000e+00 0.000000000000e+00 1.000000000000e+00 17 
S 18 s17c 17 1.269999980927e+01 -1.015263442993e+02 0.000000000000e+00 -2.539999961853e+01 0.000000000000e+00 0.000000000000e+00 0.000000000000e+00 -1.041571140289e+01 -2.836369752884e+00 0.000000000000e+00 -2.836369752884e+00 1.041571140289e+01 0.000000000000e+00 -1.041571140289e+01 -2.836369752884e+00 0.000000000000e+00 -2.836369752884e+00 1.041571140289e+01 0.000000000000e+00 0.000000000000e+00 0.000000000000e+00 0.000000000000e+00 0.000000000000e+00 0.000000000000e+00 
