I 1 v4
Ellipsoid man
S 19 test -8 0.000000000000e+00 0.000000000000e+00 0.000000000000e+00 9.144000244141e+02 0.000000000000e+00 0.000000000000e+00 0.000000000000e+00 1.219199951172e+03 -1.546927524032e-05 0.000000000000e+00 2.324847264390e-05 1.654210571289e+03 0.000000000000e+00 0.000000000000e+00 0.000000000000e+00 0.000000000000e+00 0.000000000000e+00 0.000000000000e+00 0.000000000000e+00 0.000000000000e+00 0.000000000000e+00 0.000000000000e+00 0.000000000000e+00 0.000000000000e+00 
S 19 e1.s -8 0.000000000000e+00 0.000000000000e+00 0.000000000000e+00 3.047999877930e+02 0.000000000000e+00 0.000000000000e+00 0.000000000000e+00 1.077630691528e+02 -1.077630691528e+02 0.000000000000e+00 1.077630691528e+02 1.077630691528e+02 0.000000000000e+00 0.000000000000e+00 0.000000000000e+00 0.000000000000e+00 0.000000000000e+00 0.000000000000e+00 0.000000000000e+00 0.000000000000e+00 0.000000000000e+00 0.000000000000e+00 0.000000000000e+00 0.000000000000e+00 
S 19 e2.s -8 0.000000000000e+00 0.000000000000e+00 0.000000000000e+00 -1.343971598544e-05 0.000000000000e+00 3.047999877930e+02 1.077630691528e+02 1.077630691528e+02 4.756639555126e-06 -1.077630691528e+02 1.077630691528e+02 -4.756639555126e-06 0.000000000000e+00 0.000000000000e+00 0.000000000000e+00 0.000000000000e+00 0.000000000000e+00 0.000000000000e+00 0.000000000000e+00 0.000000000000e+00 0.000000000000e+00 0.000000000000e+00 0.000000000000e+00 0.000000000000e+00 
S 19 e3.s -8 0.000000000000e+00 0.000000000000e+00 0.000000000000e+00 -1.332323154202e-05 3.047999877930e+02 0.000000000000e+00 -1.077630691528e+02 -4.710473604064e-06 -1.077630691528e+02 -1.077630691528e+02 -4.710473604064e-06 1.077630691528e+02 0.000000000000e+00 0.000000000000e+00 0.000000000000e+00 0.000000000000e+00 0.000000000000e+00 0.000000000000e+00 0.000000000000e+00 0.000000000000e+00 0.000000000000e+00 0.000000000000e+00 0.000000000000e+00 0.000000000000e+00 
S 19 e4.s -8 0.000000000000e+00 0.000000000000e+00 0.000000000000e+00 6.095999755859e+02 0.000000000000e+00 0.000000000000e+00 0.000000000000e+00 2.155261383057e+02 -2.155261383057e+02 0.000000000000e+00 2.155261383057e+02 2.155261383057e+02 0.000000000000e+00 0.000000000000e+00 0.000000000000e+00 0.000000000000e+00 0.000000000000e+00 0.000000000000e+00 0.000000000000e+00 0.000000000000e+00 0.000000000000e+00 0.000000000000e+00 0.000000000000e+00 0.000000000000e+00 
C N e -1 0 4 0 0 0 0 0 0 65 0 0 0 
M u e1.s 1.000000000000e+00 0.000000000000e+00 0.000000000000e+00 0.000000000000e+00 0.000000000000e+00 1.000000000000e+00 0.000000000000e+00 0.000000000000e+00 0.000000000000e+00 0.000000000000e+00 1.000000000000e+00 0.000000000000e+00 0.000000000000e+00 0.000000000000e+00 0.000000000000e+00 1.000000000000e+00 0 
M u e2.s 1.000000000000e+00 0.000000000000e+00 0.000000000000e+00 0.000000000000e+00 0.000000000000e+00 1.000000000000e+00 0.000000000000e+00 0.000000000000e+00 0.000000000000e+00 0.000000000000e+00 1.000000000000e+00 0.000000000000e+00 0.000000000000e+00 0.000000000000e+00 0.000000000000e+00 1.000000000000e+00 0 
M u e3.s 1.000000000000e+00 0.000000000000e+00 0.000000000000e+00 0.000000000000e+00 0.000000000000e+00 1.000000000000e+00 0.000000000000e+00 0.000000000000e+00 0.000000000000e+00 0.000000000000e+00 1.000000000000e+00 0.000000000000e+00 0.000000000000e+00 0.000000000000e+00 0.000000000000e+00 1.000000000000e+00 0 
M u e4.s 1.000000000000e+00 0.000000000000e+00 0.000000000000e+00 0.000000000000e+00 0.000000000000e+00 1.000000000000e+00 0.000000000000e+00 0.000000000000e+00 0.000000000000e+00 0.000000000000e+00 1.000000000000e+00 0.000000000000e+00 0.000000000000e+00 0.000000000000e+00 0.000000000000e+00 1.000000000000e+00 0 
S 19 m1 -8 0.000000000000e+00 0.000000000000e+00 0.000000000000e+00 3.047999877930e+02 0.000000000000e+00 0.000000000000e+00 0.000000000000e+00 1.077630691528e+02 -1.077630691528e+02 0.000000000000e+00 1.077630691528e+02 1.077630691528e+02 0.000000000000e+00 0.000000000000e+00 0.000000000000e+00 0.000000000000e+00 0.000000000000e+00 0.000000000000e+00 0.000000000000e+00 0.000000000000e+00 0.000000000000e+00 0.000000000000e+00 0.000000000000e+00 0.000000000000e+00 
S 19 m2 -8 0.000000000000e+00 0.000000000000e+00 0.000000000000e+00 -1.332323154202e-05 0.000000000000e+00 3.047999877930e+02 1.077630691528e+02 1.077630691528e+02 4.710473604064e-06 -1.077630691528e+02 1.077630691528e+02 -4.710473604064e-06 0.000000000000e+00 0.000000000000e+00 0.000000000000e+00 0.000000000000e+00 0.000000000000e+00 0.000000000000e+00 0.000000000000e+00 0.000000000000e+00 0.000000000000e+00 0.000000000000e+00 0.000000000000e+00 0.000000000000e+00 
S 19 m3 -8 0.000000000000e+00 0.000000000000e+00 0.000000000000e+00 -1.332323154202e-05 3.047999877930e+02 1.164850971236e-07 -1.077630691528e+02 -4.664307198254e-06 -1.077630691528e+02 -1.077630691528e+02 -4.756639555126e-06 1.077630691528e+02 0.000000000000e+00 0.000000000000e+00 0.000000000000e+00 0.000000000000e+00 0.000000000000e+00 0.000000000000e+00 0.000000000000e+00 0.000000000000e+00 0.000000000000e+00 0.000000000000e+00 0.000000000000e+00 0.000000000000e+00 
S 19 m5 -8 -8.934050559998e+00 -1.446822625439e-05 1.278776489258e+03 -1.332323154202e-05 0.000000000000e+00 3.047999877930e+02 2.155261383057e+02 2.155261383057e+02 9.420947208127e-06 -2.155261383057e+02 2.155261383057e+02 -9.420947208127e-06 0.000000000000e+00 0.000000000000e+00 0.000000000000e+00 0.000000000000e+00 0.000000000000e+00 0.000000000000e+00 0.000000000000e+00 0.000000000000e+00 0.000000000000e+00 0.000000000000e+00 0.000000000000e+00 0.000000000000e+00 
S 19 m4 -8 0.000000000000e+00 0.000000000000e+00 0.000000000000e+00 -3.996969462605e-05 0.000000000000e+00 9.144000244141e+02 3.232892150879e+02 3.232892150879e+02 1.413142126694e-05 -3.232892150879e+02 3.232892150879e+02 -1.413142126694e-05 0.000000000000e+00 0.000000000000e+00 0.000000000000e+00 0.000000000000e+00 0.000000000000e+00 0.000000000000e+00 0.000000000000e+00 0.000000000000e+00 0.000000000000e+00 0.000000000000e+00 0.000000000000e+00 0.000000000000e+00 
S 19 m6 -8 -7.680947891608e-13 -8.785986210569e-06 7.367774658203e+02 -1.332323154202e-05 0.000000000000e+00 3.047999877930e+02 1.077630691528e+02 1.077630691528e+02 4.710473604064e-06 -1.077630691528e+02 1.077630691528e+02 -4.710473604064e-06 0.000000000000e+00 0.000000000000e+00 0.000000000000e+00 0.000000000000e+00 0.000000000000e+00 0.000000000000e+00 0.000000000000e+00 0.000000000000e+00 0.000000000000e+00 0.000000000000e+00 0.000000000000e+00 0.000000000000e+00 
S 19 m7 -8 -4.211057128906e+02 2.666311950684e+02 -9.339964599609e+02 3.585215759277e+02 -9.306182861328e+01 4.841630859375e+02 1.100082626343e+02 8.259931182861e+01 -6.558428955078e+01 -5.559077072144e+01 1.259437713623e+02 6.537268066406e+01 0.000000000000e+00 0.000000000000e+00 0.000000000000e+00 0.000000000000e+00 0.000000000000e+00 0.000000000000e+00 0.000000000000e+00 0.000000000000e+00 0.000000000000e+00 0.000000000000e+00 0.000000000000e+00 0.000000000000e+00 
S 19 m8 -8 -7.181848144531e+01 -2.366737365723e+02 -1.047210449219e+03 -2.664646308403e-05 0.000000000000e+00 6.095999755859e+02 1.077630691528e+02 -1.077630691528e+02 4.710473604064e-06 -1.077630691528e+02 -1.077630691528e+02 -4.710473604064e-06 0.000000000000e+00 0.000000000000e+00 0.000000000000e+00 0.000000000000e+00 0.000000000000e+00 0.000000000000e+00 0.000000000000e+00 0.000000000000e+00 0.000000000000e+00 0.000000000000e+00 0.000000000000e+00 0.000000000000e+00 
S 19 m9 -8 -7.181851196289e+01 1.029016971588e+01 7.226975097656e+02 -2.664646308403e-05 6.095999755859e+02 2.329701942472e-07 -1.077630691528e+02 -4.664307198254e-06 -1.077630691528e+02 -1.077630691528e+02 -4.756639555126e-06 1.077630691528e+02 0.000000000000e+00 0.000000000000e+00 0.000000000000e+00 0.000000000000e+00 0.000000000000e+00 0.000000000000e+00 0.000000000000e+00 0.000000000000e+00 0.000000000000e+00 0.000000000000e+00 0.000000000000e+00 0.000000000000e+00 
C Y M 0 0 11 0 0 0 0 0 128 64 0 0 0 
M u m1 1.000000000000e+00 0.000000000000e+00 0.000000000000e+00 0.000000000000e+00 0.000000000000e+00 1.000000000000e+00 0.000000000000e+00 0.000000000000e+00 0.000000000000e+00 0.000000000000e+00 1.000000000000e+00 0.000000000000e+00 0.000000000000e+00 0.000000000000e+00 0.000000000000e+00 1.000000000000e+00 0 
M u m2 1.000000000000e+00 0.000000000000e+00 0.000000000000e+00 0.000000000000e+00 0.000000000000e+00 1.000000000000e+00 0.000000000000e+00 0.000000000000e+00 0.000000000000e+00 0.000000000000e+00 1.000000000000e+00 0.000000000000e+00 0.000000000000e+00 0.000000000000e+00 0.000000000000e+00 1.000000000000e+00 0 
M u m3 1.000000000000e+00 0.000000000000e+00 0.000000000000e+00 0.000000000000e+00 0.000000000000e+00 1.000000000000e+00 0.000000000000e+00 0.000000000000e+00 0.000000000000e+00 0.000000000000e+00 1.000000000000e+00 0.000000000000e+00 0.000000000000e+00 0.000000000000e+00 0.000000000000e+00 1.000000000000e+00 0 
M u m4 1.000000000000e+00 0.000000000000e+00 0.000000000000e+00 0.000000000000e+00 0.000000000000e+00 1.000000000000e+00 0.000000000000e+00 0.000000000000e+00 0.000000000000e+00 0.000000000000e+00 1.000000000000e+00 0.000000000000e+00 0.000000000000e+00 0.000000000000e+00 0.000000000000e+00 1.000000000000e+00 0 
M u m5 1.000000000000e+00 0.000000000000e+00 0.000000000000e+00 0.000000000000e+00 0.000000000000e+00 1.000000000000e+00 0.000000000000e+00 0.000000000000e+00 0.000000000000e+00 0.000000000000e+00 1.000000000000e+00 0.000000000000e+00 0.000000000000e+00 0.000000000000e+00 0.000000000000e+00 1.000000000000e+00 0 
M u m6 1.000000000000e+00 0.000000000000e+00 0.000000000000e+00 0.000000000000e+00 0.000000000000e+00 1.000000000000e+00 0.000000000000e+00 0.000000000000e+00 0.000000000000e+00 0.000000000000e+00 1.000000000000e+00 0.000000000000e+00 0.000000000000e+00 0.000000000000e+00 0.000000000000e+00 1.000000000000e+00 0 
M u m7 1.000000000000e+00 0.000000000000e+00 0.000000000000e+00 0.000000000000e+00 0.000000000000e+00 1.000000000000e+00 0.000000000000e+00 0.000000000000e+00 0.000000000000e+00 0.000000000000e+00 1.000000000000e+00 0.000000000000e+00 0.000000000000e+00 0.000000000000e+00 0.000000000000e+00 1.000000000000e+00 0 
M u m8 1.000000000000e+00 0.000000000000e+00 0.000000000000e+00 0.000000000000e+00 0.000000000000e+00 1.000000000000e+00 0.000000000000e+00 0.000000000000e+00 0.000000000000e+00 0.000000000000e+00 1.000000000000e+00 0.000000000000e+00 0.000000000000e+00 0.000000000000e+00 0.000000000000e+00 1.000000000000e+00 0 
M u m9 1.000000000000e+00 0.000000000000e+00 0.000000000000e+00 0.000000000000e+00 0.000000000000e+00 1.000000000000e+00 0.000000000000e+00 0.000000000000e+00 0.000000000000e+00 0.000000000000e+00 1.000000000000e+00 0.000000000000e+00 0.000000000000e+00 0.000000000000e+00 0.000000000000e+00 1.000000000000e+00 0 
M u m10 1.000000000000e+00 0.000000000000e+00 0.000000000000e+00 0.000000000000e+00 0.000000000000e+00 1.000000000000e+00 0.000000000000e+00 0.000000000000e+00 0.000000000000e+00 0.000000000000e+00 1.000000000000e+00 0.000000000000e+00 0.000000000000e+00 0.000000000000e+00 0.000000000000e+00 1.000000000000e+00 0 
M u m11 1.000000000000e+00 0.000000000000e+00 0.000000000000e+00 0.000000000000e+00 0.000000000000e+00 1.000000000000e+00 0.000000000000e+00 0.000000000000e+00 0.000000000000e+00 0.000000000000e+00 1.000000000000e+00 0.000000000000e+00 0.000000000000e+00 0.000000000000e+00 0.000000000000e+00 1.000000000000e+00 0 
S 19 m10 -8 5.643201802741e-06 6.158458862305e+02 1.426169433594e+02 -2.664646308403e-05 0.000000000000e+00 6.095999755859e+02 1.077630691528e+02 1.077630691528e+02 4.710473604064e-06 -1.077630691528e+02 1.077630691528e+02 -4.710473604064e-06 0.000000000000e+00 0.000000000000e+00 0.000000000000e+00 0.000000000000e+00 0.000000000000e+00 0.000000000000e+00 0.000000000000e+00 0.000000000000e+00 0.000000000000e+00 0.000000000000e+00 0.000000000000e+00 0.000000000000e+00 
S 19 m11 -8 2.415508270264e+02 -7.568591918945e+02 3.059643554688e+02 -3.389284667969e+02 2.571898803711e+02 4.365697326660e+02 -1.798872947693e+01 -1.360850982666e+02 6.620435333252e+01 -1.253899536133e+02 -2.392586517334e+01 -8.325069427490e+01 0.000000000000e+00 0.000000000000e+00 0.000000000000e+00 0.000000000000e+00 0.000000000000e+00 0.000000000000e+00 0.000000000000e+00 0.000000000000e+00 0.000000000000e+00 0.000000000000e+00 0.000000000000e+00 0.000000000000e+00 
C Y r 0 0 2 0 0 0 0 0 128 64 0 0 0 
M u m1 1.000000000000e+00 0.000000000000e+00 0.000000000000e+00 0.000000000000e+00 0.000000000000e+00 1.000000000000e+00 0.000000000000e+00 0.000000000000e+00 0.000000000000e+00 0.000000000000e+00 1.000000000000e+00 0.000000000000e+00 0.000000000000e+00 0.000000000000e+00 0.000000000000e+00 1.000000000000e+00 0 
M u m2 1.000000000000e+00 0.000000000000e+00 0.000000000000e+00 0.000000000000e+00 0.000000000000e+00 1.000000000000e+00 0.000000000000e+00 0.000000000000e+00 0.000000000000e+00 0.000000000000e+00 1.000000000000e+00 0.000000000000e+00 0.000000000000e+00 0.000000000000e+00 0.000000000000e+00 1.000000000000e+00 0 
S 20 arb8 -8 3.047999877930e+02 -3.047999877930e+02 -3.047999877930e+02 0.000000000000e+00 6.095999755859e+02 0.000000000000e+00 0.000000000000e+00 6.095999755859e+02 6.095999755859e+02 0.000000000000e+00 0.000000000000e+00 6.095999755859e+02 -6.095999755859e+02 0.000000000000e+00 0.000000000000e+00 -6.095999755859e+02 6.095999755859e+02 0.000000000000e+00 -6.095999755859e+02 6.095999755859e+02 6.095999755859e+02 -6.095999755859e+02 0.000000000000e+00 6.095999755859e+02 
S 20 arb7 -8 0.000000000000e+00 0.000000000000e+00 0.000000000000e+00 0.000000000000e+00 3.047999877930e+02 0.000000000000e+00 0.000000000000e+00 3.047999877930e+02 3.047999877930e+02 0.000000000000e+00 0.000000000000e+00 1.523999938965e+02 -3.047999877930e+02 0.000000000000e+00 0.000000000000e+00 -3.047999877930e+02 3.047999877930e+02 0.000000000000e+00 -3.047999877930e+02 3.047999877930e+02 1.523999938965e+02 -3.047999877930e+02 0.000000000000e+00 0.000000000000e+00 
S 20 arb5 -8 0.000000000000e+00 0.000000000000e+00 0.000000000000e+00 0.000000000000e+00 3.047999877930e+02 0.000000000000e+00 0.000000000000e+00 3.047999877930e+02 3.047999877930e+02 0.000000000000e+00 0.000000000000e+00 3.047999877930e+02 -3.047999877930e+02 1.523999938965e+02 1.523999938965e+02 -3.047999877930e+02 1.523999938965e+02 1.523999938965e+02 -3.047999877930e+02 1.523999938965e+02 1.523999938965e+02 -3.047999877930e+02 1.523999938965e+02 1.523999938965e+02 
S 19 ellg -8 0.000000000000e+00 0.000000000000e+00 0.000000000000e+00 3.047999877930e+02 0.000000000000e+00 0.000000000000e+00 0.000000000000e+00 1.077630691528e+02 -1.077630691528e+02 0.000000000000e+00 1.077630691528e+02 1.077630691528e+02 0.000000000000e+00 0.000000000000e+00 0.000000000000e+00 0.000000000000e+00 0.000000000000e+00 0.000000000000e+00 0.000000000000e+00 0.000000000000e+00 0.000000000000e+00 0.000000000000e+00 0.000000000000e+00 0.000000000000e+00 
S 18 tgc -8 0.000000000000e+00 0.000000000000e+00 0.000000000000e+00 0.000000000000e+00 0.000000000000e+00 3.047999877930e+02 1.077630691528e+02 -1.077630691528e+02 0.000000000000e+00 1.077630691528e+02 1.077630691528e+02 0.000000000000e+00 1.077630691528e+02 -1.077630691528e+02 0.000000000000e+00 1.077630691528e+02 1.077630691528e+02 0.000000000000e+00 0.000000000000e+00 0.000000000000e+00 0.000000000000e+00 0.000000000000e+00 0.000000000000e+00 0.000000000000e+00 
S 16 tor -8 0.000000000000e+00 0.000000000000e+00 0.000000000000e+00 0.000000000000e+00 6.095999908447e+01 0.000000000000e+00 -2.155261383057e+02 0.000000000000e+00 2.155261383057e+02 -2.155261688232e+02 0.000000000000e+00 -2.155261688232e+02 -1.724209289551e+02 0.000000000000e+00 1.724209289551e+02 -1.724209136963e+02 0.000000000000e+00 -1.724209136963e+02 -2.586313781738e+02 0.000000000000e+00 2.586313781738e+02 -2.586313781738e+02 0.000000000000e+00 -2.586313781738e+02 
S 19 t1 -8 0.000000000000e+00 0.000000000000e+00 0.000000000000e+00 1.897105085871e-12 9.144000244141e+02 -4.145440470893e-05 6.876219413243e-05 -5.254893767415e-05 -1.219199951172e+03 -1.654210571289e+03 -9.606021490402e-13 -9.555630822433e-05 0.000000000000e+00 0.000000000000e+00 0.000000000000e+00 0.000000000000e+00 0.000000000000e+00 0.000000000000e+00 0.000000000000e+00 0.000000000000e+00 0.000000000000e+00 0.000000000000e+00 0.000000000000e+00 0.000000000000e+00 
S 19 t2 -8 0.000000000000e+00 0.000000000000e+00 0.000000000000e+00 1.828800048828e+03 0.000000000000e+00 0.000000000000e+00 0.000000000000e+00 -7.564730185550e-05 2.438399902344e+03 0.000000000000e+00 -3.308421142578e+03 -9.811872587306e-05 0.000000000000e+00 0.000000000000e+00 0.000000000000e+00 0.000000000000e+00 0.000000000000e+00 0.000000000000e+00 0.000000000000e+00 0.000000000000e+00 0.000000000000e+00 0.000000000000e+00 0.000000000000e+00 0.000000000000e+00 
S 19 t3 -8 0.000000000000e+00 0.000000000000e+00 0.000000000000e+00 -7.993938925210e-05 -7.993938925210e-05 1.828800048828e+03 -2.438399902344e+03 3.093855411862e-05 -1.065858523361e-04 -4.649694528780e-05 -3.308421142578e+03 -1.446156820748e-04 0.000000000000e+00 0.000000000000e+00 0.000000000000e+00 0.000000000000e+00 0.000000000000e+00 0.000000000000e+00 0.000000000000e+00 0.000000000000e+00 0.000000000000e+00 0.000000000000e+00 0.000000000000e+00 0.000000000000e+00 
C Y t 5 0 4 0 0 0 0 0 64 65 0 0 0 
M u test 1.000000000000e+00 0.000000000000e+00 0.000000000000e+00 0.000000000000e+00 0.000000000000e+00 1.000000000000e+00 0.000000000000e+00 0.000000000000e+00 0.000000000000e+00 0.000000000000e+00 1.000000000000e+00 0.000000000000e+00 0.000000000000e+00 0.000000000000e+00 0.000000000000e+00 1.000000000000e+00 0 
M u t1 1.000000000000e+00 0.000000000000e+00 0.000000000000e+00 0.000000000000e+00 0.000000000000e+00 1.000000000000e+00 0.000000000000e+00 0.000000000000e+00 0.000000000000e+00 0.000000000000e+00 1.000000000000e+00 0.000000000000e+00 0.000000000000e+00 0.000000000000e+00 0.000000000000e+00 1.000000000000e+00 0 
M u t2 1.000000000000e+00 0.000000000000e+00 0.000000000000e+00 0.000000000000e+00 0.000000000000e+00 1.000000000000e+00 0.000000000000e+00 0.000000000000e+00 0.000000000000e+00 0.000000000000e+00 1.000000000000e+00 0.000000000000e+00 0.000000000000e+00 0.000000000000e+00 0.000000000000e+00 1.000000000000e+00 0 
M u t3 1.000000000000e+00 0.000000000000e+00 0.000000000000e+00 0.000000000000e+00 0.000000000000e+00 1.000000000000e+00 0.000000000000e+00 0.000000000000e+00 0.000000000000e+00 0.000000000000e+00 1.000000000000e+00 0.000000000000e+00 0.000000000000e+00 0.000000000000e+00 0.000000000000e+00 1.000000000000e+00 0 
S 20 u6 -8 1.828800048828e+03 -1.828800048828e+03 -1.828800048828e+03 0.000000000000e+00 3.657600097656e+03 0.000000000000e+00 0.000000000000e+00 3.657600097656e+03 3.657600097656e+03 0.000000000000e+00 0.000000000000e+00 3.657600097656e+03 -3.657600097656e+03 0.000000000000e+00 0.000000000000e+00 -3.657600097656e+03 3.657600097656e+03 0.000000000000e+00 -3.657600097656e+03 3.657600097656e+03 3.657600097656e+03 -3.657600097656e+03 0.000000000000e+00 3.657600097656e+03 
S 20 u1 -8 1.828800048828e+03 0.000000000000e+00 0.000000000000e+00 0.000000000000e+00 3.047922363281e+02 0.000000000000e+00 0.000000000000e+00 3.047922363281e+02 3.047922363281e+02 0.000000000000e+00 0.000000000000e+00 3.047922363281e+02 -3.047922363281e+02 0.000000000000e+00 0.000000000000e+00 -3.047922363281e+02 3.047922363281e+02 0.000000000000e+00 -3.047922363281e+02 3.047922363281e+02 3.047922363281e+02 -3.047922363281e+02 0.000000000000e+00 3.047922363281e+02 
S 19 m12 -8 5.728018798828e+02 -1.013768432617e+03 -1.181972122192e+02 -6.661616225756e-06 0.000000000000e+00 1.523999938965e+02 1.077630691528e+02 1.077630691528e+02 4.710473604064e-06 -1.077630691528e+02 1.077630691528e+02 -4.710473604064e-06 0.000000000000e+00 0.000000000000e+00 0.000000000000e+00 0.000000000000e+00 0.000000000000e+00 0.000000000000e+00 0.000000000000e+00 0.000000000000e+00 0.000000000000e+00 0.000000000000e+00 0.000000000000e+00 0.000000000000e+00 
S 19 m13 -8 -4.546046733856e+00 6.137163085938e+02 -4.591507263184e+02 -6.661616225756e-06 0.000000000000e+00 1.523999938965e+02 1.077630691528e+02 1.077630691528e+02 4.710473604064e-06 -1.077630691528e+02 1.077630691528e+02 -4.710473604064e-06 0.000000000000e+00 0.000000000000e+00 0.000000000000e+00 0.000000000000e+00 0.000000000000e+00 0.000000000000e+00 0.000000000000e+00 0.000000000000e+00 0.000000000000e+00 0.000000000000e+00 0.000000000000e+00 0.000000000000e+00 
S 19 m14 -8 1.591116180420e+02 -2.409405059814e+02 -1.600208374023e+03 -4.703478680312e-06 -4.717454430647e-06 1.523999938965e+02 -2.260719835758e-01 1.523997955322e+02 4.710473604064e-06 -3.047995605469e+02 -4.522077739239e-01 -9.420947208127e-06 0.000000000000e+00 0.000000000000e+00 0.000000000000e+00 0.000000000000e+00 0.000000000000e+00 0.000000000000e+00 0.000000000000e+00 0.000000000000e+00 0.000000000000e+00 0.000000000000e+00 0.000000000000e+00 0.000000000000e+00 
S 19 m15 -8 -6.000781250000e+02 3.273152465820e+02 -1.513833618164e+03 1.028588256836e+02 -4.611625172402e-06 1.124536361694e+02 2.335518360138e+00 1.523670959473e+02 -2.136240482330e+00 -2.248586273193e+02 6.330223560333e+00 2.056731872559e+02 0.000000000000e+00 0.000000000000e+00 0.000000000000e+00 0.000000000000e+00 0.000000000000e+00 0.000000000000e+00 0.000000000000e+00 0.000000000000e+00 0.000000000000e+00 0.000000000000e+00 0.000000000000e+00 0.000000000000e+00 
C N man0 -1 0 15 0 0 0 0 0 128 64 0 0 0 
M u m1 1.000000000000e+00 0.000000000000e+00 0.000000000000e+00 0.000000000000e+00 0.000000000000e+00 1.000000000000e+00 0.000000000000e+00 0.000000000000e+00 0.000000000000e+00 0.000000000000e+00 1.000000000000e+00 0.000000000000e+00 0.000000000000e+00 0.000000000000e+00 0.000000000000e+00 1.000000000000e+00 0 
M u m2 1.000000000000e+00 0.000000000000e+00 0.000000000000e+00 0.000000000000e+00 0.000000000000e+00 1.000000000000e+00 0.000000000000e+00 0.000000000000e+00 0.000000000000e+00 0.000000000000e+00 1.000000000000e+00 0.000000000000e+00 0.000000000000e+00 0.000000000000e+00 0.000000000000e+00 1.000000000000e+00 0 
M u m3 1.000000000000e+00 0.000000000000e+00 0.000000000000e+00 0.000000000000e+00 0.000000000000e+00 1.000000000000e+00 0.000000000000e+00 0.000000000000e+00 0.000000000000e+00 0.000000000000e+00 1.000000000000e+00 0.000000000000e+00 0.000000000000e+00 0.000000000000e+00 0.000000000000e+00 1.000000000000e+00 0 
M u m4 1.000000000000e+00 0.000000000000e+00 0.000000000000e+00 0.000000000000e+00 0.000000000000e+00 1.000000000000e+00 0.000000000000e+00 0.000000000000e+00 0.000000000000e+00 0.000000000000e+00 1.000000000000e+00 0.000000000000e+00 0.000000000000e+00 0.000000000000e+00 0.000000000000e+00 1.000000000000e+00 0 
M u m5 1.000000000000e+00 0.000000000000e+00 0.000000000000e+00 0.000000000000e+00 0.000000000000e+00 1.000000000000e+00 0.000000000000e+00 0.000000000000e+00 0.000000000000e+00 0.000000000000e+00 1.000000000000e+00 0.000000000000e+00 0.000000000000e+00 0.000000000000e+00 0.000000000000e+00 1.000000000000e+00 0 
M u m6 1.000000000000e+00 0.000000000000e+00 0.000000000000e+00 0.000000000000e+00 0.000000000000e+00 1.000000000000e+00 0.000000000000e+00 0.000000000000e+00 0.000000000000e+00 0.000000000000e+00 1.000000000000e+00 0.000000000000e+00 0.000000000000e+00 0.000000000000e+00 0.000000000000e+00 1.000000000000e+00 0 
M u m7 1.000000000000e+00 0.000000000000e+00 0.000000000000e+00 0.000000000000e+00 0.000000000000e+00 1.000000000000e+00 0.000000000000e+00 0.000000000000e+00 0.000000000000e+00 0.000000000000e+00 1.000000000000e+00 0.000000000000e+00 0.000000000000e+00 0.000000000000e+00 0.000000000000e+00 1.000000000000e+00 0 
M u m8 1.000000000000e+00 0.000000000000e+00 0.000000000000e+00 0.000000000000e+00 0.000000000000e+00 1.000000000000e+00 0.000000000000e+00 0.000000000000e+00 0.000000000000e+00 0.000000000000e+00 1.000000000000e+00 0.000000000000e+00 0.000000000000e+00 0.000000000000e+00 0.000000000000e+00 1.000000000000e+00 0 
M u m9 1.000000000000e+00 0.000000000000e+00 0.000000000000e+00 0.000000000000e+00 0.000000000000e+00 1.000000000000e+00 0.000000000000e+00 0.000000000000e+00 0.000000000000e+00 0.000000000000e+00 1.000000000000e+00 0.000000000000e+00 0.000000000000e+00 0.000000000000e+00 0.000000000000e+00 1.000000000000e+00 0 
M u m10 1.000000000000e+00 0.000000000000e+00 0.000000000000e+00 0.000000000000e+00 0.000000000000e+00 1.000000000000e+00 0.000000000000e+00 0.000000000000e+00 0.000000000000e+00 0.000000000000e+00 1.000000000000e+00 0.000000000000e+00 0.000000000000e+00 0.000000000000e+00 0.000000000000e+00 1.000000000000e+00 0 
M u m11 1.000000000000e+00 0.000000000000e+00 0.000000000000e+00 0.000000000000e+00 0.000000000000e+00 1.000000000000e+00 0.000000000000e+00 0.000000000000e+00 0.000000000000e+00 0.000000000000e+00 1.000000000000e+00 0.000000000000e+00 0.000000000000e+00 0.000000000000e+00 0.000000000000e+00 1.000000000000e+00 0 
M u m12 1.000000000000e+00 0.000000000000e+00 0.000000000000e+00 0.000000000000e+00 0.000000000000e+00 1.000000000000e+00 0.000000000000e+00 0.000000000000e+00 0.000000000000e+00 0.000000000000e+00 1.000000000000e+00 0.000000000000e+00 0.000000000000e+00 0.000000000000e+00 0.000000000000e+00 1.000000000000e+00 0 
M u m13 1.000000000000e+00 0.000000000000e+00 0.000000000000e+00 0.000000000000e+00 0.000000000000e+00 1.000000000000e+00 0.000000000000e+00 0.000000000000e+00 0.000000000000e+00 0.000000000000e+00 1.000000000000e+00 0.000000000000e+00 0.000000000000e+00 0.000000000000e+00 0.000000000000e+00 1.000000000000e+00 0 
M u m14 1.000000000000e+00 0.000000000000e+00 0.000000000000e+00 0.000000000000e+00 0.000000000000e+00 1.000000000000e+00 0.000000000000e+00 0.000000000000e+00 0.000000000000e+00 0.000000000000e+00 1.000000000000e+00 0.000000000000e+00 0.000000000000e+00 0.000000000000e+00 0.000000000000e+00 1.000000000000e+00 0 
M u m15 1.000000000000e+00 0.000000000000e+00 0.000000000000e+00 0.000000000000e+00 0.000000000000e+00 1.000000000000e+00 0.000000000000e+00 0.000000000000e+00 0.000000000000e+00 0.000000000000e+00 1.000000000000e+00 0.000000000000e+00 0.000000000000e+00 0.000000000000e+00 0.000000000000e+00 1.000000000000e+00 0 
S 20 u8 -8 -2.438399902344e+03 2.438399902344e+03 2.438399902344e+03 0.000000000000e+00 -4.876799804688e+03 0.000000000000e+00 0.000000000000e+00 -4.876799804688e+03 -4.876799804688e+03 0.000000000000e+00 0.000000000000e+00 -4.876799804688e+03 4.876799804688e+03 0.000000000000e+00 0.000000000000e+00 4.876799804688e+03 -4.876799804688e+03 0.000000000000e+00 4.876799804688e+03 -4.876799804688e+03 -4.876799804688e+03 4.876799804688e+03 0.000000000000e+00 -4.876799804688e+03 
C N u -1 0 3 0 0 0 0 0 0 0 0 0 0 
M u u1 1.000000000000e+00 0.000000000000e+00 0.000000000000e+00 0.000000000000e+00 0.000000000000e+00 1.000000000000e+00 0.000000000000e+00 0.000000000000e+00 0.000000000000e+00 0.000000000000e+00 1.000000000000e+00 0.000000000000e+00 0.000000000000e+00 0.000000000000e+00 0.000000000000e+00 1.000000000000e+00 16511 
M u u6 1.000000000000e+00 0.000000000000e+00 0.000000000000e+00 0.000000000000e+00 0.000000000000e+00 1.000000000000e+00 0.000000000000e+00 0.000000000000e+00 0.000000000000e+00 0.000000000000e+00 1.000000000000e+00 0.000000000000e+00 0.000000000000e+00 0.000000000000e+00 0.000000000000e+00 1.000000000000e+00 16511 
M u u8 1.000000000000e+00 0.000000000000e+00 0.000000000000e+00 0.000000000000e+00 0.000000000000e+00 1.000000000000e+00 0.000000000000e+00 0.000000000000e+00 0.000000000000e+00 0.000000000000e+00 1.000000000000e+00 0.000000000000e+00 0.000000000000e+00 0.000000000000e+00 0.000000000000e+00 1.000000000000e+00 16511 
C N mm -1 0 3 0 0 0 0 0 0 0 0 0 0 
M u man0 6.659883260727e-01 7.459623813629e-01 0.000000000000e+00 -2.090054931641e+03 -7.459622025490e-01 6.659882068634e-01 0.000000000000e+00 8.856737670898e+02 0.000000000000e+00 0.000000000000e+00 1.000000000000e+00 0.000000000000e+00 0.000000000000e+00 0.000000000000e+00 0.000000000000e+00 1.000000000000e+00 16511 
M u man0 6.252166628838e-01 -7.804512977600e-01 0.000000000000e+00 -1.994372558594e+03 7.804512977600e-01 6.252166628838e-01 0.000000000000e+00 -8.408063964844e+02 0.000000000000e+00 0.000000000000e+00 1.000000000000e+00 0.000000000000e+00 0.000000000000e+00 0.000000000000e+00 0.000000000000e+00 1.000000000000e+00 16511 
M u man0 9.574430994689e-03 -9.999443292618e-01 -4.587079398334e-03 1.010193862915e+02 -1.323795039207e-02 4.460188094527e-03 -9.999023079872e-01 -1.060814132690e+02 9.998667240143e-01 9.634218178689e-03 -1.319467369467e-02 -6.812639160156e+02 0.000000000000e+00 0.000000000000e+00 0.000000000000e+00 1.000000000000e+00 16511 
C N m -1 0 1 0 0 0 0 0 0 0 0 0 0 
M u mm 1.000000000000e+00 0.000000000000e+00 0.000000000000e+00 0.000000000000e+00 0.000000000000e+00 1.000000000000e+00 0.000000000000e+00 0.000000000000e+00 0.000000000000e+00 0.000000000000e+00 1.000000000000e+00 0.000000000000e+00 0.000000000000e+00 0.000000000000e+00 0.000000000000e+00 1.000000000000e+00 16511 
