I 1 v4
Primitive Objects
S 20 arb8 1 -2.608230590820e+00 -3.745986938477e+01 -1.897094917297e+01 0.000000000000e+00 3.794189834595e+01 0.000000000000e+00 0.000000000000e+00 3.794189834595e+01 3.794189834595e+01 0.000000000000e+00 0.000000000000e+00 3.794189834595e+01 -3.794189834595e+01 0.000000000000e+00 0.000000000000e+00 -3.794189834595e+01 3.794189834595e+01 0.000000000000e+00 -3.794189834595e+01 3.794189834595e+01 3.794189834595e+01 -3.794189834595e+01 0.000000000000e+00 3.794189834595e+01 
S 20 arb7 7 1.200788974762e+00 1.028824567795e+00 0.000000000000e+00 0.000000000000e+00 1.897094917297e+01 0.000000000000e+00 0.000000000000e+00 1.897094917297e+01 1.897094917297e+01 0.000000000000e+00 0.000000000000e+00 9.485474586487e+00 -1.897094917297e+01 0.000000000000e+00 0.000000000000e+00 -1.897094917297e+01 1.897094917297e+01 0.000000000000e+00 -1.897094917297e+01 1.897094917297e+01 9.485474586487e+00 -1.897094917297e+01 0.000000000000e+00 0.000000000000e+00 
S 20 arb5 5 -3.597419738770e+01 1.722794651985e+00 -7.062556266785e+00 0.000000000000e+00 0.000000000000e+00 1.897094917297e+01 0.000000000000e+00 1.897094917297e+01 1.897094917297e+01 0.000000000000e+00 1.897094917297e+01 0.000000000000e+00 -1.897094726563e+01 9.485474586487e+00 9.485474586487e+00 -1.897094726563e+01 9.485474586487e+00 9.485474586487e+00 -1.897094726563e+01 9.485474586487e+00 9.485474586487e+00 -1.897094726563e+01 9.485474586487e+00 9.485474586487e+00 
S 19 ellg 4 -1.942907714844e+01 3.126000785828e+01 0.000000000000e+00 1.897094917297e+01 0.000000000000e+00 0.000000000000e+00 0.000000000000e+00 6.707243442535e+00 -6.707243442535e+00 0.000000000000e+00 6.707243442535e+00 6.707243442535e+00 0.000000000000e+00 0.000000000000e+00 0.000000000000e+00 0.000000000000e+00 0.000000000000e+00 0.000000000000e+00 0.000000000000e+00 0.000000000000e+00 0.000000000000e+00 0.000000000000e+00 0.000000000000e+00 0.000000000000e+00 
S 18 tgc 5 9.115391731262e+00 -1.611639213562e+01 0.000000000000e+00 0.000000000000e+00 0.000000000000e+00 1.897094917297e+01 6.707243442535e+00 -6.707243442535e+00 0.000000000000e+00 6.707243442535e+00 6.707243442535e+00 0.000000000000e+00 6.707243442535e+00 -6.707243442535e+00 0.000000000000e+00 6.707243442535e+00 6.707243442535e+00 0.000000000000e+00 0.000000000000e+00 0.000000000000e+00 0.000000000000e+00 0.000000000000e+00 0.000000000000e+00 0.000000000000e+00 
S 16 tor 6 0.000000000000e+00 0.000000000000e+00 0.000000000000e+00 0.000000000000e+00 2.000000029802e-01 0.000000000000e+00 -7.071067690849e-01 0.000000000000e+00 7.071067690849e-01 -7.071068286896e-01 0.000000000000e+00 -7.071068286896e-01 -5.656854510307e-01 0.000000000000e+00 5.656854510307e-01 -5.656853914261e-01 0.000000000000e+00 -5.656853914261e-01 -8.485280871391e-01 0.000000000000e+00 8.485280871391e-01 -8.485280871391e-01 0.000000000000e+00 -8.485280871391e-01 
C Y all.r 1000 0 5 5 1 100 0 44 128 0 1 0 0 
testmap
M u tgc 1.000000000000e+00 0.000000000000e+00 0.000000000000e+00 0.000000000000e+00 0.000000000000e+00 1.000000000000e+00 0.000000000000e+00 0.000000000000e+00 0.000000000000e+00 0.000000000000e+00 1.000000000000e+00 0.000000000000e+00 0.000000000000e+00 0.000000000000e+00 0.000000000000e+00 1.000000000000e+00 0 
M u arb5 1.000000000000e+00 0.000000000000e+00 0.000000000000e+00 0.000000000000e+00 0.000000000000e+00 1.000000000000e+00 0.000000000000e+00 0.000000000000e+00 0.000000000000e+00 0.000000000000e+00 1.000000000000e+00 0.000000000000e+00 0.000000000000e+00 0.000000000000e+00 0.000000000000e+00 1.000000000000e+00 0 
M u arb7 1.000000000000e+00 0.000000000000e+00 0.000000000000e+00 0.000000000000e+00 0.000000000000e+00 1.000000000000e+00 0.000000000000e+00 0.000000000000e+00 0.000000000000e+00 0.000000000000e+00 1.000000000000e+00 0.000000000000e+00 0.000000000000e+00 0.000000000000e+00 0.000000000000e+00 1.000000000000e+00 0 
M u arb8 1.000000000000e+00 0.000000000000e+00 0.000000000000e+00 0.000000000000e+00 0.000000000000e+00 1.000000000000e+00 0.000000000000e+00 0.000000000000e+00 0.000000000000e+00 0.000000000000e+00 1.000000000000e+00 0.000000000000e+00 0.000000000000e+00 0.000000000000e+00 0.000000000000e+00 1.000000000000e+00 0 
M u ellg 1.000000000000e+00 0.000000000000e+00 0.000000000000e+00 0.000000000000e+00 0.000000000000e+00 1.000000000000e+00 0.000000000000e+00 0.000000000000e+00 0.000000000000e+00 0.000000000000e+00 1.000000000000e+00 0.000000000000e+00 0.000000000000e+00 0.000000000000e+00 0.000000000000e+00 1.000000000000e+00 0 
