I 1 v4
A Tin Woodsman 
S 20 solid8 1 1.000000000000e+00 -1.000000000000e+00 -1.000000000000e+00 0.000000000000e+00 2.000000000000e+00 0.000000000000e+00 0.000000000000e+00 2.000000000000e+00 2.000000000000e+00 0.000000000000e+00 0.000000000000e+00 2.000000000000e+00 -2.000000000000e+00 0.000000000000e+00 0.000000000000e+00 -2.000000000000e+00 2.000000000000e+00 0.000000000000e+00 -2.000000000000e+00 2.000000000000e+00 2.000000000000e+00 -2.000000000000e+00 0.000000000000e+00 2.000000000000e+00 
S 16 torus 16 0.000000000000e+00 0.000000000000e+00 0.000000000000e+00 0.000000000000e+00 2.000000029802e-01 0.000000000000e+00 -7.071067690849e-01 0.000000000000e+00 7.071067690849e-01 -7.071067690849e-01 0.000000000000e+00 -7.071067690849e-01 -5.656854510307e-01 0.000000000000e+00 5.656854510307e-01 -5.656854510307e-01 0.000000000000e+00 -5.656854510307e-01 -8.485281467438e-01 0.000000000000e+00 8.485281467438e-01 -8.485281467438e-01 0.000000000000e+00 -8.485281467438e-01 
S 19 ellipsoid 23 0.000000000000e+00 0.000000000000e+00 0.000000000000e+00 1.000000000000e+00 0.000000000000e+00 0.000000000000e+00 0.000000000000e+00 5.000000000000e-01 0.000000000000e+00 0.000000000000e+00 0.000000000000e+00 5.000000000000e-01 0.000000000000e+00 0.000000000000e+00 0.000000000000e+00 0.000000000000e+00 0.000000000000e+00 0.000000000000e+00 0.000000000000e+00 0.000000000000e+00 0.000000000000e+00 0.000000000000e+00 0.000000000000e+00 0.000000000000e+00 
S 18 cylinder 12 0.000000000000e+00 0.000000000000e+00 0.000000000000e+00 2.000000000000e+00 0.000000000000e+00 0.000000000000e+00 0.000000000000e+00 7.071067690849e-01 -7.071067690849e-01 0.000000000000e+00 7.071067690849e-01 7.071067690849e-01 0.000000000000e+00 7.071067690849e-01 -7.071067690849e-01 0.000000000000e+00 7.071067690849e-01 7.071067690849e-01 0.000000000000e+00 0.000000000000e+00 0.000000000000e+00 0.000000000000e+00 0.000000000000e+00 0.000000000000e+00 
S 19 e.1 11 0.000000000000e+00 2.000000000000e+00 0.000000000000e+00 1.000000000000e+00 0.000000000000e+00 0.000000000000e+00 0.000000000000e+00 1.000000000000e+00 0.000000000000e+00 0.000000000000e+00 0.000000000000e+00 1.000000000000e+00 0.000000000000e+00 0.000000000000e+00 0.000000000000e+00 0.000000000000e+00 0.000000000000e+00 0.000000000000e+00 0.000000000000e+00 0.000000000000e+00 0.000000000000e+00 0.000000000000e+00 0.000000000000e+00 0.000000000000e+00 
S 19 e.2 23 -1.299999952316e+00 0.000000000000e+00 0.000000000000e+00 4.329757140656e-17 1.000000000000e+00 -4.329757140656e-17 -1.767766922712e-01 1.530800293925e-17 1.767766922712e-01 1.767766922712e-01 0.000000000000e+00 1.767766922712e-01 0.000000000000e+00 0.000000000000e+00 0.000000000000e+00 0.000000000000e+00 0.000000000000e+00 0.000000000000e+00 0.000000000000e+00 0.000000000000e+00 0.000000000000e+00 0.000000000000e+00 0.000000000000e+00 0.000000000000e+00 
S 19 e.6 23 -5.000000000000e-01 -3.000000000000e+00 0.000000000000e+00 4.329757140656e-17 1.000000000000e+00 -4.329757140656e-17 -3.535533845425e-01 3.061600587851e-17 3.535533845425e-01 3.535533845425e-01 0.000000000000e+00 3.535533845425e-01 0.000000000000e+00 0.000000000000e+00 0.000000000000e+00 0.000000000000e+00 0.000000000000e+00 0.000000000000e+00 0.000000000000e+00 0.000000000000e+00 0.000000000000e+00 0.000000000000e+00 0.000000000000e+00 0.000000000000e+00 
S 18 c.1 12 0.000000000000e+00 2.200000047684e+00 0.000000000000e+00 8.659514281312e-17 2.000000000000e+00 -8.659514281312e-17 -1.000000000000e+00 4.329757140656e-17 -1.665334536938e-16 0.000000000000e+00 4.329757140656e-17 1.000000000000e+00 -1.000000014901e-01 4.329756975220e-18 -1.665334603112e-17 0.000000000000e+00 4.329757388810e-18 1.000000014901e-01 0.000000000000e+00 0.000000000000e+00 0.000000000000e+00 0.000000000000e+00 0.000000000000e+00 0.000000000000e+00 
S 20 s.1 8 1.000000000000e+00 -2.000000000000e+00 -1.000000000000e+00 0.000000000000e+00 3.000000000000e+00 0.000000000000e+00 0.000000000000e+00 3.000000000000e+00 2.000000000000e+00 0.000000000000e+00 0.000000000000e+00 2.000000000000e+00 -2.000000000000e+00 0.000000000000e+00 0.000000000000e+00 -2.000000000000e+00 3.000000000000e+00 0.000000000000e+00 -2.000000000000e+00 3.000000000000e+00 2.000000000000e+00 -2.000000000000e+00 0.000000000000e+00 2.000000000000e+00 
S 16 t.1 16 0.000000000000e+00 1.000000000000e+00 0.000000000000e+00 0.000000000000e+00 1.000000014901e-01 0.000000000000e+00 -7.071067690849e-01 0.000000000000e+00 7.071067690849e-01 -7.071067690849e-01 0.000000000000e+00 -7.071067690849e-01 -6.363961100578e-01 0.000000000000e+00 6.363961100578e-01 -6.363961100578e-01 0.000000000000e+00 -6.363961100578e-01 -7.778174281120e-01 0.000000000000e+00 7.778174281120e-01 -7.778174281120e-01 0.000000000000e+00 -7.778174281120e-01 
S 18 c.2 12 0.000000000000e+00 4.199999809265e+00 0.000000000000e+00 8.659514281312e-17 2.000000000000e+00 -8.659514281312e-17 -1.000000014901e-01 4.329756975220e-18 -1.665334603112e-17 0.000000000000e+00 4.329757388810e-18 1.000000014901e-01 -1.000000014901e-01 4.329756975220e-18 -1.665334603112e-17 0.000000000000e+00 4.329757388810e-18 1.000000014901e-01 0.000000000000e+00 0.000000000000e+00 0.000000000000e+00 0.000000000000e+00 0.000000000000e+00 0.000000000000e+00 
S 19 e.3 23 -1.299999952316e+00 -2.000000000000e+00 0.000000000000e+00 4.329757140656e-17 1.000000000000e+00 -4.329757140656e-17 -1.767766922712e-01 1.530800293925e-17 1.767766922712e-01 1.767766922712e-01 0.000000000000e+00 1.767766922712e-01 0.000000000000e+00 0.000000000000e+00 0.000000000000e+00 0.000000000000e+00 0.000000000000e+00 0.000000000000e+00 0.000000000000e+00 0.000000000000e+00 0.000000000000e+00 0.000000000000e+00 0.000000000000e+00 0.000000000000e+00 
S 19 e.4 23 1.299999952316e+00 0.000000000000e+00 0.000000000000e+00 4.329757140656e-17 1.000000000000e+00 -4.329757140656e-17 -1.767766922712e-01 1.530800293925e-17 1.767766922712e-01 1.767766922712e-01 0.000000000000e+00 1.767766922712e-01 0.000000000000e+00 0.000000000000e+00 0.000000000000e+00 0.000000000000e+00 0.000000000000e+00 0.000000000000e+00 0.000000000000e+00 0.000000000000e+00 0.000000000000e+00 0.000000000000e+00 0.000000000000e+00 0.000000000000e+00 
S 19 e.5 23 1.299999952316e+00 -2.000000000000e+00 0.000000000000e+00 4.329757140656e-17 1.000000000000e+00 -4.329757140656e-17 -1.767766922712e-01 1.530800293925e-17 1.767766922712e-01 1.767766922712e-01 0.000000000000e+00 1.767766922712e-01 0.000000000000e+00 0.000000000000e+00 0.000000000000e+00 0.000000000000e+00 0.000000000000e+00 0.000000000000e+00 0.000000000000e+00 0.000000000000e+00 0.000000000000e+00 0.000000000000e+00 0.000000000000e+00 0.000000000000e+00 
S 19 e.7 23 -5.000000000000e-01 -5.000000000000e+00 0.000000000000e+00 4.329757140656e-17 1.000000000000e+00 -4.329757140656e-17 -3.535533845425e-01 3.061600587851e-17 3.535533845425e-01 3.535533845425e-01 0.000000000000e+00 3.535533845425e-01 0.000000000000e+00 0.000000000000e+00 0.000000000000e+00 0.000000000000e+00 0.000000000000e+00 0.000000000000e+00 0.000000000000e+00 0.000000000000e+00 0.000000000000e+00 0.000000000000e+00 0.000000000000e+00 0.000000000000e+00 
S 19 e.8 23 5.000000000000e-01 -3.000000000000e+00 0.000000000000e+00 4.329757140656e-17 1.000000000000e+00 -4.329757140656e-17 -3.535533845425e-01 3.061600587851e-17 3.535533845425e-01 3.535533845425e-01 0.000000000000e+00 3.535533845425e-01 0.000000000000e+00 0.000000000000e+00 0.000000000000e+00 0.000000000000e+00 0.000000000000e+00 0.000000000000e+00 0.000000000000e+00 0.000000000000e+00 0.000000000000e+00 0.000000000000e+00 0.000000000000e+00 0.000000000000e+00 
S 19 e.9 23 5.000000000000e-01 -5.000000000000e+00 0.000000000000e+00 4.329757140656e-17 1.000000000000e+00 -4.329757140656e-17 -3.535533845425e-01 3.061600587851e-17 3.535533845425e-01 3.535533845425e-01 0.000000000000e+00 3.535533845425e-01 0.000000000000e+00 0.000000000000e+00 0.000000000000e+00 0.000000000000e+00 0.000000000000e+00 0.000000000000e+00 0.000000000000e+00 0.000000000000e+00 0.000000000000e+00 0.000000000000e+00 0.000000000000e+00 0.000000000000e+00 
C Y torso.r 1000 0 1 0 1 100 1 95 159 159 1 0 0 
plastic
M u s.1 1.000000000000e+00 0.000000000000e+00 0.000000000000e+00 0.000000000000e+00 0.000000000000e+00 1.000000000000e+00 0.000000000000e+00 0.000000000000e+00 0.000000000000e+00 0.000000000000e+00 1.000000000000e+00 0.000000000000e+00 0.000000000000e+00 0.000000000000e+00 0.000000000000e+00 1.000000000000e+00 0 
C Y collar.r 1002 0 1 73 1 100 1 255 127 0 1 0 0 
plastic
M u t.1 1.000000000000e+00 0.000000000000e+00 0.000000000000e+00 0.000000000000e+00 0.000000000000e+00 1.000000000000e+00 0.000000000000e+00 0.000000000000e+00 0.000000000000e+00 0.000000000000e+00 1.000000000000e+00 0.000000000000e+00 0.000000000000e+00 0.000000000000e+00 0.000000000000e+00 1.000000000000e+00 0 
C Y limbs.r 1001 0 9 4096 1 100 1 255 200 160 1 0 0 
plastic
M u e.1 1.000000000000e+00 0.000000000000e+00 0.000000000000e+00 0.000000000000e+00 0.000000000000e+00 1.000000000000e+00 0.000000000000e+00 0.000000000000e+00 0.000000000000e+00 0.000000000000e+00 1.000000000000e+00 0.000000000000e+00 0.000000000000e+00 0.000000000000e+00 0.000000000000e+00 1.000000000000e+00 0 
M u e.2 1.000000000000e+00 0.000000000000e+00 0.000000000000e+00 0.000000000000e+00 0.000000000000e+00 1.000000000000e+00 0.000000000000e+00 0.000000000000e+00 0.000000000000e+00 0.000000000000e+00 1.000000000000e+00 0.000000000000e+00 0.000000000000e+00 0.000000000000e+00 0.000000000000e+00 1.000000000000e+00 0 
M u e.3 1.000000000000e+00 0.000000000000e+00 0.000000000000e+00 0.000000000000e+00 0.000000000000e+00 1.000000000000e+00 0.000000000000e+00 0.000000000000e+00 0.000000000000e+00 0.000000000000e+00 1.000000000000e+00 0.000000000000e+00 0.000000000000e+00 0.000000000000e+00 0.000000000000e+00 1.000000000000e+00 0 
M u e.4 1.000000000000e+00 0.000000000000e+00 0.000000000000e+00 0.000000000000e+00 0.000000000000e+00 1.000000000000e+00 0.000000000000e+00 0.000000000000e+00 0.000000000000e+00 0.000000000000e+00 1.000000000000e+00 0.000000000000e+00 0.000000000000e+00 0.000000000000e+00 0.000000000000e+00 1.000000000000e+00 0 
M u e.5 1.000000000000e+00 0.000000000000e+00 0.000000000000e+00 0.000000000000e+00 0.000000000000e+00 1.000000000000e+00 0.000000000000e+00 0.000000000000e+00 0.000000000000e+00 0.000000000000e+00 1.000000000000e+00 0.000000000000e+00 0.000000000000e+00 0.000000000000e+00 0.000000000000e+00 1.000000000000e+00 0 
M u e.6 1.000000000000e+00 0.000000000000e+00 0.000000000000e+00 0.000000000000e+00 0.000000000000e+00 1.000000000000e+00 0.000000000000e+00 0.000000000000e+00 0.000000000000e+00 0.000000000000e+00 1.000000000000e+00 0.000000000000e+00 0.000000000000e+00 0.000000000000e+00 0.000000000000e+00 1.000000000000e+00 0 
M u e.7 1.000000000000e+00 0.000000000000e+00 0.000000000000e+00 0.000000000000e+00 0.000000000000e+00 1.000000000000e+00 0.000000000000e+00 0.000000000000e+00 0.000000000000e+00 0.000000000000e+00 1.000000000000e+00 0.000000000000e+00 0.000000000000e+00 0.000000000000e+00 0.000000000000e+00 1.000000000000e+00 0 
M u e.8 1.000000000000e+00 0.000000000000e+00 0.000000000000e+00 0.000000000000e+00 0.000000000000e+00 1.000000000000e+00 0.000000000000e+00 0.000000000000e+00 0.000000000000e+00 0.000000000000e+00 1.000000000000e+00 0.000000000000e+00 0.000000000000e+00 0.000000000000e+00 0.000000000000e+00 1.000000000000e+00 0 
M u e.9 1.000000000000e+00 0.000000000000e+00 0.000000000000e+00 0.000000000000e+00 0.000000000000e+00 1.000000000000e+00 0.000000000000e+00 0.000000000000e+00 0.000000000000e+00 0.000000000000e+00 1.000000000000e+00 0.000000000000e+00 0.000000000000e+00 0.000000000000e+00 0.000000000000e+00 1.000000000000e+00 0 
C Y funnel.r 1004 0 4 4096 1 100 1 35 107 142 1 1 0 
plastic
sh=100
M u c.1 1.000000000000e+00 0.000000000000e+00 0.000000000000e+00 0.000000000000e+00 0.000000000000e+00 1.000000000000e+00 0.000000000000e+00 0.000000000000e+00 0.000000000000e+00 0.000000000000e+00 1.000000000000e+00 0.000000000000e+00 0.000000000000e+00 0.000000000000e+00 0.000000000000e+00 1.000000000000e+00 0 
M - e.1 1.000000000000e+00 0.000000000000e+00 0.000000000000e+00 0.000000000000e+00 0.000000000000e+00 1.000000000000e+00 0.000000000000e+00 0.000000000000e+00 0.000000000000e+00 0.000000000000e+00 1.000000000000e+00 0.000000000000e+00 0.000000000000e+00 0.000000000000e+00 0.000000000000e+00 1.000000000000e+00 0 
M u c.2 1.000000000000e+00 0.000000000000e+00 0.000000000000e+00 0.000000000000e+00 0.000000000000e+00 1.000000000000e+00 0.000000000000e+00 0.000000000000e+00 0.000000000000e+00 0.000000000000e+00 1.000000000000e+00 0.000000000000e+00 0.000000000000e+00 0.000000000000e+00 0.000000000000e+00 1.000000000000e+00 0 
M - e.1 1.000000000000e+00 0.000000000000e+00 0.000000000000e+00 0.000000000000e+00 0.000000000000e+00 1.000000000000e+00 0.000000000000e+00 0.000000000000e+00 0.000000000000e+00 0.000000000000e+00 1.000000000000e+00 0.000000000000e+00 0.000000000000e+00 0.000000000000e+00 0.000000000000e+00 1.000000000000e+00 0 
C N man.g -1 0 4 0 0 0 0 0 16 1 0 0 0 
M u collar.r 1.000000000000e+00 0.000000000000e+00 0.000000000000e+00 0.000000000000e+00 0.000000000000e+00 1.000000000000e+00 0.000000000000e+00 0.000000000000e+00 0.000000000000e+00 0.000000000000e+00 1.000000000000e+00 0.000000000000e+00 0.000000000000e+00 0.000000000000e+00 0.000000000000e+00 1.000000000000e+00 0 
M u funnel.r 1.000000000000e+00 0.000000000000e+00 0.000000000000e+00 0.000000000000e+00 0.000000000000e+00 1.000000000000e+00 0.000000000000e+00 0.000000000000e+00 0.000000000000e+00 0.000000000000e+00 1.000000000000e+00 0.000000000000e+00 0.000000000000e+00 0.000000000000e+00 0.000000000000e+00 1.000000000000e+00 0 
M u limbs.r 1.000000000000e+00 0.000000000000e+00 0.000000000000e+00 0.000000000000e+00 0.000000000000e+00 1.000000000000e+00 0.000000000000e+00 0.000000000000e+00 0.000000000000e+00 0.000000000000e+00 1.000000000000e+00 0.000000000000e+00 0.000000000000e+00 0.000000000000e+00 0.000000000000e+00 1.000000000000e+00 0 
M u torso.r 1.000000000000e+00 0.000000000000e+00 0.000000000000e+00 0.000000000000e+00 0.000000000000e+00 1.000000000000e+00 0.000000000000e+00 0.000000000000e+00 0.000000000000e+00 0.000000000000e+00 1.000000000000e+00 0.000000000000e+00 0.000000000000e+00 0.000000000000e+00 0.000000000000e+00 1.000000000000e+00 0 
